1950      0.4880       0.469       0.555      0.0860   Weta= 8.295  Kp= 0.00
1951      0.4860       0.453       0.568      0.1150   Weta= 8.350  Kp= 0.00
1952      0.4870       0.467       0.542      0.0750   Weta= 8.412  Kp= 0.00
1953      0.4910       0.467       0.572      0.1050   Weta= 8.190  Kp= 0.00
1954      0.4940       0.441       0.575      0.1340   Weta= 8.418  Kp= 0.00
1955      0.4950       0.466       0.578      0.1120   Weta= 8.156  Kp= 0.00
1956      0.4950       0.481       0.553      0.0720   Weta= 8.201  Kp= 0.00
1957      0.5040       0.474       0.557      0.0830   Weta= 8.234  Kp= 0.00
1958      0.5090       0.477       0.563      0.0860   Weta= 8.163  Kp= 0.00
1959      0.5130       0.467       0.568      0.1010   Weta= 8.218  Kp= 0.00
1960      0.5200       0.488       0.597      0.1090   Weta= 7.833  Kp= 0.00
1961      0.5200       0.485       0.576      0.0910   Weta= 8.001  Kp= 0.00
1962      0.5200       0.498       0.580      0.0820   Weta= 7.863  Kp= 0.00
1963      0.5270       0.485       0.613      0.1280   Weta= 7.756  Kp= 0.00
1964      0.5300       0.485       0.617      0.1320   Weta= 7.731  Kp= 0.00
1965      0.5350       0.492       0.589      0.0970   Weta= 7.852  Kp= 0.00
1966      0.5300       0.486       0.594      0.1080   Weta= 7.870  Kp= 0.00
1967      0.5410       0.481       0.601      0.1200   Weta= 7.867  Kp= 0.00
1968      0.5420       0.505       0.633      0.1280   Weta= 7.469  Kp= 0.00
1969      0.5510       0.512       0.638      0.1260   Weta= 7.385  Kp= 0.00
1970      0.5550       0.514       0.645      0.1310   Weta= 7.329  Kp= 0.00
1971      0.5590       0.524       0.623      0.0990   Weta= 7.382  Kp= 0.00
1972      0.5610       0.517       0.627      0.1100   Weta= 7.412  Kp= 0.00
1973      0.5680       0.532       0.644      0.1120   Weta= 7.200  Kp= 0.00
1974      0.5690       0.524       0.645      0.1210   Weta= 7.254  Kp= 0.00
1975      0.5880       0.540       0.646      0.1060   Weta= 7.132  Kp= 0.00
1976      0.5910       0.540       0.655      0.1150   Weta= 7.081  Kp= 0.00
1977      0.5920       0.539       0.662      0.1230   Weta= 7.050  Kp= 0.00
1978      0.5990       0.548       0.701      0.1530   Weta= 6.785  Kp= 0.00
1979      0.6070       0.576       0.673      0.0970   Weta= 6.744  Kp= 0.00
1980      0.6120       0.543       0.716      0.1730   Weta= 6.746  Kp= 0.00
1981      0.6190       0.593       0.684      0.0910   Weta= 6.582  Kp= 0.00
1982      0.6320       0.585       0.727      0.1420   Weta= 6.424  Kp= 0.00
1983      0.6340       0.585       0.703      0.1180   Weta= 6.537  Kp= 0.00
1984      0.6380       0.600       0.722      0.1220   Weta= 6.358  Kp= 0.00
1985      0.6390       0.563       0.717      0.1540   Weta= 6.609  Kp= 0.00
1986      0.6500       0.595       0.722      0.1270   Weta= 6.387  Kp= 0.00
1987      0.6510       0.580       0.761      0.1810   Weta= 6.304  Kp= 0.00
1988      0.6560       0.600       0.755      0.1550   Weta= 6.211  Kp= 0.00
1989      0.6710       0.596       0.753      0.1570   Weta= 6.243  Kp= 0.00
1990      0.6730       0.617       0.784      0.1670   Weta= 5.995  Kp= 0.00
1991      0.6820       0.632       0.754      0.1220   Weta= 6.038  Kp= 0.00
1992      0.6850       0.620       0.795      0.1750   Weta= 5.935  Kp= 0.00
1993      0.6880       0.626       0.803      0.1770   Weta= 5.872  Kp= 0.00
1994      0.6970       0.645       0.808      0.1630   Weta= 5.754  Kp= 0.00
1995      0.7030       0.655       0.823      0.1680   Weta= 5.648  Kp= 0.00
1996      0.7100       0.647       0.831      0.1840   Weta= 5.659  Kp= 0.00
1997      0.7170       0.626       0.796      0.1700   Weta= 5.899  Kp= 0.00
1998      0.7290       0.654       0.850      0.1960   Weta= 5.556  Kp= 0.00
1999      0.7290       0.659       0.857      0.1980   Weta= 5.508  Kp= 0.00
2000      0.7550       0.671       0.852      0.1810   Weta= 5.468  Kp= 0.00
2001      0.7580       0.677       0.870      0.1930   Weta= 5.379  Kp= 0.00
2002      0.7600       0.652       0.877      0.2250   Weta= 5.474  Kp= 0.00
2003      0.7600       0.676       0.853      0.1770   Weta= 5.441  Kp= 0.00
2004      0.7780       0.686       0.896      0.2100   Weta= 5.254  Kp= 0.00
2005      0.7820       0.717       0.911      0.1940   Weta= 5.073  Kp= 0.00
2006      0.7970       0.723       0.925      0.2020   Weta= 5.007  Kp= 0.00
2007      0.8030       0.708       0.936      0.2280   Weta= 5.036  Kp= 0.00
2008      0.8180       0.754       0.895      0.1410   Weta= 4.975  Kp= 0.00
2009      0.8190       0.753       0.911      0.1580   Weta= 4.930  Kp= 0.00
2010      0.8410       0.775       0.929      0.1540   Weta= 4.794  Kp= 0.00
2011      0.8350       0.773       0.970      0.1970   Weta= 4.686  Kp= 0.00
2012      0.8340       0.755       0.945      0.1900   Weta= 4.823  Kp= 0.00
2013      0.8560       0.746       0.953      0.2070   Weta= 4.834  Kp= 0.00
2014      0.8760       0.759       1.008      0.2490   Weta= 4.637  Kp= 0.00
2015      0.8820       0.774       1.031      0.2570   Weta= 4.525  Kp= 0.00
2016      0.8880       0.796       1.039      0.2430   Weta= 4.429  Kp= 0.00
2017      0.8930       0.769       1.050      0.2810   Weta= 4.496  Kp= 0.00
2018      0.9170       0.787       1.059      0.2720   Weta= 4.412  Kp= 0.00
2019      0.9220       0.781       1.068      0.2870   Weta= 4.411  Kp= 0.00
2020      0.9380       0.822       1.039      0.2170   Weta= 4.342  Kp= 0.00
