1950     13.2740      13.272      13.275      0.0030   Weta=-1.483  Kp= 0.00
1951     13.2640      13.262      13.265      0.0030   Weta=-1.483  Kp= 0.00
1952     13.2555      13.255      13.256      0.0010   Weta=-1.481  Kp= 0.00
1953     13.2450      13.245      13.246      0.0010   Weta=-1.484  Kp= 0.00
1954     13.2350      13.235      13.236      0.0010   Weta=-1.481  Kp= 0.00
1955     13.2240      13.224      13.225      0.0010   Weta=-1.481  Kp= 0.00
1956     13.2120      13.212      13.213      0.0010   Weta=-1.480  Kp= 0.00
1957     13.2000      13.200      13.201      0.0010   Weta=-1.481  Kp= 0.00
1958     13.1880      13.188      13.189      0.0010   Weta=-1.480  Kp= 0.00
1959     13.1760      13.176      13.177      0.0010   Weta=-1.479  Kp= 0.00
1960     13.1610      13.133      13.163      0.0300   Weta=-1.478  Kp= 0.00
1961     13.1480      13.119      13.150      0.0310   Weta=-1.478  Kp= 0.00
1962     13.1340      13.105      13.136      0.0310   Weta=-1.477  Kp= 0.00
1963     13.1220      13.122      13.123      0.0010   Weta=-1.477  Kp= 0.00
1964     13.1070      13.078      13.109      0.0310   Weta=-1.476  Kp= 0.00
1965     13.0940      13.065      13.096      0.0310   Weta=-1.476  Kp= 0.00
1966     13.0810      13.052      13.083      0.0310   Weta=-1.475  Kp= 0.00
1967     13.0690      13.040      13.071      0.0310   Weta=-1.475  Kp= 0.00
1968     13.0550      13.027      13.058      0.0310   Weta=-1.474  Kp= 0.00
1969     13.0440      13.015      13.046      0.0310   Weta=-1.474  Kp= 0.00
1970     13.0310      13.000      13.034      0.0340   Weta=-1.473  Kp= 0.00
1971     13.0190      12.990      13.022      0.0320   Weta=-1.473  Kp= 0.00
1972     13.0080      12.979      13.010      0.0310   Weta=-1.472  Kp= 0.00
1973     12.9950      12.966      12.998      0.0320   Weta=-1.472  Kp= 0.00
1974     12.9830      12.954      12.986      0.0320   Weta=-1.471  Kp= 0.00
1975     12.9690      12.941      12.971      0.0300   Weta=-1.471  Kp= 0.00
1976     12.9530      12.922      12.956      0.0340   Weta=-1.470  Kp= 0.00
1977     12.9390      12.910      12.941      0.0310   Weta=-1.469  Kp= 0.00
1978     12.9220      12.894      12.925      0.0310   Weta=-1.469  Kp= 0.00
1979     12.9070      12.876      12.910      0.0340   Weta=-1.468  Kp= 0.00
1980     12.8930      12.862      12.896      0.0340   Weta=-1.468  Kp= 0.00
1981     12.8810      12.853      12.885      0.0320   Weta=-1.467  Kp= 0.00
1982     12.8700      12.842      12.873      0.0310   Weta=-1.467  Kp= 0.00
1983     12.8580      12.827      12.861      0.0340   Weta=-1.466  Kp= 0.00
1984     12.8450      12.815      12.849      0.0340   Weta=-1.466  Kp= 0.00
1985     12.8340      12.804      12.838      0.0340   Weta=-1.465  Kp= 0.00
1986     12.8240      12.797      12.827      0.0300   Weta=-1.465  Kp= 0.00
1987     12.8130      12.783      12.818      0.0350   Weta=-1.464  Kp= 0.00
1988     12.8010      12.773      12.807      0.0340   Weta=-1.464  Kp= 0.00
1989     12.7920      12.765      12.796      0.0310   Weta=-1.464  Kp= 0.00
1990     12.7830      12.754      12.789      0.0350   Weta=-1.463  Kp= 0.00
1991     12.7790      12.748      12.783      0.0350   Weta=-1.463  Kp= 0.00
1992     12.7720      12.742      12.776      0.0340   Weta=-1.463  Kp= 0.00
1993     12.7650      12.731      12.770      0.0390   Weta=-1.462  Kp= 0.00
1994     12.7590      12.730      12.764      0.0340   Weta=-1.462  Kp= 0.00
1995     12.7520      12.724      12.758      0.0340   Weta=-1.462  Kp= 0.00
1996     12.7450      12.713      12.751      0.0380   Weta=-1.461  Kp= 0.00
1997     12.7370      12.705      12.745      0.0400   Weta=-1.461  Kp= 0.00
1998     12.7320      12.698      12.739      0.0410   Weta=-1.461  Kp= 0.00
1999     12.7230      12.692      12.733      0.0410   Weta=-1.461  Kp= 0.00
2000     12.7140      12.683      12.724      0.0410   Weta=-1.460  Kp= 0.00
2001     12.7040      12.672      12.713      0.0410   Weta=-1.460  Kp= 0.00
2002     12.6950      12.661      12.703      0.0420   Weta=-1.459  Kp= 0.00
2003     12.6810      12.650      12.692      0.0420   Weta=-1.459  Kp= 0.00
2004     12.6710      12.639      12.681      0.0420   Weta=-1.458  Kp= 0.00
2005     12.6600      12.627      12.670      0.0430   Weta=-1.458  Kp= 0.00
2006     12.6440      12.613      12.656      0.0430   Weta=-1.457  Kp= 0.00
2007     12.6290      12.600      12.643      0.0430   Weta=-1.457  Kp= 0.00
2008     12.6160      12.586      12.629      0.0430   Weta=-1.456  Kp= 0.00
2009     12.6030      12.573      12.617      0.0440   Weta=-1.456  Kp= 0.00
2010     12.5900      12.557      12.602      0.0450   Weta=-1.455  Kp= 0.00
2011     12.5690      12.540      12.584      0.0440   Weta=-1.454  Kp= 0.00
2012     12.5520      12.522      12.567      0.0450   Weta=-1.454  Kp= 0.00
2013     12.5330      12.505      12.549      0.0440   Weta=-1.453  Kp= 0.00
2014     12.5160      12.487      12.533      0.0460   Weta=-1.452  Kp= 0.00
2015     12.4950      12.468      12.513      0.0450   Weta=-1.451  Kp= 0.00
2016     12.4760      12.447      12.494      0.0470   Weta=-1.450  Kp= 0.00
2017     12.4550      12.427      12.474      0.0470   Weta=-1.449  Kp= 0.00
2018     12.4320      12.406      12.453      0.0470   Weta=-1.449  Kp= 0.00
2019     12.4160      12.386      12.433      0.0470   Weta=-1.448  Kp= 0.00
2020     12.3920      12.365      12.413      0.0480   Weta=-1.447  Kp= 0.00
