1950      2.2400       1.999       2.456      0.4570   Weta= 1.143  Kp= 0.00
1951      2.2470       1.829       2.458      0.6290   Weta= 1.259  Kp= 0.00
1952      2.2500       1.826       2.458      0.6320   Weta= 1.261  Kp= 0.00
1953      2.2430       1.841       2.460      0.6190   Weta= 1.249  Kp= 0.00
1954      2.2600       1.861       2.462      0.6010   Weta= 1.234  Kp= 0.00
1955      2.2490       1.858       2.471      0.6130   Weta= 1.231  Kp= 0.00
1956      2.2570       1.839       2.464      0.6250   Weta= 1.249  Kp= 0.00
1957      2.2620       1.962       2.466      0.5040   Weta= 1.162  Kp= 0.00
1958      2.2460       1.965       2.468      0.5030   Weta= 1.159  Kp= 0.00
1959      2.2580       1.842       2.471      0.6290   Weta= 1.243  Kp= 0.00
1960      2.2630       1.971       2.482      0.5110   Weta= 1.149  Kp= 0.00
1961      2.2560       1.891       2.475      0.5840   Weta= 1.206  Kp= 0.00
1962      2.2650       1.993       2.488      0.4950   Weta= 1.131  Kp= 0.00
1963      2.2600       2.009       2.487      0.4780   Weta= 1.122  Kp= 0.00
1964      2.2920       1.915       2.493      0.5780   Weta= 1.181  Kp= 0.00
1965      2.2730       2.012       2.488      0.4760   Weta= 1.119  Kp= 0.00
1966      2.2770       2.009       2.489      0.4800   Weta= 1.121  Kp= 0.00
1967      2.2750       2.044       2.491      0.4470   Weta= 1.098  Kp= 0.00
1968      2.2710       1.900       2.498      0.5980   Weta= 1.189  Kp= 0.00
1969      2.2860       2.024       2.499      0.4750   Weta= 1.107  Kp= 0.00
1970      2.3110       1.908       2.500      0.5920   Weta= 1.182  Kp= 0.00
1971      2.2890       1.882       2.511      0.6290   Weta= 1.195  Kp= 0.00
1972      2.2940       1.775       2.506      0.7310   Weta= 1.276  Kp= 0.00
1973      2.2870       2.022       2.509      0.4870   Weta= 1.103  Kp= 0.00
1974      2.2990       1.942       2.516      0.5740   Weta= 1.151  Kp= 0.00
1975      2.3170       1.812       2.514      0.7020   Weta= 1.244  Kp= 0.00
1976      2.2920       1.891       2.515      0.6240   Weta= 1.187  Kp= 0.00
1977      2.2860       2.017       2.522      0.5050   Weta= 1.100  Kp= 0.00
1978      2.2990       2.019       2.521      0.5020   Weta= 1.099  Kp= 0.00
1979      2.2900       1.921       2.517      0.5960   Weta= 1.165  Kp= 0.00
1980      2.2970       1.923       2.515      0.5920   Weta= 1.165  Kp= 0.00
1981      2.3030       1.918       2.523      0.6050   Weta= 1.164  Kp= 0.00
1982      2.2910       1.870       2.515      0.6450   Weta= 1.201  Kp= 0.00
1983      2.2930       1.810       2.519      0.7090   Weta= 1.243  Kp= 0.00
1984      2.3050       2.042       2.509      0.4670   Weta= 1.091  Kp= 0.00
1985      2.3000       1.900       2.511      0.6110   Weta= 1.182  Kp= 0.00
1986      2.2890       1.877       2.504      0.6270   Weta= 1.202  Kp= 0.00
1987      2.3030       1.930       2.510      0.5800   Weta= 1.162  Kp= 0.00
1988      2.2870       1.932       2.501      0.5690   Weta= 1.165  Kp= 0.00
1989      2.2800       1.918       2.498      0.5800   Weta= 1.176  Kp= 0.00
1990      2.2820       2.031       2.494      0.4630   Weta= 1.105  Kp= 0.00
1991      2.2620       1.932       2.501      0.5690   Weta= 1.165  Kp= 0.00
1992      2.2690       1.920       2.498      0.5780   Weta= 1.175  Kp= 0.00
1993      2.2780       1.918       2.497      0.5790   Weta= 1.177  Kp= 0.00
1994      2.2740       1.887       2.492      0.6050   Weta= 1.200  Kp= 0.00
1995      2.2770       1.875       2.498      0.6230   Weta= 1.206  Kp= 0.00
1996      2.2780       1.896       2.495      0.5990   Weta= 1.193  Kp= 0.00
1997      2.2670       1.912       2.493      0.5810   Weta= 1.183  Kp= 0.00
1998      2.2630       1.993       2.481      0.4880   Weta= 1.135  Kp= 0.00
1999      2.2780       1.889       2.488      0.5990   Weta= 1.201  Kp= 0.00
2000      2.2540       1.999       2.483      0.4840   Weta= 1.130  Kp= 0.00
2001      2.2700       2.011       2.485      0.4740   Weta= 1.121  Kp= 0.00
2002      2.2640       1.969       2.482      0.5130   Weta= 1.150  Kp= 0.00
2003      2.2670       1.980       2.475      0.4950   Weta= 1.146  Kp= 0.00
2004      2.2510       1.974       2.470      0.4960   Weta= 1.153  Kp= 0.00
2005      2.2650       1.972       2.470      0.4980   Weta= 1.154  Kp= 0.00
2006      2.2690       2.018       2.471      0.4530   Weta= 1.124  Kp= 0.00
2007      2.2660       1.874       2.480      0.6060   Weta= 1.216  Kp= 0.00
2008      2.2620       1.842       2.473      0.6310   Weta= 1.242  Kp= 0.00
2009      2.2710       1.986       2.482      0.4960   Weta= 1.139  Kp= 0.00
2010      2.2630       1.860       2.474      0.6140   Weta= 1.228  Kp= 0.00
2011      2.2540       1.899       2.483      0.5840   Weta= 1.197  Kp= 0.00
2012      2.2570       2.003       2.474      0.4710   Weta= 1.132  Kp= 0.00
2013      2.2620       1.905       2.476      0.5710   Weta= 1.196  Kp= 0.00
2014      2.2480       1.977       2.484      0.5070   Weta= 1.144  Kp= 0.00
2015      2.2730       1.871       2.486      0.6150   Weta= 1.215  Kp= 0.00
2016      2.2630       1.895       2.481      0.5860   Weta= 1.200  Kp= 0.00
2017      2.2710       1.829       2.483      0.6540   Weta= 1.246  Kp= 0.00
2018      2.2630       1.915       2.482      0.5670   Weta= 1.186  Kp= 0.00
2019      2.2620       2.013       2.482      0.4690   Weta= 1.122  Kp= 0.00
2020      2.2690       1.973       2.483      0.5100   Weta= 1.147  Kp= 0.00
