1950      3.5370       2.824       3.769      0.9450   Weta= 0.317  Kp= 0.00
1951      3.5090       3.010       3.774      0.7640   Weta= 0.257  Kp= 0.00
1952      3.5260       3.000       3.777      0.7770   Weta= 0.259  Kp= 0.00
1953      3.5020       3.020       3.774      0.7540   Weta= 0.254  Kp= 0.00
1954      3.5140       3.005       3.771      0.7660   Weta= 0.259  Kp= 0.00
1955      3.5150       3.033       3.769      0.7360   Weta= 0.251  Kp= 0.00
1956      3.5190       3.024       3.765      0.7410   Weta= 0.255  Kp= 0.00
1957      3.5100       3.000       3.762      0.7620   Weta= 0.263  Kp= 0.00
1958      3.5250       3.006       3.760      0.7540   Weta= 0.261  Kp= 0.00
1959      3.5140       3.000       3.755      0.7550   Weta= 0.264  Kp= 0.00
1960      3.4960       3.071       3.753      0.6820   Weta= 0.244  Kp= 0.00
1961      3.4930       2.746       3.752      1.0060   Weta= 0.348  Kp= 0.00
1962      3.5040       2.683       3.742      1.0590   Weta= 0.373  Kp= 0.00
1963      3.5120       3.007       3.749      0.7420   Weta= 0.264  Kp= 0.00
1964      3.5030       3.086       3.741      0.6550   Weta= 0.242  Kp= 0.00
1965      3.4970       3.006       3.749      0.7430   Weta= 0.264  Kp= 0.00
1966      3.4980       3.091       3.748      0.6570   Weta= 0.239  Kp= 0.00
1967      3.5080       2.776       3.747      0.9710   Weta= 0.339  Kp= 0.00
1968      3.5010       3.009       3.747      0.7380   Weta= 0.263  Kp= 0.00
1969      3.5170       3.095       3.746      0.6510   Weta= 0.238  Kp= 0.00
1970      3.4950       3.014       3.745      0.7310   Weta= 0.262  Kp= 0.00
1971      3.4940       2.742       3.741      0.9990   Weta= 0.352  Kp= 0.00
1972      3.5060       2.736       3.742      1.0060   Weta= 0.354  Kp= 0.00
1973      3.4940       3.000       3.742      0.7420   Weta= 0.267  Kp= 0.00
1974      3.4840       2.780       3.739      0.9590   Weta= 0.339  Kp= 0.00
1975      3.4930       2.714       3.736      1.0220   Weta= 0.363  Kp= 0.00
1976      3.4750       2.861       3.727      0.8660   Weta= 0.315  Kp= 0.00
1977      3.4710       2.682       3.720      1.0380   Weta= 0.378  Kp= 0.00
1978      3.4820       2.721       3.712      0.9910   Weta= 0.366  Kp= 0.00
1979      3.4660       2.821       3.704      0.8830   Weta= 0.333  Kp= 0.00
1980      3.4570       2.721       3.695      0.9740   Weta= 0.370  Kp= 0.00
1981      3.4420       2.614       3.685      1.0710   Weta= 0.412  Kp= 0.00
1982      3.4400       2.665       3.676      1.0110   Weta= 0.395  Kp= 0.00
1983      3.4100       2.754       3.656      0.9020   Weta= 0.368  Kp= 0.00
1984      3.3980       2.868       3.645      0.7770   Weta= 0.332  Kp= 0.00
1985      3.3880       2.736       3.646      0.9100   Weta= 0.377  Kp= 0.00
1986      3.4060       2.786       3.639      0.8530   Weta= 0.361  Kp= 0.00
1987      3.3930       2.734       3.631      0.8970   Weta= 0.381  Kp= 0.00
1988      3.3880       2.619       3.624      1.0050   Weta= 0.425  Kp= 0.00
1989      3.3750       2.763       3.617      0.8540   Weta= 0.374  Kp= 0.00
1990      3.3600       2.792       3.610      0.8180   Weta= 0.366  Kp= 0.00
1991      3.3700       2.780       3.605      0.8250   Weta= 0.371  Kp= 0.00
1992      3.3590       2.639       3.588      0.9490   Weta= 0.427  Kp= 0.00
1993      3.3500       2.641       3.595      0.9540   Weta= 0.424  Kp= 0.00
1994      3.3600       2.786       3.584      0.7980   Weta= 0.375  Kp= 0.00
1995      3.3430       2.670       3.582      0.9120   Weta= 0.416  Kp= 0.00
1996      3.3240       2.727       3.575      0.8480   Weta= 0.398  Kp= 0.00
1997      3.3320       2.616       3.567      0.9510   Weta= 0.441  Kp= 0.00
1998      3.3110       2.745       3.560      0.8150   Weta= 0.395  Kp= 0.00
1999      3.3100       2.789       3.554      0.7650   Weta= 0.381  Kp= 0.00
2000      3.3070       2.712       3.546      0.8340   Weta= 0.410  Kp= 0.00
2001      3.2730       2.690       3.540      0.8500   Weta= 0.420  Kp= 0.00
2002      3.2800       2.664       3.533      0.8690   Weta= 0.431  Kp= 0.00
2003      3.2760       2.778       3.527      0.7490   Weta= 0.392  Kp= 0.00
2004      3.2870       2.662       3.521      0.8590   Weta= 0.435  Kp= 0.00
2005      3.2710       2.674       3.515      0.8410   Weta= 0.432  Kp= 0.00
2006      3.2690       2.634       3.509      0.8750   Weta= 0.449  Kp= 0.00
2007      3.2680       2.482       3.504      1.0220   Weta= 0.511  Kp= 0.00
2008      3.2540       2.687       3.499      0.8120   Weta= 0.432  Kp= 0.00
2009      3.2520       2.617       3.493      0.8760   Weta= 0.460  Kp= 0.00
2010      3.2390       2.763       3.488      0.7250   Weta= 0.407  Kp= 0.00
2011      3.2380       2.744       3.482      0.7380   Weta= 0.415  Kp= 0.00
2012      3.2450       2.704       3.473      0.7690   Weta= 0.432  Kp= 0.00
2013      3.2270       2.650       3.471      0.8210   Weta= 0.453  Kp= 0.00
2014      3.2300       2.632       3.465      0.8330   Weta= 0.461  Kp= 0.00
2015      3.2270       2.627       3.461      0.8340   Weta= 0.464  Kp= 0.00
2016      3.2140       2.551       3.456      0.9050   Weta= 0.495  Kp= 0.00
2017      3.2050       2.542       3.450      0.9080   Weta= 0.501  Kp= 0.00
2018      3.2170       2.649       3.447      0.7980   Weta= 0.460  Kp= 0.00
2019      3.1950       2.513       3.443      0.9300   Weta= 0.514  Kp= 0.00
2020      3.1880       2.638       3.439      0.8010   Weta= 0.466  Kp= 0.00
