1950      2.3850       1.978       2.604      0.6260   Weta= 1.085  Kp= 0.00
1951      2.3840       1.906       2.611      0.7050   Weta= 1.130  Kp= 0.00
1952      2.3670       1.942       2.604      0.6620   Weta= 1.109  Kp= 0.00
1953      2.3800       1.998       2.606      0.6080   Weta= 1.072  Kp= 0.00
1954      2.3840       1.952       2.594      0.6420   Weta= 1.107  Kp= 0.00
1955      2.3670       1.997       2.591      0.5940   Weta= 1.079  Kp= 0.00
1956      2.3720       1.949       2.598      0.6490   Weta= 1.107  Kp= 0.00
1957      2.3710       1.903       2.591      0.6880   Weta= 1.141  Kp= 0.00
1958      2.3590       1.880       2.589      0.7090   Weta= 1.158  Kp= 0.00
1959      2.3540       1.956       2.590      0.6340   Weta= 1.106  Kp= 0.00
1960      2.3620       1.934       2.582      0.6480   Weta= 1.124  Kp= 0.00
1961      2.3650       1.953       2.577      0.6240   Weta= 1.114  Kp= 0.00
1962      2.3750       1.988       2.578      0.5900   Weta= 1.091  Kp= 0.00
1963      2.3590       2.083       2.582      0.4990   Weta= 1.030  Kp= 0.00
1964      2.3640       2.061       2.581      0.5200   Weta= 1.044  Kp= 0.00
1965      2.3670       2.092       2.579      0.4870   Weta= 1.026  Kp= 0.00
1966      2.3440       1.795       2.583      0.7880   Weta= 1.223  Kp= 0.00
1967      2.3610       2.057       2.582      0.5250   Weta= 1.046  Kp= 0.00
1968      2.3400       1.823       2.578      0.7550   Weta= 1.204  Kp= 0.00
1969      2.3710       1.956       2.571      0.6150   Weta= 1.115  Kp= 0.00
1970      2.3700       2.049       2.570      0.5210   Weta= 1.056  Kp= 0.00
1971      2.3620       1.924       2.578      0.6540   Weta= 1.133  Kp= 0.00
1972      2.3440       1.890       2.575      0.6850   Weta= 1.158  Kp= 0.00
1973      2.3460       1.969       2.575      0.6060   Weta= 1.105  Kp= 0.00
1974      2.3450       1.943       2.564      0.6210   Weta= 1.127  Kp= 0.00
1975      2.3570       1.956       2.569      0.6130   Weta= 1.116  Kp= 0.00
1976      2.3380       2.057       2.553      0.4960   Weta= 1.059  Kp= 0.00
1977      2.3460       1.840       2.556      0.7160   Weta= 1.202  Kp= 0.00
1978      2.3280       2.054       2.548      0.4940   Weta= 1.063  Kp= 0.00
1979      2.3290       2.076       2.543      0.4670   Weta= 1.052  Kp= 0.00
1980      2.3200       1.994       2.527      0.5330   Weta= 1.111  Kp= 0.00
1981      2.3090       2.024       2.519      0.4950   Weta= 1.096  Kp= 0.00
1982      2.3070       1.889       2.519      0.6300   Weta= 1.185  Kp= 0.00
1983      2.2980       2.035       2.511      0.4760   Weta= 1.092  Kp= 0.00
1984      2.2740       1.989       2.503      0.5140   Weta= 1.126  Kp= 0.00
1985      2.2810       2.027       2.489      0.4620   Weta= 1.108  Kp= 0.00
1986      2.2710       1.849       2.487      0.6380   Weta= 1.229  Kp= 0.00
1987      2.2480       1.882       2.485      0.6030   Weta= 1.207  Kp= 0.00
1988      2.2480       1.953       2.472      0.5190   Weta= 1.164  Kp= 0.00
1989      2.2560       2.002       2.474      0.4720   Weta= 1.131  Kp= 0.00
1990      2.2440       1.936       2.469      0.5330   Weta= 1.177  Kp= 0.00
1991      2.2470       1.784       2.464      0.6800   Weta= 1.289  Kp= 0.00
1992      2.2460       1.770       2.455      0.6850   Weta= 1.305  Kp= 0.00
1993      2.2390       1.940       2.453      0.5130   Weta= 1.182  Kp= 0.00
1994      2.2390       1.932       2.452      0.5200   Weta= 1.188  Kp= 0.00
1995      2.2250       1.929       2.447      0.5180   Weta= 1.193  Kp= 0.00
1996      2.2200       1.827       2.436      0.6090   Weta= 1.271  Kp= 0.00
1997      2.2230       1.867       2.435      0.5680   Weta= 1.242  Kp= 0.00
1998      2.2180       1.903       2.426      0.5230   Weta= 1.222  Kp= 0.00
1999      2.2020       1.814       2.425      0.6110   Weta= 1.287  Kp= 0.00
2000      2.1960       1.894       2.413      0.5190   Weta= 1.235  Kp= 0.00
2001      2.1930       1.806       2.412      0.6060   Weta= 1.299  Kp= 0.00
2002      2.1830       1.843       2.409      0.5660   Weta= 1.273  Kp= 0.00
2003      2.1860       1.859       2.400      0.5410   Weta= 1.266  Kp= 0.00
2004      2.1900       1.797       2.397      0.6000   Weta= 1.314  Kp= 0.00
2005      2.1660       1.838       2.395      0.5570   Weta= 1.284  Kp= 0.00
2006      2.1640       1.772       2.384      0.6120   Weta= 1.341  Kp= 0.00
2007      2.1590       1.908       2.385      0.4770   Weta= 1.239  Kp= 0.00
2008      2.1540       1.875       2.380      0.5050   Weta= 1.265  Kp= 0.00
2009      2.1400       1.886       2.369      0.4830   Weta= 1.263  Kp= 0.00
2010      2.1410       1.891       2.370      0.4790   Weta= 1.259  Kp= 0.00
2011      2.1310       1.759       2.365      0.6060   Weta= 1.361  Kp= 0.00
2012      2.1070       1.871       2.354      0.4830   Weta= 1.282  Kp= 0.00
2013      2.1170       1.725       2.351      0.6260   Weta= 1.396  Kp= 0.00
2014      2.1190       1.701       2.344      0.6430   Weta= 1.420  Kp= 0.00
2015      2.1140       1.679       2.339      0.6600   Weta= 1.442  Kp= 0.00
2016      2.1080       1.790       2.340      0.5500   Weta= 1.350  Kp= 0.00
2017      2.0930       1.775       2.333      0.5580   Weta= 1.366  Kp= 0.00
2018      2.1010       1.767       2.329      0.5620   Weta= 1.375  Kp= 0.00
2019      2.0800       1.750       2.321      0.5710   Weta= 1.393  Kp= 0.00
2020      2.0890       1.665       2.317      0.6520   Weta= 1.466  Kp= 0.00
