1950        0.0085
1951        0.0085
1952        0.0085
1953        0.0085
1954        0.0085
1955        0.0085
1956        0.0085
1957        0.0085
1958        0.0085
1959        0.0085
1960        0.0085
1961        0.0085
1962        0.0085
1963        0.0085
1964        0.0085
1965        0.0085
1966        0.0085
1967        0.0085
1968        0.0085
1969        0.0085
1970        0.0085
1971        0.0085
1972        0.0085
1973        0.0085
1974        0.0085
1975        0.0085
1976        0.0085
1977        0.0085
1978        0.0085
1979        0.0085
1980        0.0085
1981        0.0085
1982        0.0085
1983        0.0085
1984        0.0085
1985        0.0085
1986        0.0085
1987        0.0085
1988        0.0085
1989        0.0085
1990        0.0085
1991        0.0085
1992        0.0085
1993        0.0085
1994        0.0085
1995        0.0085
1996        0.0085
1997        0.0085
1998        0.0085
1999        0.0085
2000        0.0085
2001        0.0085
2002        0.0085
2003        0.0085
2004        0.0085
2005        0.0085
2006        0.0085
2007        0.0085
2008        0.0085
2009        0.0085
2010        0.0085
2011        0.0085
2012        0.0085
2013        0.0085
2014        0.0085
2015        0.0085
2016        0.0085
2017        0.0085
2018        0.0085
2019        0.0085
2020        0.0085
