1950      0.5770       0.531       0.643      0.1120   Weta= 7.258  Kp= 0.00
1951      0.5800       0.532       0.645      0.1130   Weta= 7.239  Kp= 0.00
1952      0.5770       0.548       0.641      0.0930   Weta= 7.147  Kp= 0.00
1953      0.5720       0.534       0.640      0.1060   Weta= 7.253  Kp= 0.00
1954      0.5780       0.533       0.640      0.1070   Weta= 7.261  Kp= 0.00
1955      0.5800       0.546       0.641      0.0950   Weta= 7.161  Kp= 0.00
1956      0.5730       0.529       0.638      0.1090   Weta= 7.302  Kp= 0.00
1957      0.5750       0.513       0.639      0.1260   Weta= 7.417  Kp= 0.00
1958      0.5760       0.535       0.640      0.1050   Weta= 7.246  Kp= 0.00
1959      0.5790       0.543       0.635      0.0920   Weta= 7.217  Kp= 0.00
1960      0.5750       0.535       0.635      0.1000   Weta= 7.275  Kp= 0.00
1961      0.5820       0.530       0.635      0.1050   Weta= 7.312  Kp= 0.00
1962      0.5740       0.533       0.637      0.1040   Weta= 7.278  Kp= 0.00
1963      0.5790       0.519       0.637      0.1180   Weta= 7.383  Kp= 0.00
1964      0.5780       0.538       0.634      0.0960   Weta= 7.259  Kp= 0.00
1965      0.5710       0.545       0.639      0.0940   Weta= 7.180  Kp= 0.00
1966      0.5710       0.539       0.634      0.0950   Weta= 7.252  Kp= 0.00
1967      0.5710       0.526       0.634      0.1080   Weta= 7.348  Kp= 0.00
1968      0.5780       0.545       0.634      0.0890   Weta= 7.209  Kp= 0.00
1969      0.5790       0.530       0.634      0.1040   Weta= 7.318  Kp= 0.00
1970      0.5740       0.528       0.633      0.1050   Weta= 7.338  Kp= 0.00
1971      0.5740       0.537       0.633      0.0960   Weta= 7.272  Kp= 0.00
1972      0.5660       0.505       0.632      0.1270   Weta= 7.522  Kp= 0.00
1973      0.5700       0.542       0.631      0.0890   Weta= 7.248  Kp= 0.00
1974      0.5700       0.520       0.636      0.1160   Weta= 7.381  Kp= 0.00
1975      0.5710       0.559       0.629      0.0700   Weta= 7.141  Kp= 0.00
1976      0.5740       0.551       0.634      0.0830   Weta= 7.167  Kp= 0.00
1977      0.5620       0.536       0.624      0.0880   Weta= 7.333  Kp= 0.00
1978      0.5590       0.523       0.621      0.0980   Weta= 7.448  Kp= 0.00
1979      0.5610       0.524       0.638      0.1140   Weta= 7.339  Kp= 0.00
1980      0.5580       0.527       0.616      0.0890   Weta= 7.449  Kp= 0.00
1981      0.5630       0.508       0.618      0.1100   Weta= 7.584  Kp= 0.00
1982      0.5540       0.507       0.612      0.1050   Weta= 7.629  Kp= 0.00
1983      0.5470       0.517       0.607      0.0900   Weta= 7.582  Kp= 0.00
1984      0.5430       0.513       0.604      0.0910   Weta= 7.632  Kp= 0.00
1985      0.5440       0.521       0.601      0.0800   Weta= 7.589  Kp= 0.00
1986      0.5390       0.492       0.597      0.1050   Weta= 7.850  Kp= 0.00
1987      0.5390       0.509       0.594      0.0850   Weta= 7.729  Kp= 0.00
1988      0.5300       0.496       0.590      0.0940   Weta= 7.863  Kp= 0.00
1989      0.5340       0.502       0.598      0.0960   Weta= 7.760  Kp= 0.00
1990      0.5230       0.500       0.584      0.0840   Weta= 7.870  Kp= 0.00
1991      0.5250       0.505       0.578      0.0730   Weta= 7.870  Kp= 0.00
1992      0.5180       0.494       0.575      0.0810   Weta= 7.982  Kp= 0.00
1993      0.5200       0.497       0.572      0.0750   Weta= 7.978  Kp= 0.00
1994      0.5170       0.485       0.569      0.0840   Weta= 8.102  Kp= 0.00
1995      0.5110       0.476       0.565      0.0890   Weta= 8.211  Kp= 0.00
1996      0.5110       0.469       0.562      0.0930   Weta= 8.297  Kp= 0.00
1997      0.5100       0.478       0.558      0.0800   Weta= 8.245  Kp= 0.00
1998      0.5060       0.479       0.554      0.0750   Weta= 8.265  Kp= 0.00
1999      0.4980       0.460       0.549      0.0890   Weta= 8.480  Kp= 0.00
2000      0.4980       0.453       0.545      0.0920   Weta= 8.579  Kp= 0.00
2001      0.4840       0.458       0.542      0.0840   Weta= 8.554  Kp= 0.00
2002      0.4850       0.454       0.539      0.0850   Weta= 8.617  Kp= 0.00
2003      0.4830       0.458       0.536      0.0780   Weta= 8.601  Kp= 0.00
2004      0.4780       0.456       0.533      0.0770   Weta= 8.645  Kp= 0.00
2005      0.4780       0.459       0.530      0.0710   Weta= 8.640  Kp= 0.00
2006      0.4750       0.446       0.531      0.0850   Weta= 8.761  Kp= 0.00
2007      0.4750       0.457       0.536      0.0790   Weta= 8.611  Kp= 0.00
2008      0.4650       0.442       0.516      0.0740   Weta= 8.927  Kp= 0.00
2009      0.4610       0.430       0.512      0.0820   Weta= 9.090  Kp= 0.00
2010      0.4570       0.439       0.507      0.0680   Weta= 9.037  Kp= 0.00
2011      0.4560       0.443       0.503      0.0600   Weta= 9.030  Kp= 0.00
2012      0.4540       0.429       0.509      0.0800   Weta= 9.127  Kp= 0.00
2013      0.4540       0.415       0.493      0.0780   Weta= 9.430  Kp= 0.00
2014      0.4420       0.427       0.488      0.0610   Weta= 9.340  Kp= 0.00
2015      0.4390       0.400       0.483      0.0830   Weta= 9.706  Kp= 0.00
2016      0.4350       0.415       0.479      0.0640   Weta= 9.564  Kp= 0.00
2017      0.4330       0.427       0.496      0.0690   Weta= 9.266  Kp= 0.00
2018      0.4250       0.401       0.488      0.0870   Weta= 9.645  Kp= 0.00
2019      0.4160       0.398       0.465      0.0670   Weta= 9.911  Kp= 0.00
2020      0.4130       0.381       0.462      0.0810   Weta=10.165  Kp= 0.00
