1950      1.8050       1.578       1.970      0.3920   Weta= 1.769  Kp= 0.00
1951      1.8170       1.540       1.981      0.4410   Weta= 1.799  Kp= 0.00
1952      1.8160       1.566       2.076      0.5100   Weta= 1.705  Kp= 0.00
1953      1.8280       1.572       2.026      0.4540   Weta= 1.734  Kp= 0.00
1954      1.8370       1.518       1.989      0.4710   Weta= 1.815  Kp= 0.00
1955      1.8240       1.523       2.120      0.5970   Weta= 1.719  Kp= 0.00
1956      1.8440       1.601       2.006      0.4050   Weta= 1.720  Kp= 0.00
1957      1.8460       1.608       2.015      0.4070   Weta= 1.707  Kp= 0.00
1958      1.8510       1.485       2.126      0.6410   Weta= 1.754  Kp= 0.00
1959      1.8680       1.622       2.034      0.4120   Weta= 1.681  Kp= 0.00
1960      1.8690       1.590       2.106      0.5160   Weta= 1.662  Kp= 0.00
1961      1.8680       1.629       2.167      0.5380   Weta= 1.586  Kp= 0.00
1962      1.8670       1.563       2.109      0.5460   Weta= 1.686  Kp= 0.00
1963      1.8890       1.601       2.175      0.5740   Weta= 1.607  Kp= 0.00
1964      1.9070       1.664       2.105      0.4410   Weta= 1.595  Kp= 0.00
1965      1.8840       1.638       2.088      0.4500   Weta= 1.629  Kp= 0.00
1966      1.8930       1.663       2.100      0.4370   Weta= 1.599  Kp= 0.00
1967      1.9070       1.636       2.143      0.5070   Weta= 1.595  Kp= 0.00
1968      1.9100       1.654       2.211      0.5570   Weta= 1.537  Kp= 0.00
1969      1.9130       1.643       2.224      0.5810   Weta= 1.539  Kp= 0.00
1970      1.9180       1.632       2.232      0.6000   Weta= 1.544  Kp= 0.00
1971      1.9230       1.625       2.242      0.6170   Weta= 1.544  Kp= 0.00
1972      1.9300       1.647       2.258      0.6110   Weta= 1.515  Kp= 0.00
1973      1.9410       1.603       2.266      0.6630   Weta= 1.550  Kp= 0.00
1974      1.9570       1.690       2.268      0.5780   Weta= 1.472  Kp= 0.00
1975      1.9740       1.611       2.283      0.6720   Weta= 1.532  Kp= 0.00
1976      1.9880       1.760       2.283      0.5230   Weta= 1.406  Kp= 0.00
1977      1.9960       1.723       2.296      0.5730   Weta= 1.428  Kp= 0.00
1978      2.0000       1.722       2.297      0.5750   Weta= 1.428  Kp= 0.00
1979      2.0080       1.656       2.305      0.6490   Weta= 1.480  Kp= 0.00
1980      2.0100       1.649       2.319      0.6700   Weta= 1.478  Kp= 0.00
1981      2.0400       1.662       2.320      0.6580   Weta= 1.466  Kp= 0.00
1982      2.0530       1.727       2.333      0.6060   Weta= 1.404  Kp= 0.00
1983      2.0650       1.792       2.335      0.5430   Weta= 1.352  Kp= 0.00
1984      2.0590       1.752       2.343      0.5910   Weta= 1.378  Kp= 0.00
1985      2.0750       1.730       2.354      0.6240   Weta= 1.390  Kp= 0.00
1986      2.0730       1.737       2.367      0.6300   Weta= 1.377  Kp= 0.00
1987      2.0990       1.711       2.368      0.6570   Weta= 1.398  Kp= 0.00
1988      2.0910       1.866       2.376      0.5100   Weta= 1.275  Kp= 0.00
1989      2.1150       1.752       2.387      0.6350   Weta= 1.355  Kp= 0.00
1990      2.1040       1.748       2.404      0.6560   Weta= 1.349  Kp= 0.00
1991      2.1100       1.691       2.406      0.7150   Weta= 1.394  Kp= 0.00
1992      2.1330       1.803       2.417      0.6140   Weta= 1.300  Kp= 0.00
1993      2.1390       1.828       2.428      0.6000   Weta= 1.275  Kp= 0.00
1994      2.1600       1.733       2.441      0.7080   Weta= 1.341  Kp= 0.00
1995      2.1680       1.847       2.467      0.6200   Weta= 1.242  Kp= 0.00
1996      2.1930       1.878       2.473      0.5950   Weta= 1.217  Kp= 0.00
1997      2.1930       1.870       2.493      0.6230   Weta= 1.213  Kp= 0.00
1998      2.2260       1.873       2.529      0.6560   Weta= 1.193  Kp= 0.00
1999      2.2280       1.852       2.551      0.6990   Weta= 1.197  Kp= 0.00
2000      2.2520       1.873       2.576      0.7030   Weta= 1.171  Kp= 0.00
2001      2.2600       1.927       2.602      0.6750   Weta= 1.122  Kp= 0.00
2002      2.2890       1.781       2.630      0.8490   Weta= 1.213  Kp= 0.00
2003      2.2850       1.844       2.654      0.8100   Weta= 1.156  Kp= 0.00
2004      2.3190       1.963       2.679      0.7160   Weta= 1.065  Kp= 0.00
2005      2.3360       1.927       2.704      0.7770   Weta= 1.077  Kp= 0.00
2006      2.3740       1.949       2.729      0.7800   Weta= 1.052  Kp= 0.00
2007      2.3860       1.901       2.752      0.8510   Weta= 1.074  Kp= 0.00
2008      2.3980       2.029       2.774      0.7450   Weta= 0.984  Kp= 0.00
2009      2.4140       2.074       2.783      0.7090   Weta= 0.954  Kp= 0.00
2010      2.4290       2.004       2.814      0.8100   Weta= 0.983  Kp= 0.00
2011      2.4270       1.963       2.834      0.8710   Weta= 1.001  Kp= 0.00
2012      2.4530       1.996       2.853      0.8570   Weta= 0.973  Kp= 0.00
2013      2.4450       1.926       2.861      0.9350   Weta= 1.014  Kp= 0.00
2014      2.4760       2.009       2.888      0.8790   Weta= 0.951  Kp= 0.00
2015      2.4890       2.017       2.895      0.8780   Weta= 0.944  Kp= 0.00
2016      2.5180       2.068       2.918      0.8500   Weta= 0.905  Kp= 0.00
2017      2.5340       2.120       2.935      0.8150   Weta= 0.869  Kp= 0.00
2018      2.5340       2.153       2.948      0.7950   Weta= 0.847  Kp= 0.00
2019      2.5640       2.145       2.956      0.8110   Weta= 0.848  Kp= 0.00
2020      2.5990       2.055       2.980      0.9250   Weta= 0.890  Kp= 0.00