1950     15.8490      15.847      15.850      0.0030   Weta=-1.269  Kp= 0.00    yyyy  RcEff  RS  RH
1951     15.8570      15.854      15.858      0.0040   Weta=-1.270  Kp= 0.00
1952     15.8650      15.865      15.866      0.0010   Weta=-1.271  Kp= 0.00
1953     15.8700      15.869      15.871      0.0020   Weta=-1.270  Kp= 0.00
1954     15.8790      15.876      15.880      0.0040   Weta=-1.270  Kp= 0.00
1955     15.8840      15.881      15.885      0.0040   Weta=-1.270  Kp= 0.00
1956     15.8860      15.883      15.887      0.0040   Weta=-1.271  Kp= 0.00
1957     15.8870      15.886      15.888      0.0020   Weta=-1.271  Kp= 0.00
1958     15.8910      15.888      15.892      0.0040   Weta=-1.271  Kp= 0.00
1959     15.8920      15.891      15.893      0.0020   Weta=-1.271  Kp= 0.00
1960     15.8940      15.893      15.895      0.0020   Weta=-1.271  Kp= 0.00
1961     15.8970      15.894      15.898      0.0040   Weta=-1.270  Kp= 0.00
1962     15.8980      15.898      15.899      0.0010   Weta=-1.273  Kp= 0.00
1963     15.9000      15.897      15.901      0.0040   Weta=-1.271  Kp= 0.00
1964     15.9000      15.898      15.901      0.0030   Weta=-1.272  Kp= 0.00
1965     15.8990      15.896      15.900      0.0040   Weta=-1.271  Kp= 0.00
1966     15.8930      15.890      15.894      0.0040   Weta=-1.271  Kp= 0.00
1967     15.8870      15.884      15.888      0.0040   Weta=-1.271  Kp= 0.00
1968     15.8810      15.878      15.882      0.0040   Weta=-1.271  Kp= 0.00
1969     15.8750      15.872      15.876      0.0040   Weta=-1.271  Kp= 0.00
1970     15.8660      15.863      15.867      0.0040   Weta=-1.270  Kp= 0.00
1971     15.8550      15.852      15.856      0.0040   Weta=-1.269  Kp= 0.00
1972     15.8430      15.841      15.844      0.0030   Weta=-1.270  Kp= 0.00
1973     15.8310      15.829      15.832      0.0030   Weta=-1.269  Kp= 0.00
1974     15.8210      15.818      15.822      0.0040   Weta=-1.269  Kp= 0.00
1975     15.8110      15.808      15.812      0.0040   Weta=-1.269  Kp= 0.00
1976     15.8000      15.798      15.801      0.0030   Weta=-1.269  Kp= 0.00
1977     15.7920      15.789      15.793      0.0040   Weta=-1.268  Kp= 0.00
1978     15.7820      15.779      15.784      0.0050   Weta=-1.268  Kp= 0.00
1979     15.7730      15.770      15.774      0.0040   Weta=-1.267  Kp= 0.00
1980     15.7600      15.757      15.762      0.0050   Weta=-1.267  Kp= 0.00
1981     15.7430      15.741      15.744      0.0030   Weta=-1.266  Kp= 0.00
1982     15.7280      15.725      15.729      0.0040   Weta=-1.266  Kp= 0.00
1983     15.7120      15.709      15.713      0.0040   Weta=-1.266  Kp= 0.00
1984     15.6950      15.692      15.697      0.0050   Weta=-1.265  Kp= 0.00
1985     15.6820      15.680      15.683      0.0030   Weta=-1.264  Kp= 0.00
1986     15.6730      15.671      15.674      0.0030   Weta=-1.265  Kp= 0.00
1987     15.6650      15.662      15.666      0.0040   Weta=-1.264  Kp= 0.00
1988     15.6560      15.653      15.657      0.0040   Weta=-1.264  Kp= 0.00
1989     15.6470      15.644      15.648      0.0040   Weta=-1.264  Kp= 0.00
1990     15.6400      15.638      15.643      0.0050   Weta=-1.263  Kp= 0.00
1991     15.6390      15.636      15.641      0.0050   Weta=-1.263  Kp= 0.00
1992     15.6370      15.635      15.638      0.0030   Weta=-1.264  Kp= 0.00
1993     15.6350      15.633      15.636      0.0030   Weta=-1.263  Kp= 0.00
1994     15.6330      15.631      15.636      0.0050   Weta=-1.263  Kp= 0.00
1995     15.6310      15.628      15.633      0.0050   Weta=-1.263  Kp= 0.00
1996     15.6250      15.623      15.628      0.0050   Weta=-1.263  Kp= 0.00
1997     15.6210      15.618      15.623      0.0050   Weta=-1.262  Kp= 0.00
1998     15.6170      15.614      15.618      0.0040   Weta=-1.262  Kp= 0.00
1999     15.6110      15.609      15.614      0.0050   Weta=-1.263  Kp= 0.00
2000     15.6070      15.604      15.609      0.0050   Weta=-1.262  Kp= 0.00
2001     15.6010      15.599      15.603      0.0040   Weta=-1.262  Kp= 0.00
2002     15.5970      15.594      15.599      0.0050   Weta=-1.262  Kp= 0.00
2003     15.5910      15.590      15.593      0.0030   Weta=-1.261  Kp= 0.00
2004     15.5870      15.585      15.590      0.0050   Weta=-1.262  Kp= 0.00
2005     15.5790      15.577      15.581      0.0040   Weta=-1.261  Kp= 0.00
2006     15.5700      15.567      15.572      0.0050   Weta=-1.261  Kp= 0.00
2007     15.5600      15.557      15.562      0.0050   Weta=-1.261  Kp= 0.00
2008     15.5500      15.547      15.552      0.0050   Weta=-1.260  Kp= 0.00
2009     15.5390      15.537      15.541      0.0040   Weta=-1.260  Kp= 0.00
2010     15.5290      15.527      15.533      0.0060   Weta=-1.260  Kp= 0.00
2011     15.5200      15.518      15.523      0.0050   Weta=-1.260  Kp= 0.00
2012     15.5100      15.508      15.513      0.0050   Weta=-1.260  Kp= 0.00
2013     15.5010      15.499      15.504      0.0050   Weta=-1.259  Kp= 0.00
2014     15.4910      15.489      15.494      0.0050   Weta=-1.259  Kp= 0.00
2015     15.4820      15.480      15.485      0.0050   Weta=-1.259  Kp= 0.00
2016     15.4740      15.472      15.477      0.0050   Weta=-1.258  Kp= 0.00
2017     15.4650      15.463      15.469      0.0060   Weta=-1.258  Kp= 0.00
2018     15.4560      15.455      15.460      0.0050   Weta=-1.257  Kp= 0.00
2019     15.4470      15.446      15.450      0.0040   Weta=-1.257  Kp= 0.00
2020     15.4380      15.438      15.441      0.0030   Weta=-1.257  Kp= 0.00
