1950     10.6980      10.288      11.000      0.7120   Weta=-1.043  Kp= 0.00
1951     10.6700      10.257      10.974      0.7170   Weta=-1.041  Kp= 0.00
1952     10.6380      10.225      10.948      0.7230   Weta=-1.039  Kp= 0.00
1953     10.6070      10.198      10.922      0.7240   Weta=-1.037  Kp= 0.00
1954     10.5800      10.169      10.896      0.7270   Weta=-1.036  Kp= 0.00
1955     10.5490      10.141      10.868      0.7270   Weta=-1.034  Kp= 0.00
1956     10.5160      10.108      10.838      0.7300   Weta=-1.032  Kp= 0.00
1957     10.4790      10.056      10.809      0.7530   Weta=-1.029  Kp= 0.00
1958     10.4460      10.021      10.779      0.7580   Weta=-1.027  Kp= 0.00
1959     10.4140       9.984      10.750      0.7660   Weta=-1.025  Kp= 0.00
1960     10.3820       9.947      10.720      0.7730   Weta=-1.022  Kp= 0.00
1961     10.3450       9.911      10.692      0.7810   Weta=-1.020  Kp= 0.00
1962     10.3090       9.876      10.663      0.7870   Weta=-1.018  Kp= 0.00
1963     10.2690       9.840      10.635      0.7950   Weta=-1.016  Kp= 0.00
1964     10.2380       9.804      10.606      0.8020   Weta=-1.014  Kp= 0.00
1965     10.2020       9.771      10.576      0.8050   Weta=-1.012  Kp= 0.00
1966     10.1710       9.727      10.544      0.8170   Weta=-1.009  Kp= 0.00
1967     10.1290       9.688      10.511      0.8230   Weta=-1.006  Kp= 0.00
1968     10.0910       9.654      10.479      0.8250   Weta=-1.004  Kp= 0.00
1969     10.0550       9.621      10.448      0.8270   Weta=-1.002  Kp= 0.00
1970     10.0260       9.585      10.415      0.8300   Weta=-0.999  Kp= 0.00
1971      9.9780       9.550      10.381      0.8310   Weta=-0.997  Kp= 0.00
1972      9.9510       9.515      10.349      0.8340   Weta=-0.995  Kp= 0.00
1973      9.9100       9.480      10.315      0.8350   Weta=-0.992  Kp= 0.00
1974      9.8640       9.444      10.282      0.8380   Weta=-0.990  Kp= 0.00
1975      9.8450       9.409      10.248      0.8390   Weta=-0.987  Kp= 0.00
1976      9.8040       9.374      10.216      0.8420   Weta=-0.985  Kp= 0.00
1977      9.7670       9.337      10.183      0.8460   Weta=-0.982  Kp= 0.00
1978      9.7230       9.237      10.149      0.9120   Weta=-0.977  Kp= 0.00
1979      9.6840       9.199      10.115      0.9160   Weta=-0.974  Kp= 0.00
1980      9.6410       9.151      10.080      0.9290   Weta=-0.971  Kp= 0.00
1981      9.5880       9.104      10.044      0.9400   Weta=-0.968  Kp= 0.00
1982      9.5430       9.058      10.008      0.9500   Weta=-0.965  Kp= 0.00
1983      9.4860       9.014       9.970      0.9560   Weta=-0.961  Kp= 0.00
1984      9.4530       8.974       9.934      0.9600   Weta=-0.958  Kp= 0.00
1985      9.4080       8.936       9.898      0.9620   Weta=-0.956  Kp= 0.00
1986      9.3800       8.897       9.865      0.9680   Weta=-0.953  Kp= 0.00
1987      9.3360       8.833       9.832      0.9990   Weta=-0.949  Kp= 0.00
1988      9.2990       8.824       9.798      0.9740   Weta=-0.947  Kp= 0.00
1989      9.2450       8.763       9.764      1.0010   Weta=-0.943  Kp= 0.00
1990      9.2150       8.721       9.731      1.0100   Weta=-0.940  Kp= 0.00
1991      9.1780       8.687       9.699      1.0120   Weta=-0.937  Kp= 0.00
1992      9.1390       8.644       9.665      1.0210   Weta=-0.934  Kp= 0.00
1993      9.0880       8.613       9.634      1.0210   Weta=-0.931  Kp= 0.00
1994      9.0530       8.570       9.602      1.0320   Weta=-0.928  Kp= 0.00
1995      9.0070       8.473       9.567      1.0940   Weta=-0.922  Kp= 0.00
1996      8.9730       8.500       9.533      1.0330   Weta=-0.922  Kp= 0.00
1997      8.9250       8.378       9.499      1.1210   Weta=-0.915  Kp= 0.00
1998      8.8760       8.320       9.466      1.1460   Weta=-0.911  Kp= 0.00
1999      8.8290       8.270       9.432      1.1620   Weta=-0.907  Kp= 0.00
2000      8.7760       8.221       9.397      1.1760   Weta=-0.904  Kp= 0.00
2001      8.7360       8.173       9.365      1.1920   Weta=-0.900  Kp= 0.00
2002      8.6690       8.125       9.333      1.2080   Weta=-0.896  Kp= 0.00
2003      8.6280       8.078       9.301      1.2230   Weta=-0.893  Kp= 0.00
2004      8.6020       8.028       9.270      1.2420   Weta=-0.889  Kp= 0.00
2005      8.5590       7.990       9.236      1.2460   Weta=-0.885  Kp= 0.00
2006      8.5330       7.925       9.202      1.2770   Weta=-0.880  Kp= 0.00
2007      8.4850       7.866       9.168      1.3020   Weta=-0.876  Kp= 0.00
2008      8.4480       7.811       9.134      1.3230   Weta=-0.872  Kp= 0.00
2009      8.3970       7.761       9.100      1.3390   Weta=-0.867  Kp= 0.00
2010      8.3600       7.690       9.064      1.3740   Weta=-0.862  Kp= 0.00
2011      8.2980       7.625       9.026      1.4010   Weta=-0.857  Kp= 0.00
2012      8.2610       7.578       8.988      1.4100   Weta=-0.852  Kp= 0.00
2013      8.2100       7.533       8.950      1.4170   Weta=-0.848  Kp= 0.00
2014      8.1770       7.477       8.912      1.4350   Weta=-0.843  Kp= 0.00
2015      8.1280       7.428       8.876      1.4480   Weta=-0.839  Kp= 0.00
2016      8.0890       7.381       8.839      1.4580   Weta=-0.834  Kp= 0.00
2017      8.0530       7.333       8.801      1.4680   Weta=-0.830  Kp= 0.00
2018      7.9940       7.297       8.766      1.4690   Weta=-0.826  Kp= 0.00
2019      7.9550       7.233       8.728      1.4950   Weta=-0.820  Kp= 0.00
2020      7.8950       7.193       8.691      1.4980   Weta=-0.816  Kp= 0.00
