1950      2.9000       2.509       3.048      0.5390   Weta= 0.541  Kp= 0.00
1951      2.8930       2.459       3.046      0.5870   Weta= 0.566  Kp= 0.00
1952      2.8870       2.261       3.092      0.8310   Weta= 0.651  Kp= 0.00
1953      2.8650       2.318       3.038      0.7200   Weta= 0.640  Kp= 0.00
1954      2.8750       2.293       3.088      0.7950   Weta= 0.635  Kp= 0.00
1955      2.8780       2.441       3.046      0.6050   Weta= 0.574  Kp= 0.00
1956      2.8630       2.380       3.063      0.6830   Weta= 0.599  Kp= 0.00
1957      2.8470       2.298       3.020      0.7220   Weta= 0.658  Kp= 0.00
1958      2.8690       2.443       3.101      0.6580   Weta= 0.554  Kp= 0.00
1959      2.8640       2.392       3.043      0.6510   Weta= 0.600  Kp= 0.00
1960      2.8460       2.454       3.079      0.6250   Weta= 0.556  Kp= 0.00
1961      2.8520       2.348       3.026      0.6780   Weta= 0.629  Kp= 0.00
1962      2.8430       2.435       3.004      0.5690   Weta= 0.593  Kp= 0.00
1963      2.8430       2.441       2.999      0.5580   Weta= 0.592  Kp= 0.00
1964      2.8380       2.438       3.064      0.6260   Weta= 0.569  Kp= 0.00
1965      2.8330       2.323       2.992      0.6690   Weta= 0.655  Kp= 0.00
1966      2.8330       2.268       2.995      0.7270   Weta= 0.684  Kp= 0.00
1967      2.8260       2.431       2.999      0.5680   Weta= 0.597  Kp= 0.00
1968      2.8410       2.236       3.082      0.8460   Weta= 0.669  Kp= 0.00
1969      2.8380       2.431       2.995      0.5640   Weta= 0.598  Kp= 0.00
1970      2.8210       2.258       3.000      0.7420   Weta= 0.687  Kp= 0.00
1971      2.8320       2.267       2.993      0.7260   Weta= 0.685  Kp= 0.00
1972      2.8300       2.443       3.070      0.6270   Weta= 0.565  Kp= 0.00
1973      2.8200       2.437       3.065      0.6280   Weta= 0.569  Kp= 0.00
1974      2.8160       2.444       2.991      0.5470   Weta= 0.593  Kp= 0.00
1975      2.8080       2.431       2.983      0.5520   Weta= 0.603  Kp= 0.00
1976      2.8200       2.297       3.063      0.7660   Weta= 0.642  Kp= 0.00
1977      2.8050       2.257       2.978      0.7210   Weta= 0.696  Kp= 0.00
1978      2.8030       2.245       3.034      0.7890   Weta= 0.682  Kp= 0.00
1979      2.8040       2.399       3.009      0.6100   Weta= 0.609  Kp= 0.00
1980      2.7800       2.401       2.972      0.5710   Weta= 0.622  Kp= 0.00
1981      2.7760       2.266       2.980      0.7140   Weta= 0.691  Kp= 0.00
1982      2.7750       2.265       3.040      0.7750   Weta= 0.668  Kp= 0.00
1983      2.7770       2.416       2.979      0.5630   Weta= 0.612  Kp= 0.00
1984      2.7850       2.392       3.027      0.6350   Weta= 0.606  Kp= 0.00
1985      2.7770       2.261       2.938      0.6770   Weta= 0.710  Kp= 0.00
1986      2.7630       2.281       3.017      0.7360   Weta= 0.668  Kp= 0.00
1987      2.7810       2.242       3.039      0.7970   Weta= 0.681  Kp= 0.00
1988      2.7500       2.254       2.932      0.6780   Weta= 0.716  Kp= 0.00
1989      2.7620       2.223       2.942      0.7190   Weta= 0.730  Kp= 0.00
1990      2.7600       2.399       2.936      0.5370   Weta= 0.637  Kp= 0.00
1991      2.7700       2.298       2.928      0.6300   Weta= 0.693  Kp= 0.00
1992      2.7700       2.316       2.927      0.6110   Weta= 0.684  Kp= 0.00
1993      2.7570       2.369       2.926      0.5570   Weta= 0.656  Kp= 0.00
1994      2.7490       2.407       2.975      0.5680   Weta= 0.618  Kp= 0.00
1995      2.7420       2.275       2.983      0.7080   Weta= 0.684  Kp= 0.00
1996      2.7590       2.240       2.927      0.6870   Weta= 0.726  Kp= 0.00
1997      2.7500       2.248       2.980      0.7320   Weta= 0.701  Kp= 0.00
1998      2.7440       2.417       2.931      0.5140   Weta= 0.630  Kp= 0.00
1999      2.7370       2.240       2.933      0.6930   Weta= 0.724  Kp= 0.00
2000      2.7350       2.407       2.935      0.5280   Weta= 0.633  Kp= 0.00
2001      2.7280       2.245       2.944      0.6990   Weta= 0.716  Kp= 0.00
2002      2.7350       2.301       2.938      0.6370   Weta= 0.688  Kp= 0.00
2003      2.7410       2.417       2.966      0.5490   Weta= 0.616  Kp= 0.00
2004      2.7450       2.322       2.975      0.6530   Weta= 0.662  Kp= 0.00
2005      2.7580       2.372       2.969      0.5970   Weta= 0.638  Kp= 0.00
2006      2.7480       2.373       3.033      0.6600   Weta= 0.613  Kp= 0.00
2007      2.7530       2.209       2.967      0.7580   Weta= 0.728  Kp= 0.00
2008      2.7490       2.262       2.958      0.6960   Weta= 0.701  Kp= 0.00
2009      2.7630       2.414       2.953      0.5390   Weta= 0.623  Kp= 0.00
2010      2.7600       2.379       2.955      0.5760   Weta= 0.640  Kp= 0.00
2011      2.7630       2.392       3.031      0.6390   Weta= 0.604  Kp= 0.00
2012      2.7570       2.431       3.053      0.6220   Weta= 0.577  Kp= 0.00
2013      2.7620       2.390       2.962      0.5720   Weta= 0.631  Kp= 0.00
2014      2.7840       2.276       2.964      0.6880   Weta= 0.691  Kp= 0.00
2015      2.7670       2.396       3.016      0.6200   Weta= 0.608  Kp= 0.00
2016      2.7870       2.401       3.053      0.6520   Weta= 0.592  Kp= 0.00
2017      2.7730       2.391       2.967      0.5760   Weta= 0.629  Kp= 0.00
2018      2.7860       2.452       2.979      0.5270   Weta= 0.594  Kp= 0.00
2019      2.7710       2.379       3.049      0.6700   Weta= 0.604  Kp= 0.00
2020      2.7890       2.391       2.999      0.6080   Weta= 0.617  Kp= 0.00
