1950      4.2600       3.204       4.648      1.4440   Weta=-0.126  Kp= 0.00
1951      4.2530       3.520       4.649      1.1290   Weta=-0.208  Kp= 0.00
1952      4.2550       3.467       4.650      1.1830   Weta=-0.195  Kp= 0.00
1953      4.2570       3.555       4.652      1.0970   Weta=-0.216  Kp= 0.00
1954      4.2580       3.487       4.653      1.1660   Weta=-0.200  Kp= 0.00
1955      4.2510       3.246       4.655      1.4090   Weta=-0.139  Kp= 0.00
1956      4.2890       3.496       4.657      1.1610   Weta=-0.203  Kp= 0.00
1957      4.2740       3.387       4.660      1.2730   Weta=-0.177  Kp= 0.00
1958      4.2800       3.402       4.662      1.2600   Weta=-0.181  Kp= 0.00
1959      4.2790       3.310       4.664      1.3540   Weta=-0.157  Kp= 0.00
1960      4.2760       3.532       4.667      1.1350   Weta=-0.214  Kp= 0.00
1961      4.2830       3.558       4.668      1.1100   Weta=-0.220  Kp= 0.00
1962      4.2860       3.317       4.671      1.3540   Weta=-0.160  Kp= 0.00
1963      4.2830       3.374       4.674      1.3000   Weta=-0.176  Kp= 0.00
1964      4.2830       3.391       4.677      1.2860   Weta=-0.181  Kp= 0.00
1965      4.2860       3.541       4.679      1.1380   Weta=-0.218  Kp= 0.00
1966      4.3040       3.491       4.681      1.1900   Weta=-0.206  Kp= 0.00
1967      4.3050       3.534       4.684      1.1500   Weta=-0.217  Kp= 0.00
1968      4.3040       3.504       4.687      1.1830   Weta=-0.210  Kp= 0.00
1969      4.3000       3.589       4.690      1.1010   Weta=-0.231  Kp= 0.00
1970      4.3080       3.379       4.692      1.3130   Weta=-0.180  Kp= 0.00
1971      4.3180       3.363       4.696      1.3330   Weta=-0.177  Kp= 0.00
1972      4.2950       3.506       4.698      1.1920   Weta=-0.212  Kp= 0.00
1973      4.3150       3.677       4.701      1.0240   Weta=-0.252  Kp= 0.00
1974      4.2960       3.238       4.704      1.4660   Weta=-0.145  Kp= 0.00
1975      4.3070       3.514       4.706      1.1920   Weta=-0.216  Kp= 0.00
1976      4.3220       3.567       4.706      1.1390   Weta=-0.228  Kp= 0.00
1977      4.3140       3.313       4.707      1.3940   Weta=-0.165  Kp= 0.00
1978      4.3210       3.282       4.708      1.4260   Weta=-0.157  Kp= 0.00
1979      4.3110       3.413       4.707      1.2940   Weta=-0.191  Kp= 0.00
1980      4.3020       3.401       4.706      1.3050   Weta=-0.188  Kp= 0.00
1981      4.3240       3.564       4.703      1.1390   Weta=-0.227  Kp= 0.00
1982      4.3120       3.560       4.694      1.1340   Weta=-0.225  Kp= 0.00
1983      4.3240       3.628       4.698      1.0700   Weta=-0.241  Kp= 0.00
1984      4.3190       3.545       4.695      1.1500   Weta=-0.221  Kp= 0.00
1985      4.2900       3.583       4.686      1.1030   Weta=-0.229  Kp= 0.00
1986      4.2760       3.244       4.690      1.4460   Weta=-0.144  Kp= 0.00
1987      4.2870       3.513       4.688      1.1750   Weta=-0.212  Kp= 0.00
1988      4.2870       3.264       4.684      1.4200   Weta=-0.148  Kp= 0.00
1989      4.2760       3.322       4.681      1.3590   Weta=-0.163  Kp= 0.00
1990      4.2740       3.385       4.679      1.2940   Weta=-0.179  Kp= 0.00
1991      4.2820       3.515       4.677      1.1620   Weta=-0.211  Kp= 0.00
1992      4.2650       3.511       4.676      1.1650   Weta=-0.210  Kp= 0.00
1993      4.2640       3.364       4.675      1.3110   Weta=-0.173  Kp= 0.00
1994      4.2600       3.298       4.673      1.3750   Weta=-0.156  Kp= 0.00
1995      4.2830       3.375       4.671      1.2960   Weta=-0.175  Kp= 0.00
1996      4.2760       3.561       4.670      1.1090   Weta=-0.221  Kp= 0.00
1997      4.2700       3.488       4.666      1.1780   Weta=-0.203  Kp= 0.00
1998      4.2560       3.610       4.664      1.0540   Weta=-0.231  Kp= 0.00
1999      4.2480       3.482       4.662      1.1800   Weta=-0.201  Kp= 0.00
2000      4.2520       3.492       4.660      1.1680   Weta=-0.203  Kp= 0.00
2001      4.2480       3.492       4.658      1.1660   Weta=-0.202  Kp= 0.00
2002      4.2570       3.509       4.657      1.1480   Weta=-0.206  Kp= 0.00
2003      4.2430       3.182       4.656      1.4740   Weta=-0.121  Kp= 0.00
2004      4.2650       3.571       4.654      1.0830   Weta=-0.221  Kp= 0.00
2005      4.2330       3.523       4.655      1.1320   Weta=-0.209  Kp= 0.00
2006      4.2580       3.391       4.656      1.2650   Weta=-0.177  Kp= 0.00
2007      4.2530       3.568       4.658      1.0900   Weta=-0.221  Kp= 0.00
2008      4.2600       3.198       4.659      1.4610   Weta=-0.126  Kp= 0.00
2009      4.2510       3.218       4.661      1.4430   Weta=-0.132  Kp= 0.00
2010      4.2750       3.530       4.662      1.1320   Weta=-0.212  Kp= 0.00
2011      4.2520       3.360       4.663      1.3030   Weta=-0.170  Kp= 0.00
2012      4.2580       3.490       4.664      1.1740   Weta=-0.203  Kp= 0.00
2013      4.2660       3.486       4.665      1.1790   Weta=-0.202  Kp= 0.00
2014      4.2550       3.357       4.667      1.3100   Weta=-0.170  Kp= 0.00
2015      4.2720       3.558       4.668      1.1100   Weta=-0.220  Kp= 0.00
2016      4.2740       3.590       4.671      1.0810   Weta=-0.228  Kp= 0.00
2017      4.2680       3.278       4.673      1.3950   Weta=-0.150  Kp= 0.00
2018      4.2740       3.401       4.675      1.2740   Weta=-0.183  Kp= 0.00
2019      4.2810       3.507       4.678      1.1710   Weta=-0.209  Kp= 0.00
2020      4.2920       3.529       4.680      1.1510   Weta=-0.215  Kp= 0.00
