1950     13.2750      13.275      13.276      0.0010   Weta=-1.254  Kp= 0.00
1951     13.2655      13.265      13.266      0.0010   Weta=-1.254  Kp= 0.00
1952     13.2555      13.255      13.256      0.0010   Weta=-1.251  Kp= 0.00
1953     13.2450      13.245      13.246      0.0010   Weta=-1.254  Kp= 0.00
1954     13.2340      13.231      13.235      0.0040   Weta=-1.252  Kp= 0.00
1955     13.2230      13.220      13.224      0.0040   Weta=-1.252  Kp= 0.00
1956     13.2110      13.208      13.212      0.0040   Weta=-1.252  Kp= 0.00
1957     13.2000      13.200      13.201      0.0010   Weta=-1.251  Kp= 0.00
1958     13.1880      13.188      13.189      0.0010   Weta=-1.250  Kp= 0.00
1959     13.1760      13.176      13.177      0.0010   Weta=-1.251  Kp= 0.00
1960     13.1620      13.133      13.163      0.0300   Weta=-1.249  Kp= 0.00
1961     13.1480      13.119      13.150      0.0310   Weta=-1.248  Kp= 0.00
1962     13.1340      13.105      13.136      0.0310   Weta=-1.248  Kp= 0.00
1963     13.1210      13.118      13.122      0.0040   Weta=-1.248  Kp= 0.00
1964     13.1060      13.078      13.108      0.0300   Weta=-1.246  Kp= 0.00
1965     13.0940      13.092      13.095      0.0030   Weta=-1.247  Kp= 0.00
1966     13.0810      13.052      13.083      0.0310   Weta=-1.245  Kp= 0.00
1967     13.0680      13.040      13.070      0.0300   Weta=-1.245  Kp= 0.00
1968     13.0560      13.027      13.058      0.0310   Weta=-1.244  Kp= 0.00
1969     13.0440      13.015      13.046      0.0310   Weta=-1.244  Kp= 0.00
1970     13.0300      13.000      13.033      0.0330   Weta=-1.243  Kp= 0.00
1971     13.0180      12.990      13.021      0.0310   Weta=-1.243  Kp= 0.00
1972     13.0080      12.979      13.010      0.0310   Weta=-1.242  Kp= 0.00
1973     12.9950      12.966      12.998      0.0320   Weta=-1.242  Kp= 0.00
1974     12.9830      12.954      12.986      0.0320   Weta=-1.241  Kp= 0.00
1975     12.9700      12.941      12.972      0.0310   Weta=-1.240  Kp= 0.00
1976     12.9520      12.922      12.956      0.0340   Weta=-1.240  Kp= 0.00
1977     12.9390      12.910      12.941      0.0310   Weta=-1.239  Kp= 0.00
1978     12.9220      12.894      12.926      0.0320   Weta=-1.239  Kp= 0.00
1979     12.9070      12.876      12.910      0.0340   Weta=-1.238  Kp= 0.00
1980     12.8920      12.862      12.897      0.0350   Weta=-1.237  Kp= 0.00
1981     12.8800      12.853      12.885      0.0320   Weta=-1.237  Kp= 0.00
1982     12.8700      12.839      12.873      0.0340   Weta=-1.236  Kp= 0.00
1983     12.8580      12.827      12.861      0.0340   Weta=-1.236  Kp= 0.00
1984     12.8450      12.815      12.849      0.0340   Weta=-1.235  Kp= 0.00
1985     12.8340      12.804      12.838      0.0340   Weta=-1.235  Kp= 0.00
1986     12.8230      12.794      12.828      0.0340   Weta=-1.234  Kp= 0.00
1987     12.8140      12.786      12.818      0.0320   Weta=-1.234  Kp= 0.00
1988     12.8030      12.773      12.807      0.0340   Weta=-1.233  Kp= 0.00
1989     12.7940      12.766      12.797      0.0310   Weta=-1.233  Kp= 0.00
1990     12.7850      12.757      12.789      0.0320   Weta=-1.232  Kp= 0.00
1991     12.7790      12.751      12.783      0.0320   Weta=-1.232  Kp= 0.00
1992     12.7730      12.745      12.777      0.0320   Weta=-1.232  Kp= 0.00
1993     12.7650      12.732      12.771      0.0390   Weta=-1.232  Kp= 0.00
1994     12.7590      12.726      12.765      0.0390   Weta=-1.231  Kp= 0.00
1995     12.7510      12.720      12.758      0.0380   Weta=-1.231  Kp= 0.00
1996     12.7470      12.718      12.752      0.0340   Weta=-1.231  Kp= 0.00
1997     12.7400      12.705      12.746      0.0410   Weta=-1.230  Kp= 0.00
1998     12.7310      12.699      12.739      0.0400   Weta=-1.230  Kp= 0.00
1999     12.7250      12.692      12.732      0.0400   Weta=-1.230  Kp= 0.00
2000     12.7150      12.683      12.724      0.0410   Weta=-1.229  Kp= 0.00
2001     12.7060      12.672      12.714      0.0420   Weta=-1.229  Kp= 0.00
2002     12.6930      12.662      12.703      0.0410   Weta=-1.228  Kp= 0.00
2003     12.6840      12.651      12.693      0.0420   Weta=-1.228  Kp= 0.00
2004     12.6710      12.640      12.682      0.0420   Weta=-1.228  Kp= 0.00
2005     12.6550      12.627      12.670      0.0430   Weta=-1.227  Kp= 0.00
2006     12.6450      12.614      12.656      0.0420   Weta=-1.226  Kp= 0.00
2007     12.6330      12.601      12.644      0.0430   Weta=-1.226  Kp= 0.00
2008     12.6190      12.587      12.630      0.0430   Weta=-1.225  Kp= 0.00
2009     12.6040      12.574      12.617      0.0430   Weta=-1.225  Kp= 0.00
2010     12.5870      12.558      12.602      0.0440   Weta=-1.224  Kp= 0.00
2011     12.5690      12.540      12.584      0.0440   Weta=-1.223  Kp= 0.00
2012     12.5520      12.523      12.568      0.0450   Weta=-1.222  Kp= 0.00
2013     12.5350      12.505      12.550      0.0450   Weta=-1.221  Kp= 0.00
2014     12.5150      12.488      12.533      0.0450   Weta=-1.221  Kp= 0.00
2015     12.4980      12.469      12.515      0.0460   Weta=-1.220  Kp= 0.00
2016     12.4740      12.448      12.494      0.0460   Weta=-1.219  Kp= 0.00
2017     12.4560      12.428      12.474      0.0460   Weta=-1.218  Kp= 0.00
2018     12.4360      12.407      12.454      0.0470   Weta=-1.217  Kp= 0.00
2019     12.4140      12.386      12.434      0.0480   Weta=-1.216  Kp= 0.00
2020     12.3920      12.366      12.414      0.0480   Weta=-1.215  Kp= 0.00
