1950      2.7990       2.296       2.951      0.6550   Weta= 0.583  Kp= 0.00
1951      2.8040       2.426       2.990      0.5640   Weta= 0.493  Kp= 0.00
1952      2.7930       2.220       3.031      0.8110   Weta= 0.595  Kp= 0.00
1953      2.8130       2.395       2.963      0.5680   Weta= 0.521  Kp= 0.00
1954      2.8040       2.300       2.952      0.6520   Weta= 0.580  Kp= 0.00
1955      2.7850       2.231       2.935      0.7040   Weta= 0.629  Kp= 0.00
1956      2.7950       2.213       2.941      0.7280   Weta= 0.638  Kp= 0.00
1957      2.7830       2.227       2.939      0.7120   Weta= 0.630  Kp= 0.00
1958      2.7750       2.283       2.928      0.6450   Weta= 0.600  Kp= 0.00
1959      2.7910       2.291       2.946      0.6550   Weta= 0.588  Kp= 0.00
1960      2.7870       2.392       2.960      0.5680   Weta= 0.524  Kp= 0.00
1961      2.7850       2.395       3.019      0.6240   Weta= 0.498  Kp= 0.00
1962      2.7860       2.283       3.012      0.7290   Weta= 0.565  Kp= 0.00
1963      2.7590       2.248       2.918      0.6700   Weta= 0.626  Kp= 0.00
1964      2.7690       2.390       2.998      0.6080   Weta= 0.509  Kp= 0.00
1965      2.7780       2.408       2.911      0.5030   Weta= 0.536  Kp= 0.00
1966      2.7690       2.406       2.952      0.5460   Weta= 0.520  Kp= 0.00
1967      2.7630       2.223       3.000      0.7770   Weta= 0.606  Kp= 0.00
1968      2.7550       2.397       2.957      0.5600   Weta= 0.522  Kp= 0.00
1969      2.7590       2.385       2.995      0.6100   Weta= 0.513  Kp= 0.00
1970      2.7630       2.371       2.994      0.6230   Weta= 0.522  Kp= 0.00
1971      2.7500       2.191       2.930      0.7390   Weta= 0.657  Kp= 0.00
1972      2.7630       2.221       2.930      0.7090   Weta= 0.637  Kp= 0.00
1973      2.7610       2.397       2.942      0.5450   Weta= 0.529  Kp= 0.00
1974      2.7560       2.405       2.974      0.5690   Weta= 0.511  Kp= 0.00
1975      2.7470       2.269       3.001      0.7320   Weta= 0.578  Kp= 0.00
1976      2.7410       2.201       2.906      0.7050   Weta= 0.661  Kp= 0.00
1977      2.7600       2.376       2.980      0.6040   Weta= 0.524  Kp= 0.00
1978      2.7420       2.284       2.871      0.5870   Weta= 0.625  Kp= 0.00
1979      2.7410       2.226       2.954      0.7280   Weta= 0.624  Kp= 0.00
1980      2.7280       2.364       2.951      0.5870   Weta= 0.543  Kp= 0.00
1981      2.7320       2.243       2.967      0.7240   Weta= 0.608  Kp= 0.00
1982      2.7170       2.240       2.948      0.7080   Weta= 0.618  Kp= 0.00
1983      2.7130       2.236       2.896      0.6600   Weta= 0.643  Kp= 0.00
1984      2.7110       2.201       2.883      0.6820   Weta= 0.671  Kp= 0.00
1985      2.7120       2.293       2.854      0.5610   Weta= 0.627  Kp= 0.00
1986      2.7090       2.185       2.909      0.7240   Weta= 0.670  Kp= 0.00
1987      2.7050       2.359       2.879      0.5200   Weta= 0.577  Kp= 0.00
1988      2.7040       2.248       2.906      0.6580   Weta= 0.631  Kp= 0.00
1989      2.7030       2.234       2.887      0.6530   Weta= 0.648  Kp= 0.00
1990      2.6980       2.179       2.877      0.6980   Weta= 0.688  Kp= 0.00
1991      2.6840       2.291       2.846      0.5550   Weta= 0.632  Kp= 0.00
1992      2.6860       2.331       2.876      0.5450   Weta= 0.594  Kp= 0.00
1993      2.7000       2.353       2.876      0.5230   Weta= 0.582  Kp= 0.00
1994      2.6700       2.287       2.866      0.5790   Weta= 0.625  Kp= 0.00
1995      2.6720       2.254       2.846      0.5920   Weta= 0.654  Kp= 0.00
1996      2.6870       2.223       2.849      0.6260   Weta= 0.672  Kp= 0.00
1997      2.6720       2.232       2.851      0.6190   Weta= 0.666  Kp= 0.00
1998      2.6840       2.233       2.960      0.7270   Weta= 0.617  Kp= 0.00
1999      2.6780       2.280       2.857      0.5770   Weta= 0.633  Kp= 0.00
2000      2.6830       2.227       2.890      0.6630   Weta= 0.651  Kp= 0.00
2001      2.6780       2.228       2.919      0.6910   Weta= 0.638  Kp= 0.00
2002      2.6830       2.327       2.865      0.5380   Weta= 0.602  Kp= 0.00
2003      2.6670       2.336       2.867      0.5310   Weta= 0.596  Kp= 0.00
2004      2.6890       2.383       2.876      0.4930   Weta= 0.565  Kp= 0.00
2005      2.6900       2.365       2.873      0.5080   Weta= 0.576  Kp= 0.00
2006      2.6760       2.194       2.976      0.7820   Weta= 0.635  Kp= 0.00
2007      2.6870       2.340       2.908      0.5680   Weta= 0.575  Kp= 0.00
2008      2.6800       2.292       2.919      0.6270   Weta= 0.599  Kp= 0.00
2009      2.6730       2.234       2.936      0.7020   Weta= 0.627  Kp= 0.00
2010      2.6740       2.341       2.887      0.5460   Weta= 0.584  Kp= 0.00
2011      2.6790       2.197       2.890      0.6930   Weta= 0.670  Kp= 0.00
2012      2.6850       2.368       2.893      0.5250   Weta= 0.566  Kp= 0.00
2013      2.6890       2.295       2.905      0.6100   Weta= 0.603  Kp= 0.00
2014      2.6850       2.202       2.979      0.7770   Weta= 0.628  Kp= 0.00
2015      2.6950       2.353       2.991      0.6380   Weta= 0.533  Kp= 0.00
2016      2.6910       2.261       2.902      0.6410   Weta= 0.625  Kp= 0.00
2017      2.7070       2.284       2.995      0.7110   Weta= 0.571  Kp= 0.00
2018      2.6810       2.222       2.914      0.6920   Weta= 0.644  Kp= 0.00
2019      2.7060       2.360       2.906      0.5460   Weta= 0.565  Kp= 0.00
2020      2.7000       2.234       2.993      0.7590   Weta= 0.603  Kp= 0.00
