1950      2.6810       2.210       2.952      0.7420   Weta= 0.810  Kp= 0.00
1951      2.6780       2.234       2.947      0.7130   Weta= 0.799  Kp= 0.00
1952      2.6770       2.190       2.950      0.7600   Weta= 0.821  Kp= 0.00
1953      2.6820       2.160       2.955      0.7950   Weta= 0.835  Kp= 0.00
1954      2.6910       2.306       2.961      0.6550   Weta= 0.758  Kp= 0.00
1955      2.6920       2.230       2.960      0.7300   Weta= 0.796  Kp= 0.00
1956      2.7030       2.184       2.964      0.7800   Weta= 0.819  Kp= 0.00
1957      2.7060       2.178       2.969      0.7910   Weta= 0.820  Kp= 0.00
1958      2.6970       2.305       2.980      0.6750   Weta= 0.751  Kp= 0.00
1959      2.7060       2.164       2.984      0.8200   Weta= 0.823  Kp= 0.00
1960      2.7170       2.138       2.982      0.8440   Weta= 0.837  Kp= 0.00
1961      2.6930       2.235       2.993      0.7580   Weta= 0.782  Kp= 0.00
1962      2.7330       2.207       2.997      0.7900   Weta= 0.795  Kp= 0.00
1963      2.7230       2.318       2.994      0.6760   Weta= 0.740  Kp= 0.00
1964      2.7260       2.262       3.006      0.7440   Weta= 0.764  Kp= 0.00
1965      2.7350       2.284       3.003      0.7190   Weta= 0.754  Kp= 0.00
1966      2.7570       2.343       3.010      0.6670   Weta= 0.723  Kp= 0.00
1967      2.7370       2.206       3.018      0.8120   Weta= 0.788  Kp= 0.00
1968      2.7380       2.361       3.022      0.6610   Weta= 0.710  Kp= 0.00
1969      2.7460       2.246       3.026      0.7800   Weta= 0.765  Kp= 0.00
1970      2.7540       2.373       3.024      0.6510   Weta= 0.704  Kp= 0.00
1971      2.7640       2.286       3.035      0.7490   Weta= 0.742  Kp= 0.00
1972      2.7680       2.120       3.040      0.9200   Weta= 0.827  Kp= 0.00
1973      2.7500       2.221       3.038      0.8170   Weta= 0.773  Kp= 0.00
1974      2.7580       2.211       3.043      0.8320   Weta= 0.777  Kp= 0.00
1975      2.7820       2.369       3.047      0.6780   Weta= 0.698  Kp= 0.00
1976      2.7820       2.328       3.057      0.7290   Weta= 0.714  Kp= 0.00
1977      2.7780       2.325       3.054      0.7290   Weta= 0.716  Kp= 0.00
1978      2.7970       2.296       3.064      0.7680   Weta= 0.727  Kp= 0.00
1979      2.7980       2.211       3.064      0.8530   Weta= 0.770  Kp= 0.00
1980      2.8150       2.277       3.070      0.7930   Weta= 0.734  Kp= 0.00
1981      2.8050       2.285       3.067      0.7820   Weta= 0.731  Kp= 0.00
1982      2.7930       2.429       3.073      0.6440   Weta= 0.662  Kp= 0.00
1983      2.7980       2.259       3.068      0.8090   Weta= 0.744  Kp= 0.00
1984      2.7940       2.326       3.069      0.7430   Weta= 0.711  Kp= 0.00
1985      2.8080       2.342       3.070      0.7280   Weta= 0.703  Kp= 0.00
1986      2.8090       2.378       3.077      0.6990   Weta= 0.684  Kp= 0.00
1987      2.8040       2.343       3.071      0.7280   Weta= 0.702  Kp= 0.00
1988      2.8040       2.322       3.078      0.7560   Weta= 0.710  Kp= 0.00
1989      2.8080       2.341       3.073      0.7320   Weta= 0.702  Kp= 0.00
1990      2.8110       2.227       3.073      0.8460   Weta= 0.758  Kp= 0.00
1991      2.8100       2.397       3.081      0.6840   Weta= 0.674  Kp= 0.00
1992      2.8130       2.236       3.076      0.8400   Weta= 0.753  Kp= 0.00
1993      2.8150       2.293       3.077      0.7840   Weta= 0.724  Kp= 0.00
1994      2.8300       2.432       3.085      0.6530   Weta= 0.656  Kp= 0.00
1995      2.8160       2.235       3.080      0.8450   Weta= 0.752  Kp= 0.00
1996      2.8280       2.289       3.087      0.7980   Weta= 0.723  Kp= 0.00
1997      2.8270       2.434       3.084      0.6500   Weta= 0.656  Kp= 0.00
1998      2.8230       2.429       3.082      0.6530   Weta= 0.659  Kp= 0.00
1999      2.8130       2.213       3.083      0.8700   Weta= 0.762  Kp= 0.00
2000      2.8190       2.424       3.091      0.6670   Weta= 0.658  Kp= 0.00
2001      2.8290       2.445       3.085      0.6400   Weta= 0.651  Kp= 0.00
2002      2.8200       2.316       3.089      0.7730   Weta= 0.709  Kp= 0.00
2003      2.8240       2.469       3.094      0.6250   Weta= 0.637  Kp= 0.00
2004      2.8170       2.402       3.089      0.6870   Weta= 0.669  Kp= 0.00
2005      2.8260       2.306       3.094      0.7880   Weta= 0.712  Kp= 0.00
2006      2.8470       2.331       3.096      0.7650   Weta= 0.699  Kp= 0.00
2007      2.8370       2.346       3.105      0.7590   Weta= 0.689  Kp= 0.00
2008      2.8360       2.231       3.104      0.8730   Weta= 0.746  Kp= 0.00
2009      2.8340       2.268       3.110      0.8420   Weta= 0.725  Kp= 0.00
2010      2.8690       2.444       3.111      0.6670   Weta= 0.643  Kp= 0.00
2011      2.8440       2.411       3.120      0.7090   Weta= 0.654  Kp= 0.00
2012      2.8560       2.478       3.123      0.6450   Weta= 0.624  Kp= 0.00
2013      2.8370       2.379       3.120      0.7410   Weta= 0.669  Kp= 0.00
2014      2.8650       2.152       3.124      0.9720   Weta= 0.781  Kp= 0.00
2015      2.8710       2.457       3.128      0.6710   Weta= 0.632  Kp= 0.00
2016      2.8640       2.269       3.139      0.8700   Weta= 0.715  Kp= 0.00
2017      2.8870       2.463       3.137      0.6740   Weta= 0.626  Kp= 0.00
2018      2.8880       2.441       3.141      0.7000   Weta= 0.634  Kp= 0.00
2019      2.8720       2.472       3.152      0.6800   Weta= 0.617  Kp= 0.00
2020      2.9070       2.373       3.156      0.7830   Weta= 0.660  Kp= 0.00
