1950     15.7860      15.785      15.788      0.0030   Weta=-1.254  Kp= 0.00
1951     15.7950      15.792      15.797      0.0050   Weta=-1.253  Kp= 0.00
1952     15.8020      15.800      15.803      0.0030   Weta=-1.253  Kp= 0.00
1953     15.8100      15.807      15.812      0.0050   Weta=-1.254  Kp= 0.00
1954     15.8180      15.815      15.819      0.0040   Weta=-1.254  Kp= 0.00
1955     15.8220      15.819      15.824      0.0050   Weta=-1.254  Kp= 0.00
1956     15.8230      15.821      15.826      0.0050   Weta=-1.254  Kp= 0.00
1957     15.8250      15.823      15.826      0.0030   Weta=-1.254  Kp= 0.00
1958     15.8270      15.825      15.828      0.0030   Weta=-1.255  Kp= 0.00
1959     15.8300      15.827      15.831      0.0040   Weta=-1.254  Kp= 0.00
1960     15.8310      15.828      15.833      0.0050   Weta=-1.255  Kp= 0.00
1961     15.8320      15.829      15.834      0.0050   Weta=-1.254  Kp= 0.00
1962     15.8320      15.829      15.834      0.0050   Weta=-1.254  Kp= 0.00
1963     15.8330      15.830      15.835      0.0050   Weta=-1.255  Kp= 0.00
1964     15.8350      15.831      15.836      0.0050   Weta=-1.255  Kp= 0.00
1965     15.8310      15.828      15.833      0.0050   Weta=-1.255  Kp= 0.00
1966     15.8250      15.822      15.827      0.0050   Weta=-1.255  Kp= 0.00
1967     15.8190      15.815      15.820      0.0050   Weta=-1.254  Kp= 0.00
1968     15.8110      15.808      15.813      0.0050   Weta=-1.254  Kp= 0.00
1969     15.8060      15.802      15.807      0.0050   Weta=-1.254  Kp= 0.00
1970     15.7970      15.793      15.798      0.0050   Weta=-1.254  Kp= 0.00
1971     15.7850      15.781      15.786      0.0050   Weta=-1.253  Kp= 0.00
1972     15.7720      15.769      15.774      0.0050   Weta=-1.253  Kp= 0.00
1973     15.7620      15.758      15.763      0.0050   Weta=-1.253  Kp= 0.00
1974     15.7500      15.746      15.751      0.0050   Weta=-1.252  Kp= 0.00
1975     15.7400      15.736      15.741      0.0050   Weta=-1.252  Kp= 0.00
1976     15.7310      15.727      15.732      0.0050   Weta=-1.252  Kp= 0.00
1977     15.7210      15.718      15.723      0.0050   Weta=-1.251  Kp= 0.00
1978     15.7120      15.709      15.715      0.0060   Weta=-1.251  Kp= 0.00
1979     15.7050      15.701      15.706      0.0050   Weta=-1.250  Kp= 0.00
1980     15.6910      15.688      15.694      0.0060   Weta=-1.250  Kp= 0.00
1981     15.6760      15.672      15.678      0.0060   Weta=-1.249  Kp= 0.00
1982     15.6600      15.656      15.662      0.0060   Weta=-1.249  Kp= 0.00
1983     15.6450      15.641      15.646      0.0050   Weta=-1.248  Kp= 0.00
1984     15.6290      15.625      15.630      0.0050   Weta=-1.248  Kp= 0.00
1985     15.6150      15.611      15.617      0.0060   Weta=-1.247  Kp= 0.00
1986     15.6040      15.601      15.607      0.0060   Weta=-1.248  Kp= 0.00
1987     15.5940      15.590      15.596      0.0060   Weta=-1.247  Kp= 0.00
1988     15.5830      15.580      15.586      0.0060   Weta=-1.247  Kp= 0.00
1989     15.5740      15.570      15.575      0.0050   Weta=-1.247  Kp= 0.00
1990     15.5660      15.562      15.568      0.0060   Weta=-1.246  Kp= 0.00
1991     15.5610      15.558      15.564      0.0060   Weta=-1.246  Kp= 0.00
1992     15.5570      15.554      15.560      0.0060   Weta=-1.246  Kp= 0.00
1993     15.5540      15.550      15.556      0.0060   Weta=-1.246  Kp= 0.00
1994     15.5480      15.545      15.550      0.0050   Weta=-1.246  Kp= 0.00
1995     15.5430      15.540      15.546      0.0060   Weta=-1.246  Kp= 0.00
1996     15.5370      15.533      15.539      0.0060   Weta=-1.245  Kp= 0.00
1997     15.5290      15.526      15.533      0.0070   Weta=-1.245  Kp= 0.00
1998     15.5230      15.520      15.526      0.0060   Weta=-1.245  Kp= 0.00
1999     15.5170      15.513      15.519      0.0060   Weta=-1.245  Kp= 0.00
2000     15.5110      15.506      15.513      0.0070   Weta=-1.245  Kp= 0.00
2001     15.5020      15.499      15.505      0.0060   Weta=-1.245  Kp= 0.00
2002     15.4960      15.492      15.499      0.0070   Weta=-1.244  Kp= 0.00
2003     15.4880      15.485      15.492      0.0070   Weta=-1.244  Kp= 0.00
2004     15.4810      15.478      15.485      0.0070   Weta=-1.244  Kp= 0.00
2005     15.4710      15.468      15.475      0.0070   Weta=-1.243  Kp= 0.00
2006     15.4600      15.456      15.462      0.0060   Weta=-1.243  Kp= 0.00
2007     15.4470      15.443      15.450      0.0070   Weta=-1.242  Kp= 0.00
2008     15.4330      15.430      15.437      0.0070   Weta=-1.242  Kp= 0.00
2009     15.4220      15.418      15.424      0.0060   Weta=-1.242  Kp= 0.00
2010     15.4070      15.404      15.411      0.0070   Weta=-1.241  Kp= 0.00
2011     15.3950      15.391      15.398      0.0070   Weta=-1.241  Kp= 0.00
2012     15.3800      15.377      15.384      0.0070   Weta=-1.241  Kp= 0.00
2013     15.3660      15.363      15.370      0.0070   Weta=-1.240  Kp= 0.00
2014     15.3530      15.349      15.357      0.0080   Weta=-1.240  Kp= 0.00
2015     15.3390      15.336      15.343      0.0070   Weta=-1.239  Kp= 0.00
2016     15.3260      15.323      15.330      0.0070   Weta=-1.239  Kp= 0.00
2017     15.3130      15.310      15.317      0.0070   Weta=-1.238  Kp= 0.00
2018     15.3000      15.297      15.304      0.0070   Weta=-1.238  Kp= 0.00
2019     15.2870      15.284      15.291      0.0070   Weta=-1.238  Kp= 0.00
2020     15.2740      15.271      15.278      0.0070   Weta=-1.237  Kp= 0.00
