1868-01-01 00:00:00+00        0.00
1868-02-01 00:00:00+00        0.00
1868-03-01 00:00:00+00        0.00
1868-04-01 00:00:00+00        0.00
1868-05-01 00:00:00+00        0.00
1868-06-01 00:00:00+00        0.00
1868-07-01 00:00:00+00        0.00
1868-08-01 00:00:00+00        0.00
1868-09-01 00:00:00+00        0.00
1868-10-01 00:00:00+00        0.00
1868-11-01 00:00:00+00        0.00
1868-12-01 00:00:00+00        0.00
1869-01-01 00:00:00+00        0.00
1869-02-01 00:00:00+00        0.00
1869-03-01 00:00:00+00        0.00
1869-04-01 00:00:00+00        0.00
1869-05-01 00:00:00+00        0.00
1869-06-01 00:00:00+00        0.00
1869-07-01 00:00:00+00        0.00
1869-08-01 00:00:00+00        0.00
1869-09-01 00:00:00+00        0.00
1869-10-01 00:00:00+00        0.00
1869-11-01 00:00:00+00        0.00
1869-12-01 00:00:00+00        0.00
1870-01-01 00:00:00+00        0.00
1870-02-01 00:00:00+00        0.00
1870-03-01 00:00:00+00        0.00
1870-04-01 00:00:00+00        0.00
1870-05-01 00:00:00+00        0.00
1870-06-01 00:00:00+00        0.00
1870-07-01 00:00:00+00        0.00
1870-08-01 00:00:00+00        0.00
1870-09-01 00:00:00+00        0.00
1870-10-01 00:00:00+00        0.00
1870-11-01 00:00:00+00        0.00
1870-12-01 00:00:00+00        0.00
1871-01-01 00:00:00+00        0.00
1871-02-01 00:00:00+00        0.00
1871-03-01 00:00:00+00        0.00
1871-04-01 00:00:00+00        0.00
1871-05-01 00:00:00+00        0.00
1871-06-01 00:00:00+00        0.00
1871-07-01 00:00:00+00        0.00
1871-08-01 00:00:00+00        0.00
1871-09-01 00:00:00+00        0.00
1871-10-01 00:00:00+00        0.00
1871-11-01 00:00:00+00        0.00
1871-12-01 00:00:00+00        0.00
1872-01-01 00:00:00+00        0.00
1872-02-01 00:00:00+00        0.00
1872-03-01 00:00:00+00        0.00
1872-04-01 00:00:00+00        0.00
1872-05-01 00:00:00+00        0.00
1872-06-01 00:00:00+00        0.00
1872-07-01 00:00:00+00        0.00
1872-08-01 00:00:00+00        0.00
1872-09-01 00:00:00+00        0.00
1872-10-01 00:00:00+00        0.00
1872-11-01 00:00:00+00        0.00
1872-12-01 00:00:00+00        0.00
1873-01-01 00:00:00+00        0.00
1873-02-01 00:00:00+00        0.00
1873-03-01 00:00:00+00        0.00
1873-04-01 00:00:00+00        0.00
1873-05-01 00:00:00+00        0.00
1873-06-01 00:00:00+00        0.00
1873-07-01 00:00:00+00        0.00
1873-08-01 00:00:00+00        0.00
1873-09-01 00:00:00+00        0.00
1873-10-01 00:00:00+00        0.00
1873-11-01 00:00:00+00        0.00
1873-12-01 00:00:00+00        0.00
1874-01-01 00:00:00+00        0.00
1874-02-01 00:00:00+00        0.00
1874-03-01 00:00:00+00        0.00
1874-04-01 00:00:00+00        0.00
1874-05-01 00:00:00+00        0.00
1874-06-01 00:00:00+00        0.00
1874-07-01 00:00:00+00        0.00
1874-08-01 00:00:00+00        0.00
1874-09-01 00:00:00+00        0.00
1874-10-01 00:00:00+00        0.00
1874-11-01 00:00:00+00        0.00
1874-12-01 00:00:00+00        0.00
1875-01-01 00:00:00+00        0.00
1875-02-01 00:00:00+00        0.00
1875-03-01 00:00:00+00        0.00
1875-04-01 00:00:00+00        0.00
1875-05-01 00:00:00+00        0.00
1875-06-01 00:00:00+00        0.00
1875-07-01 00:00:00+00        0.00
1875-08-01 00:00:00+00        0.00
1875-09-01 00:00:00+00        0.00
1875-10-01 00:00:00+00        0.00
1875-11-01 00:00:00+00        0.00
1875-12-01 00:00:00+00        0.00
1876-01-01 00:00:00+00        0.00
1876-02-01 00:00:00+00        0.00
1876-03-01 00:00:00+00        0.00
1876-04-01 00:00:00+00        0.00
1876-05-01 00:00:00+00        0.00
1876-06-01 00:00:00+00        0.00
1876-07-01 00:00:00+00        0.00
1876-08-01 00:00:00+00        0.00
1876-09-01 00:00:00+00        0.00
1876-10-01 00:00:00+00        0.00
1876-11-01 00:00:00+00        0.00
1876-12-01 00:00:00+00        0.00
1877-01-01 00:00:00+00        0.00
1877-02-01 00:00:00+00        0.00
1877-03-01 00:00:00+00        0.00
1877-04-01 00:00:00+00        0.00
1877-05-01 00:00:00+00        0.00
1877-06-01 00:00:00+00        0.00
1877-07-01 00:00:00+00        0.00
1877-08-01 00:00:00+00        0.00
1877-09-01 00:00:00+00        0.00
1877-10-01 00:00:00+00        0.00
1877-11-01 00:00:00+00        0.00
1877-12-01 00:00:00+00        0.00
1878-01-01 00:00:00+00        0.00
1878-02-01 00:00:00+00        0.00
1878-03-01 00:00:00+00        0.00
1878-04-01 00:00:00+00        0.00
1878-05-01 00:00:00+00        0.00
1878-06-01 00:00:00+00        0.00
1878-07-01 00:00:00+00        0.00
1878-08-01 00:00:00+00        0.00
1878-09-01 00:00:00+00        0.00
1878-10-01 00:00:00+00        0.00
1878-11-01 00:00:00+00        0.00
1878-12-01 00:00:00+00        0.00
1879-01-01 00:00:00+00        0.00
1879-02-01 00:00:00+00        0.00
1879-03-01 00:00:00+00        0.00
1879-04-01 00:00:00+00        0.00
1879-05-01 00:00:00+00        0.00
1879-06-01 00:00:00+00        0.00
1879-07-01 00:00:00+00        0.00
1879-08-01 00:00:00+00        0.00
1879-09-01 00:00:00+00        0.00
1879-10-01 00:00:00+00        0.00
1879-11-01 00:00:00+00        0.00
1879-12-01 00:00:00+00        0.00
1880-01-01 00:00:00+00        0.00
1880-02-01 00:00:00+00        0.00
1880-03-01 00:00:00+00        0.00
1880-04-01 00:00:00+00        0.00
1880-05-01 00:00:00+00        0.00
1880-06-01 00:00:00+00        0.00
1880-07-01 00:00:00+00        0.00
1880-08-01 00:00:00+00        0.00
1880-09-01 00:00:00+00        0.00
1880-10-01 00:00:00+00        0.00
1880-11-01 00:00:00+00        0.00
1880-12-01 00:00:00+00        0.00
1881-01-01 00:00:00+00        0.00
1881-02-01 00:00:00+00        0.00
1881-03-01 00:00:00+00        0.00
1881-04-01 00:00:00+00        0.00
1881-05-01 00:00:00+00        0.00
1881-06-01 00:00:00+00        0.00
1881-07-01 00:00:00+00        0.00
1881-08-01 00:00:00+00        0.00
1881-09-01 00:00:00+00        0.00
1881-10-01 00:00:00+00        0.00
1881-11-01 00:00:00+00        0.00
1881-12-01 00:00:00+00        0.00
1882-01-01 00:00:00+00        0.00
1882-02-01 00:00:00+00        0.00
1882-03-01 00:00:00+00        0.00
1882-04-01 00:00:00+00        0.00
1882-05-01 00:00:00+00        0.00
1882-06-01 00:00:00+00        0.00
1882-07-01 00:00:00+00        0.00
1882-08-01 00:00:00+00        0.00
1882-09-01 00:00:00+00        0.00
1882-10-01 00:00:00+00        0.00
1882-11-01 00:00:00+00        0.00
1882-12-01 00:00:00+00        0.00
1883-01-01 00:00:00+00        0.00
1883-02-01 00:00:00+00        0.00
1883-03-01 00:00:00+00        0.00
1883-04-01 00:00:00+00        0.00
1883-05-01 00:00:00+00        0.00
1883-06-01 00:00:00+00        0.00
1883-07-01 00:00:00+00        0.00
1883-08-01 00:00:00+00        0.00
1883-09-01 00:00:00+00        0.00
1883-10-01 00:00:00+00        0.00
1883-11-01 00:00:00+00        0.00
1883-12-01 00:00:00+00        0.00
1884-01-01 00:00:00+00        0.00
1884-02-01 00:00:00+00        0.00
1884-03-01 00:00:00+00        0.00
1884-04-01 00:00:00+00        0.00
1884-05-01 00:00:00+00        0.00
1884-06-01 00:00:00+00        0.00
1884-07-01 00:00:00+00        0.00
1884-08-01 00:00:00+00        0.00
1884-09-01 00:00:00+00        0.00
1884-10-01 00:00:00+00        0.00
1884-11-01 00:00:00+00        0.00
1884-12-01 00:00:00+00        0.00
1885-01-01 00:00:00+00        0.00
1885-02-01 00:00:00+00        0.00
1885-03-01 00:00:00+00        0.00
1885-04-01 00:00:00+00        0.00
1885-05-01 00:00:00+00        0.00
1885-06-01 00:00:00+00        0.00
1885-07-01 00:00:00+00        0.00
1885-08-01 00:00:00+00        0.00
1885-09-01 00:00:00+00        0.00
1885-10-01 00:00:00+00        0.00
1885-11-01 00:00:00+00        0.00
1885-12-01 00:00:00+00        0.00
1886-01-01 00:00:00+00        0.00
1886-02-01 00:00:00+00        0.00
1886-03-01 00:00:00+00        0.00
1886-04-01 00:00:00+00        0.00
1886-05-01 00:00:00+00        0.00
1886-06-01 00:00:00+00        0.00
1886-07-01 00:00:00+00        0.00
1886-08-01 00:00:00+00        0.00
1886-09-01 00:00:00+00        0.00
1886-10-01 00:00:00+00        0.00
1886-11-01 00:00:00+00        0.00
1886-12-01 00:00:00+00        0.00
1887-01-01 00:00:00+00        0.00
1887-02-01 00:00:00+00        0.00
1887-03-01 00:00:00+00        0.00
1887-04-01 00:00:00+00        0.00
1887-05-01 00:00:00+00        0.00
1887-06-01 00:00:00+00        0.00
1887-07-01 00:00:00+00        0.00
1887-08-01 00:00:00+00        0.00
1887-09-01 00:00:00+00        0.00
1887-10-01 00:00:00+00        0.00
1887-11-01 00:00:00+00        0.00
1887-12-01 00:00:00+00        0.00
1888-01-01 00:00:00+00        0.00
1888-02-01 00:00:00+00        0.00
1888-03-01 00:00:00+00        0.00
1888-04-01 00:00:00+00        0.00
1888-05-01 00:00:00+00        0.00
1888-06-01 00:00:00+00        0.00
1888-07-01 00:00:00+00        0.00
1888-08-01 00:00:00+00        0.00
1888-09-01 00:00:00+00        0.00
1888-10-01 00:00:00+00        0.00
1888-11-01 00:00:00+00        0.00
1888-12-01 00:00:00+00        0.00
1889-01-01 00:00:00+00        0.00
1889-02-01 00:00:00+00        0.00
1889-03-01 00:00:00+00        0.00
1889-04-01 00:00:00+00        0.00
1889-05-01 00:00:00+00        0.00
1889-06-01 00:00:00+00        0.00
1889-07-01 00:00:00+00        0.00
1889-08-01 00:00:00+00        0.00
1889-09-01 00:00:00+00        0.00
1889-10-01 00:00:00+00        0.00
1889-11-01 00:00:00+00        0.00
1889-12-01 00:00:00+00        0.00
1890-01-01 00:00:00+00        0.00
1890-02-01 00:00:00+00        0.00
1890-03-01 00:00:00+00        0.00
1890-04-01 00:00:00+00        0.00
1890-05-01 00:00:00+00        0.00
1890-06-01 00:00:00+00        0.00
1890-07-01 00:00:00+00        0.00
1890-08-01 00:00:00+00        0.00
1890-09-01 00:00:00+00        0.00
1890-10-01 00:00:00+00        0.00
1890-11-01 00:00:00+00        0.00
1890-12-01 00:00:00+00        0.00
1891-01-01 00:00:00+00        0.00
1891-02-01 00:00:00+00        0.00
1891-03-01 00:00:00+00        0.00
1891-04-01 00:00:00+00        0.00
1891-05-01 00:00:00+00        0.00
1891-06-01 00:00:00+00        0.00
1891-07-01 00:00:00+00        0.00
1891-08-01 00:00:00+00        0.00
1891-09-01 00:00:00+00        0.00
1891-10-01 00:00:00+00        0.00
1891-11-01 00:00:00+00        0.00
1891-12-01 00:00:00+00        0.00
1892-01-01 00:00:00+00        0.00
1892-02-01 00:00:00+00        0.00
1892-03-01 00:00:00+00        0.00
1892-04-01 00:00:00+00        0.00
1892-05-01 00:00:00+00        0.00
1892-06-01 00:00:00+00        0.00
1892-07-01 00:00:00+00        0.00
1892-08-01 00:00:00+00        0.00
1892-09-01 00:00:00+00        0.00
1892-10-01 00:00:00+00        0.00
1892-11-01 00:00:00+00        0.00
1892-12-01 00:00:00+00        0.00
1893-01-01 00:00:00+00        0.00
1893-02-01 00:00:00+00        0.00
1893-03-01 00:00:00+00        0.00
1893-04-01 00:00:00+00        0.00
1893-05-01 00:00:00+00        0.00
1893-06-01 00:00:00+00        0.00
1893-07-01 00:00:00+00        0.00
1893-08-01 00:00:00+00        0.00
1893-09-01 00:00:00+00        0.00
1893-10-01 00:00:00+00        0.00
1893-11-01 00:00:00+00        0.00
1893-12-01 00:00:00+00        0.00
1894-01-01 00:00:00+00        0.00
1894-02-01 00:00:00+00        0.00
1894-03-01 00:00:00+00        0.00
1894-04-01 00:00:00+00        0.00
1894-05-01 00:00:00+00        0.00
1894-06-01 00:00:00+00        0.00
1894-07-01 00:00:00+00        0.00
1894-08-01 00:00:00+00        0.00
1894-09-01 00:00:00+00        0.00
1894-10-01 00:00:00+00        0.00
1894-11-01 00:00:00+00        0.00
1894-12-01 00:00:00+00        0.00
1895-01-01 00:00:00+00        0.00
1895-02-01 00:00:00+00        0.00
1895-03-01 00:00:00+00        0.00
1895-04-01 00:00:00+00        0.00
1895-05-01 00:00:00+00        0.00
1895-06-01 00:00:00+00        0.00
1895-07-01 00:00:00+00        0.00
1895-08-01 00:00:00+00        0.00
1895-09-01 00:00:00+00        0.00
1895-10-01 00:00:00+00        0.00
1895-11-01 00:00:00+00        0.00
1895-12-01 00:00:00+00        0.00
1896-01-01 00:00:00+00        0.00
1896-02-01 00:00:00+00        0.00
1896-03-01 00:00:00+00        0.00
1896-04-01 00:00:00+00        0.00
1896-05-01 00:00:00+00        0.00
1896-06-01 00:00:00+00        0.00
1896-07-01 00:00:00+00        0.00
1896-08-01 00:00:00+00        0.00
1896-09-01 00:00:00+00        0.00
1896-10-01 00:00:00+00        0.00
1896-11-01 00:00:00+00        0.00
1896-12-01 00:00:00+00        0.00
1897-01-01 00:00:00+00        0.00
1897-02-01 00:00:00+00        0.00
1897-03-01 00:00:00+00        0.00
1897-04-01 00:00:00+00        0.00
1897-05-01 00:00:00+00        0.00
1897-06-01 00:00:00+00        0.00
1897-07-01 00:00:00+00        0.00
1897-08-01 00:00:00+00        0.00
1897-09-01 00:00:00+00        0.00
1897-10-01 00:00:00+00        0.00
1897-11-01 00:00:00+00        0.00
1897-12-01 00:00:00+00        0.00
1898-01-01 00:00:00+00        0.00
1898-02-01 00:00:00+00        0.00
1898-03-01 00:00:00+00        0.00
1898-04-01 00:00:00+00        0.00
1898-05-01 00:00:00+00        0.00
1898-06-01 00:00:00+00        0.00
1898-07-01 00:00:00+00        0.00
1898-08-01 00:00:00+00        0.00
1898-09-01 00:00:00+00        0.00
1898-10-01 00:00:00+00        0.00
1898-11-01 00:00:00+00        0.00
1898-12-01 00:00:00+00        0.00
1899-01-01 00:00:00+00        0.00
1899-02-01 00:00:00+00        0.00
1899-03-01 00:00:00+00        0.00
1899-04-01 00:00:00+00        0.00
1899-05-01 00:00:00+00        0.00
1899-06-01 00:00:00+00        0.00
1899-07-01 00:00:00+00        0.00
1899-08-01 00:00:00+00        0.00
1899-09-01 00:00:00+00        0.00
1899-10-01 00:00:00+00        0.00
1899-11-01 00:00:00+00        0.00
1899-12-01 00:00:00+00        0.00
1900-01-01 00:00:00+00        0.00
1900-02-01 00:00:00+00        0.00
1900-03-01 00:00:00+00        0.00
1900-04-01 00:00:00+00        0.00
1900-05-01 00:00:00+00        0.00
1900-06-01 00:00:00+00        0.00
1900-07-01 00:00:00+00        0.00
1900-08-01 00:00:00+00        0.00
1900-09-01 00:00:00+00        0.00
1900-10-01 00:00:00+00        0.00
1900-11-01 00:00:00+00        0.00
1900-12-01 00:00:00+00        0.00
1901-01-01 00:00:00+00        0.00
1901-02-01 00:00:00+00        0.00
1901-03-01 00:00:00+00        0.00
1901-04-01 00:00:00+00        0.00
1901-05-01 00:00:00+00        0.00
1901-06-01 00:00:00+00        0.00
1901-07-01 00:00:00+00        0.00
1901-08-01 00:00:00+00        0.00
1901-09-01 00:00:00+00        0.00
1901-10-01 00:00:00+00        0.00
1901-11-01 00:00:00+00        0.00
1901-12-01 00:00:00+00        0.00
1902-01-01 00:00:00+00        0.00
1902-02-01 00:00:00+00        0.00
1902-03-01 00:00:00+00        0.00
1902-04-01 00:00:00+00        0.00
1902-05-01 00:00:00+00        0.00
1902-06-01 00:00:00+00        0.00
1902-07-01 00:00:00+00        0.00
1902-08-01 00:00:00+00        0.00
1902-09-01 00:00:00+00        0.00
1902-10-01 00:00:00+00        0.00
1902-11-01 00:00:00+00        0.00
1902-12-01 00:00:00+00        0.00
1903-01-01 00:00:00+00        0.00
1903-02-01 00:00:00+00        0.00
1903-03-01 00:00:00+00        0.00
1903-04-01 00:00:00+00        0.00
1903-05-01 00:00:00+00        0.00
1903-06-01 00:00:00+00        0.00
1903-07-01 00:00:00+00        0.00
1903-08-01 00:00:00+00        0.00
1903-09-01 00:00:00+00        0.00
1903-10-01 00:00:00+00        0.00
1903-11-01 00:00:00+00        0.00
1903-12-01 00:00:00+00        0.00
1904-01-01 00:00:00+00        0.00
1904-02-01 00:00:00+00        0.00
1904-03-01 00:00:00+00        0.00
1904-04-01 00:00:00+00        0.00
1904-05-01 00:00:00+00        0.00
1904-06-01 00:00:00+00        0.00
1904-07-01 00:00:00+00        0.00
1904-08-01 00:00:00+00        0.00
1904-09-01 00:00:00+00        0.00
1904-10-01 00:00:00+00        0.00
1904-11-01 00:00:00+00        0.00
1904-12-01 00:00:00+00        0.00
1905-01-01 00:00:00+00        0.00
1905-02-01 00:00:00+00        0.00
1905-03-01 00:00:00+00        0.00
1905-04-01 00:00:00+00        0.00
1905-05-01 00:00:00+00        0.00
1905-06-01 00:00:00+00        0.00
1905-07-01 00:00:00+00        0.00
1905-08-01 00:00:00+00        0.00
1905-09-01 00:00:00+00        0.00
1905-10-01 00:00:00+00        0.00
1905-11-01 00:00:00+00        0.00
1905-12-01 00:00:00+00        0.00
1906-01-01 00:00:00+00        0.00
1906-02-01 00:00:00+00        0.00
1906-03-01 00:00:00+00        0.00
1906-04-01 00:00:00+00        0.00
1906-05-01 00:00:00+00        0.00
1906-06-01 00:00:00+00        0.00
1906-07-01 00:00:00+00        0.00
1906-08-01 00:00:00+00        0.00
1906-09-01 00:00:00+00        0.00
1906-10-01 00:00:00+00        0.00
1906-11-01 00:00:00+00        0.00
1906-12-01 00:00:00+00        0.00
1907-01-01 00:00:00+00        0.00
1907-02-01 00:00:00+00        0.00
1907-03-01 00:00:00+00        0.00
1907-04-01 00:00:00+00        0.00
1907-05-01 00:00:00+00        0.00
1907-06-01 00:00:00+00        0.00
1907-07-01 00:00:00+00        0.00
1907-08-01 00:00:00+00        0.00
1907-09-01 00:00:00+00        0.00
1907-10-01 00:00:00+00        0.00
1907-11-01 00:00:00+00        0.00
1907-12-01 00:00:00+00        0.00
1908-01-01 00:00:00+00        0.00
1908-02-01 00:00:00+00        0.00
1908-03-01 00:00:00+00        0.00
1908-04-01 00:00:00+00        0.00
1908-05-01 00:00:00+00        0.00
1908-06-01 00:00:00+00        0.00
1908-07-01 00:00:00+00        0.00
1908-08-01 00:00:00+00        0.00
1908-09-01 00:00:00+00        0.00
1908-10-01 00:00:00+00        0.00
1908-11-01 00:00:00+00        0.00
1908-12-01 00:00:00+00        0.00
1909-01-01 00:00:00+00        0.00
1909-02-01 00:00:00+00        0.00
1909-03-01 00:00:00+00        0.00
1909-04-01 00:00:00+00        0.00
1909-05-01 00:00:00+00        0.00
1909-06-01 00:00:00+00        0.00
1909-07-01 00:00:00+00        0.00
1909-08-01 00:00:00+00        0.00
1909-09-01 00:00:00+00        0.00
1909-10-01 00:00:00+00        0.00
1909-11-01 00:00:00+00        0.00
1909-12-01 00:00:00+00        0.00
1910-01-01 00:00:00+00        0.00
1910-02-01 00:00:00+00        0.00
1910-03-01 00:00:00+00        0.00
1910-04-01 00:00:00+00        0.00
1910-05-01 00:00:00+00        0.00
1910-06-01 00:00:00+00        0.00
1910-07-01 00:00:00+00        0.00
1910-08-01 00:00:00+00        0.00
1910-09-01 00:00:00+00        0.00
1910-10-01 00:00:00+00        0.00
1910-11-01 00:00:00+00        0.00
1910-12-01 00:00:00+00        0.00
1911-01-01 00:00:00+00        0.00
1911-02-01 00:00:00+00        0.00
1911-03-01 00:00:00+00        0.00
1911-04-01 00:00:00+00        0.00
1911-05-01 00:00:00+00        0.00
1911-06-01 00:00:00+00        0.00
1911-07-01 00:00:00+00        0.00
1911-08-01 00:00:00+00        0.00
1911-09-01 00:00:00+00        0.00
1911-10-01 00:00:00+00        0.00
1911-11-01 00:00:00+00        0.00
1911-12-01 00:00:00+00        0.00
1912-01-01 00:00:00+00        0.00
1912-02-01 00:00:00+00        0.00
1912-03-01 00:00:00+00        0.00
1912-04-01 00:00:00+00        0.00
1912-05-01 00:00:00+00        0.00
1912-06-01 00:00:00+00        0.00
1912-07-01 00:00:00+00        0.00
1912-08-01 00:00:00+00        0.00
1912-09-01 00:00:00+00        0.00
1912-10-01 00:00:00+00        0.00
1912-11-01 00:00:00+00        0.00
1912-12-01 00:00:00+00        0.00
1913-01-01 00:00:00+00        0.00
1913-02-01 00:00:00+00        0.00
1913-03-01 00:00:00+00        0.00
1913-04-01 00:00:00+00        0.00
1913-05-01 00:00:00+00        0.00
1913-06-01 00:00:00+00        0.00
1913-07-01 00:00:00+00        0.00
1913-08-01 00:00:00+00        0.00
1913-09-01 00:00:00+00        0.00
1913-10-01 00:00:00+00        0.00
1913-11-01 00:00:00+00        0.00
1913-12-01 00:00:00+00        0.00
1914-01-01 00:00:00+00        0.00
1914-02-01 00:00:00+00        0.00
1914-03-01 00:00:00+00        0.00
1914-04-01 00:00:00+00        0.00
1914-05-01 00:00:00+00        0.00
1914-06-01 00:00:00+00        0.00
1914-07-01 00:00:00+00        0.00
1914-08-01 00:00:00+00        0.00
1914-09-01 00:00:00+00        0.00
1914-10-01 00:00:00+00        0.00
1914-11-01 00:00:00+00        0.00
1914-12-01 00:00:00+00        0.00
1915-01-01 00:00:00+00        0.00
1915-02-01 00:00:00+00        0.00
1915-03-01 00:00:00+00        0.00
1915-04-01 00:00:00+00        0.00
1915-05-01 00:00:00+00        0.00
1915-06-01 00:00:00+00        0.00
1915-07-01 00:00:00+00        0.00
1915-08-01 00:00:00+00        0.00
1915-09-01 00:00:00+00        0.00
1915-10-01 00:00:00+00        0.00
1915-11-01 00:00:00+00        0.00
1915-12-01 00:00:00+00        0.00
1916-01-01 00:00:00+00        0.00
1916-02-01 00:00:00+00        0.00
1916-03-01 00:00:00+00        0.00
1916-04-01 00:00:00+00        0.00
1916-05-01 00:00:00+00        0.00
1916-06-01 00:00:00+00        0.00
1916-07-01 00:00:00+00        0.00
1916-08-01 00:00:00+00        0.00
1916-09-01 00:00:00+00        0.00
1916-10-01 00:00:00+00        0.00
1916-11-01 00:00:00+00        0.00
1916-12-01 00:00:00+00        0.00
1917-01-01 00:00:00+00        0.00
1917-02-01 00:00:00+00        0.00
1917-03-01 00:00:00+00        0.00
1917-04-01 00:00:00+00        0.00
1917-05-01 00:00:00+00        0.00
1917-06-01 00:00:00+00        0.00
1917-07-01 00:00:00+00        0.00
1917-08-01 00:00:00+00        0.00
1917-09-01 00:00:00+00        0.00
1917-10-01 00:00:00+00        0.00
1917-11-01 00:00:00+00        0.00
1917-12-01 00:00:00+00        0.00
1918-01-01 00:00:00+00        0.00
1918-02-01 00:00:00+00        0.00
1918-03-01 00:00:00+00        0.00
1918-04-01 00:00:00+00        0.00
1918-05-01 00:00:00+00        0.00
1918-06-01 00:00:00+00        0.00
1918-07-01 00:00:00+00        0.00
1918-08-01 00:00:00+00        0.00
1918-09-01 00:00:00+00        0.00
1918-10-01 00:00:00+00        0.00
1918-11-01 00:00:00+00        0.00
1918-12-01 00:00:00+00        0.00
1919-01-01 00:00:00+00        0.00
1919-02-01 00:00:00+00        0.00
1919-03-01 00:00:00+00        0.00
1919-04-01 00:00:00+00        0.00
1919-05-01 00:00:00+00        0.00
1919-06-01 00:00:00+00        0.00
1919-07-01 00:00:00+00        0.00
1919-08-01 00:00:00+00        0.00
1919-09-01 00:00:00+00        0.00
1919-10-01 00:00:00+00        0.00
1919-11-01 00:00:00+00        0.00
1919-12-01 00:00:00+00        0.00
1920-01-01 00:00:00+00        0.00
1920-02-01 00:00:00+00        0.00
1920-03-01 00:00:00+00        0.00
1920-04-01 00:00:00+00        0.00
1920-05-01 00:00:00+00        0.00
1920-06-01 00:00:00+00        0.00
1920-07-01 00:00:00+00        0.00
1920-08-01 00:00:00+00        0.00
1920-09-01 00:00:00+00        0.00
1920-10-01 00:00:00+00        0.00
1920-11-01 00:00:00+00        0.00
1920-12-01 00:00:00+00        0.00
1921-01-01 00:00:00+00        0.00
1921-02-01 00:00:00+00        0.00
1921-03-01 00:00:00+00        0.00
1921-04-01 00:00:00+00        0.00
1921-05-01 00:00:00+00        0.00
1921-06-01 00:00:00+00        0.00
1921-07-01 00:00:00+00        0.00
1921-08-01 00:00:00+00        0.00
1921-09-01 00:00:00+00        0.00
1921-10-01 00:00:00+00        0.00
1921-11-01 00:00:00+00        0.00
1921-12-01 00:00:00+00        0.00
1922-01-01 00:00:00+00        0.00
1922-02-01 00:00:00+00        0.00
1922-03-01 00:00:00+00        0.00
1922-04-01 00:00:00+00        0.00
1922-05-01 00:00:00+00        0.00
1922-06-01 00:00:00+00        0.00
1922-07-01 00:00:00+00        0.00
1922-08-01 00:00:00+00        0.00
1922-09-01 00:00:00+00        0.00
1922-10-01 00:00:00+00        0.00
1922-11-01 00:00:00+00        0.00
1922-12-01 00:00:00+00        0.00
1923-01-01 00:00:00+00        0.00
1923-02-01 00:00:00+00        0.00
1923-03-01 00:00:00+00        0.00
1923-04-01 00:00:00+00        0.00
1923-05-01 00:00:00+00        0.00
1923-06-01 00:00:00+00        0.00
1923-07-01 00:00:00+00        0.00
1923-08-01 00:00:00+00        0.00
1923-09-01 00:00:00+00        0.00
1923-10-01 00:00:00+00        0.00
1923-11-01 00:00:00+00        0.00
1923-12-01 00:00:00+00        0.00
1924-01-01 00:00:00+00        0.00
1924-02-01 00:00:00+00        0.00
1924-03-01 00:00:00+00        0.00
1924-04-01 00:00:00+00        0.00
1924-05-01 00:00:00+00        0.00
1924-06-01 00:00:00+00        0.00
1924-07-01 00:00:00+00        0.00
1924-08-01 00:00:00+00        0.00
1924-09-01 00:00:00+00        0.00
1924-10-01 00:00:00+00        0.00
1924-11-01 00:00:00+00        0.00
1924-12-01 00:00:00+00        0.00
1925-01-01 00:00:00+00        0.00
1925-02-01 00:00:00+00        0.00
1925-03-01 00:00:00+00        0.00
1925-04-01 00:00:00+00        0.00
1925-05-01 00:00:00+00        0.00
1925-06-01 00:00:00+00        0.00
1925-07-01 00:00:00+00        0.00
1925-08-01 00:00:00+00        0.00
1925-09-01 00:00:00+00        0.00
1925-10-01 00:00:00+00        0.00
1925-11-01 00:00:00+00        0.00
1925-12-01 00:00:00+00        0.00
1926-01-01 00:00:00+00        0.00
1926-02-01 00:00:00+00        0.00
1926-03-01 00:00:00+00        0.00
1926-04-01 00:00:00+00        0.00
1926-05-01 00:00:00+00        0.00
1926-06-01 00:00:00+00        0.00
1926-07-01 00:00:00+00        0.00
1926-08-01 00:00:00+00        0.00
1926-09-01 00:00:00+00        0.00
1926-10-01 00:00:00+00        0.00
1926-11-01 00:00:00+00        0.00
1926-12-01 00:00:00+00        0.00
1927-01-01 00:00:00+00        0.00
1927-02-01 00:00:00+00        0.00
1927-03-01 00:00:00+00        0.00
1927-04-01 00:00:00+00        0.00
1927-05-01 00:00:00+00        0.00
1927-06-01 00:00:00+00        0.00
1927-07-01 00:00:00+00        0.00
1927-08-01 00:00:00+00        0.00
1927-09-01 00:00:00+00        0.00
1927-10-01 00:00:00+00        0.00
1927-11-01 00:00:00+00        0.00
1927-12-01 00:00:00+00        0.00
1928-01-01 00:00:00+00        0.00
1928-02-01 00:00:00+00        0.00
1928-03-01 00:00:00+00        0.00
1928-04-01 00:00:00+00        0.00
1928-05-01 00:00:00+00        0.00
1928-06-01 00:00:00+00        0.00
1928-07-01 00:00:00+00        0.00
1928-08-01 00:00:00+00        0.00
1928-09-01 00:00:00+00        0.00
1928-10-01 00:00:00+00        0.00
1928-11-01 00:00:00+00        0.00
1928-12-01 00:00:00+00        0.00
1929-01-01 00:00:00+00        0.00
1929-02-01 00:00:00+00        0.00
1929-03-01 00:00:00+00        0.00
1929-04-01 00:00:00+00        0.00
1929-05-01 00:00:00+00        0.00
1929-06-01 00:00:00+00        0.00
1929-07-01 00:00:00+00        0.00
1929-08-01 00:00:00+00        0.00
1929-09-01 00:00:00+00        0.00
1929-10-01 00:00:00+00        0.00
1929-11-01 00:00:00+00        0.00
1929-12-01 00:00:00+00        0.00
1930-01-01 00:00:00+00        0.00
1930-02-01 00:00:00+00        0.00
1930-03-01 00:00:00+00        0.00
1930-04-01 00:00:00+00        0.00
1930-05-01 00:00:00+00        0.00
1930-06-01 00:00:00+00        0.00
1930-07-01 00:00:00+00        0.00
1930-08-01 00:00:00+00        0.00
1930-09-01 00:00:00+00        0.00
1930-10-01 00:00:00+00        0.00
1930-11-01 00:00:00+00        0.00
1930-12-01 00:00:00+00        0.00
1931-01-01 00:00:00+00        0.00
1931-02-01 00:00:00+00        0.00
1931-03-01 00:00:00+00        0.00
1931-04-01 00:00:00+00        0.00
1931-05-01 00:00:00+00        0.00
1931-06-01 00:00:00+00        0.00
1931-07-01 00:00:00+00        0.00
1931-08-01 00:00:00+00        0.00
1931-09-01 00:00:00+00        0.00
1931-10-01 00:00:00+00        0.00
1931-11-01 00:00:00+00        0.00
1931-12-01 00:00:00+00        0.00
1932-01-01 00:00:00+00      -71.60
1932-02-01 00:00:00+00     -146.30
1932-03-01 00:00:00+00       -1.00
1932-04-01 00:00:00+00       -1.00
1932-05-01 00:00:00+00       -1.00
1932-06-01 00:00:00+00       -1.00
1932-07-01 00:00:00+00       -1.00
1932-08-01 00:00:00+00       -1.00
1932-09-01 00:00:00+00       -1.00
1932-10-01 00:00:00+00       -1.00
1932-11-01 00:00:00+00       -1.00
1932-12-01 00:00:00+00       -1.00
1933-01-01 00:00:00+00       -1.00
1933-02-01 00:00:00+00       -1.00
1933-03-01 00:00:00+00       -1.00
1933-04-01 00:00:00+00       -1.00
1933-05-01 00:00:00+00       -1.00
1933-06-01 00:00:00+00       -1.00
1933-07-01 00:00:00+00       -1.00
1933-08-01 00:00:00+00       -1.00
1933-09-01 00:00:00+00       -1.00
1933-10-01 00:00:00+00       -1.00
1933-11-01 00:00:00+00       -1.00
1933-12-01 00:00:00+00       -1.00
1934-01-01 00:00:00+00       -1.00
1934-02-01 00:00:00+00       -1.00
1934-03-01 00:00:00+00       -1.00
1934-04-01 00:00:00+00       -1.00
1934-05-01 00:00:00+00       -1.00
1934-06-01 00:00:00+00       -1.00
1934-07-01 00:00:00+00       -1.00
1934-08-01 00:00:00+00       -1.00
1934-09-01 00:00:00+00       -1.00
1934-10-01 00:00:00+00       -1.00
1934-11-01 00:00:00+00       -1.00
1934-12-01 00:00:00+00       -1.00
1935-01-01 00:00:00+00       -1.00
1935-02-01 00:00:00+00       -1.00
1935-03-01 00:00:00+00       -1.00
1935-04-01 00:00:00+00       -1.00
1935-05-01 00:00:00+00       -1.00
1935-06-01 00:00:00+00       -1.00
1935-07-01 00:00:00+00       -1.00
1935-08-01 00:00:00+00       -1.00
1935-09-01 00:00:00+00       -1.00
1935-10-01 00:00:00+00       -1.00
1935-11-01 00:00:00+00       -1.00
1935-12-01 00:00:00+00       -1.00
1936-01-01 00:00:00+00       -1.00
1936-02-01 00:00:00+00       -1.00
1936-03-01 00:00:00+00       -1.00
1936-04-01 00:00:00+00       -1.00
1936-05-01 00:00:00+00       -1.00
1936-06-01 00:00:00+00       -1.00
1936-07-01 00:00:00+00       -1.00
1936-08-01 00:00:00+00       -1.00
1936-09-01 00:00:00+00       -1.00
1936-10-01 00:00:00+00       -1.00
1936-11-01 00:00:00+00       -1.00
1936-12-01 00:00:00+00       -1.00
1937-01-01 00:00:00+00       -1.00
1937-02-01 00:00:00+00       -1.00
1937-03-01 00:00:00+00       -1.00
1937-04-01 00:00:00+00       -1.00
1937-05-01 00:00:00+00       -1.00
1937-06-01 00:00:00+00       -1.00
1937-07-01 00:00:00+00       -1.00
1937-08-01 00:00:00+00       -1.00
1937-09-01 00:00:00+00       -1.00
1937-10-01 00:00:00+00       -1.00
1937-11-01 00:00:00+00       -1.00
1937-12-01 00:00:00+00       -1.00
1938-01-01 00:00:00+00       -1.00
1938-02-01 00:00:00+00       -1.00
1938-03-01 00:00:00+00       -1.00
1938-04-01 00:00:00+00       -1.00
1938-05-01 00:00:00+00       -1.00
1938-06-01 00:00:00+00       -1.00
1938-07-01 00:00:00+00       -1.00
1938-08-01 00:00:00+00       -1.00
1938-09-01 00:00:00+00       -1.00
1938-10-01 00:00:00+00       -1.00
1938-11-01 00:00:00+00       -1.00
1938-12-01 00:00:00+00       -1.00
1939-01-01 00:00:00+00       -1.00
1939-02-01 00:00:00+00       -1.00
1939-03-01 00:00:00+00       -1.00
1939-04-01 00:00:00+00       -1.00
1939-05-01 00:00:00+00       -1.00
1939-06-01 00:00:00+00       -1.00
1939-07-01 00:00:00+00       -1.00
1939-08-01 00:00:00+00       -1.00
1939-09-01 00:00:00+00       -1.00
1939-10-01 00:00:00+00       -1.00
1939-11-01 00:00:00+00       -1.00
1939-12-01 00:00:00+00       -1.00
1940-01-01 00:00:00+00       -1.00
1940-02-01 00:00:00+00       -1.00
1940-03-01 00:00:00+00       -1.00
1940-04-01 00:00:00+00       -1.00
1940-05-01 00:00:00+00       -1.00
1940-06-01 00:00:00+00       -1.00
1940-07-01 00:00:00+00       -1.00
1940-08-01 00:00:00+00       -1.00
1940-09-01 00:00:00+00       -1.00
1940-10-01 00:00:00+00       -1.00
1940-11-01 00:00:00+00       -1.00
1940-12-01 00:00:00+00       -1.00
1941-01-01 00:00:00+00       -1.00
1941-02-01 00:00:00+00       -1.00
1941-03-01 00:00:00+00       -1.00
1941-04-01 00:00:00+00       -1.00
1941-05-01 00:00:00+00       -1.00
1941-06-01 00:00:00+00       -1.00
1941-07-01 00:00:00+00       -1.00
1941-08-01 00:00:00+00       -1.00
1941-09-01 00:00:00+00       -1.00
1941-10-01 00:00:00+00       -1.00
1941-11-01 00:00:00+00       -1.00
1941-12-01 00:00:00+00       -1.00
1942-01-01 00:00:00+00       -1.00
1942-02-01 00:00:00+00       -1.00
1942-03-01 00:00:00+00       -1.00
1942-04-01 00:00:00+00       -1.00
1942-05-01 00:00:00+00       -1.00
1942-06-01 00:00:00+00       -1.00
1942-07-01 00:00:00+00       -1.00
1942-08-01 00:00:00+00       -1.00
1942-09-01 00:00:00+00       -1.00
1942-10-01 00:00:00+00       -1.00
1942-11-01 00:00:00+00       -1.00
1942-12-01 00:00:00+00       -1.00
1943-01-01 00:00:00+00       -1.00
1943-02-01 00:00:00+00       -1.00
1943-03-01 00:00:00+00       -1.00
1943-04-01 00:00:00+00       -1.00
1943-05-01 00:00:00+00       -1.00
1943-06-01 00:00:00+00       -1.00
1943-07-01 00:00:00+00       -1.00
1943-08-01 00:00:00+00       -1.00
1943-09-01 00:00:00+00       -1.00
1943-10-01 00:00:00+00       -1.00
1943-11-01 00:00:00+00       -1.00
1943-12-01 00:00:00+00       -1.00
1944-01-01 00:00:00+00       -1.00
1944-02-01 00:00:00+00       -1.00
1944-03-01 00:00:00+00       -1.00
1944-04-01 00:00:00+00       -1.00
1944-05-01 00:00:00+00       -1.00
1944-06-01 00:00:00+00       -1.00
1944-07-01 00:00:00+00       -1.00
1944-08-01 00:00:00+00       -1.00
1944-09-01 00:00:00+00       -1.00
1944-10-01 00:00:00+00       -1.00
1944-11-01 00:00:00+00       -1.00
1944-12-01 00:00:00+00       -1.00
1945-01-01 00:00:00+00       -1.00
1945-02-01 00:00:00+00       -1.00
1945-03-01 00:00:00+00       -1.00
1945-04-01 00:00:00+00       -1.00
1945-05-01 00:00:00+00       -1.00
1945-06-01 00:00:00+00       -1.00
1945-07-01 00:00:00+00       -1.00
1945-08-01 00:00:00+00       -1.00
1945-09-01 00:00:00+00       -1.00
1945-10-01 00:00:00+00       -1.00
1945-11-01 00:00:00+00       -1.00
1945-12-01 00:00:00+00       -1.00
1946-01-01 00:00:00+00       -1.00
1946-02-01 00:00:00+00       -1.00
1946-03-01 00:00:00+00       -1.00
1946-04-01 00:00:00+00       -1.00
1946-05-01 00:00:00+00       -1.00
1946-06-01 00:00:00+00       -1.00
1946-07-01 00:00:00+00       -1.00
1946-08-01 00:00:00+00       -1.00
1946-09-01 00:00:00+00       -1.00
1946-10-01 00:00:00+00       -1.00
1946-11-01 00:00:00+00       -1.00
1946-12-01 00:00:00+00       -1.00
1947-01-01 00:00:00+00       -1.00
1947-02-01 00:00:00+00       -1.00
1947-03-01 00:00:00+00       -1.00
1947-04-01 00:00:00+00       -1.00
1947-05-01 00:00:00+00       -1.00
1947-06-01 00:00:00+00       -1.00
1947-07-01 00:00:00+00       -1.00
1947-08-01 00:00:00+00       -1.00
1947-09-01 00:00:00+00       -1.00
1947-10-01 00:00:00+00       -1.00
1947-11-01 00:00:00+00       -1.00
1947-12-01 00:00:00+00       -1.00
1948-01-01 00:00:00+00       -1.00
1948-02-01 00:00:00+00       98.00
1948-03-01 00:00:00+00      135.30
1948-04-01 00:00:00+00      207.80
1948-05-01 00:00:00+00      225.80
1948-06-01 00:00:00+00      195.30
1948-07-01 00:00:00+00      182.60
1948-08-01 00:00:00+00      172.90
1948-09-01 00:00:00+00      167.80
1948-10-01 00:00:00+00      159.40
1948-11-01 00:00:00+00      166.50
1948-12-01 00:00:00+00      193.80
1949-01-01 00:00:00+00      182.00
1949-02-01 00:00:00+00      220.30
1949-03-01 00:00:00+00      203.80
1949-04-01 00:00:00+00      181.20
1949-05-01 00:00:00+00      154.50
1949-06-01 00:00:00+00      157.50
1949-07-01 00:00:00+00      158.80
1949-08-01 00:00:00+00      174.80
1949-09-01 00:00:00+00      172.20
1949-10-01 00:00:00+00      178.20
1949-11-01 00:00:00+00      180.00
1949-12-01 00:00:00+00      164.20
1950-01-01 00:00:00+00      149.10
1950-02-01 00:00:00+00      146.20
1950-03-01 00:00:00+00      136.20
1950-04-01 00:00:00+00      165.20
1950-05-01 00:00:00+00      157.50
1950-06-01 00:00:00+00      129.80
1950-07-01 00:00:00+00      133.40
1950-08-01 00:00:00+00      121.40
1950-09-01 00:00:00+00       99.20
1950-10-01 00:00:00+00       99.30
1950-11-01 00:00:00+00      101.40
1950-12-01 00:00:00+00      102.80
1951-01-01 00:00:00+00      108.10
1951-02-01 00:00:00+00      103.40
1951-03-01 00:00:00+00      104.00
1951-04-01 00:00:00+00      125.80
1951-05-01 00:00:00+00      162.80
1951-06-01 00:00:00+00      154.80
1951-07-01 00:00:00+00      115.20
1951-08-01 00:00:00+00      111.30
1951-09-01 00:00:00+00      117.10
1951-10-01 00:00:00+00      106.50
1951-11-01 00:00:00+00      104.90
1951-12-01 00:00:00+00      103.70
1952-01-01 00:00:00+00       95.40
1952-02-01 00:00:00+00       86.90
1952-03-01 00:00:00+00       78.50
1952-04-01 00:00:00+00       84.10
1952-05-01 00:00:00+00       80.80
1952-06-01 00:00:00+00       84.70
1952-07-01 00:00:00+00       88.80
1952-08-01 00:00:00+00       94.40
1952-09-01 00:00:00+00       83.40
1952-10-01 00:00:00+00       83.00
1952-11-01 00:00:00+00       82.30
1952-12-01 00:00:00+00       85.20
1953-01-01 00:00:00+00       83.00
1953-02-01 00:00:00+00       72.90
1953-03-01 00:00:00+00       70.10
1953-04-01 00:00:00+00       79.40
1953-05-01 00:00:00+00       72.70
1953-06-01 00:00:00+00       72.80
1953-07-01 00:00:00+00       69.70
1953-08-01 00:00:00+00       74.50
1953-09-01 00:00:00+00       74.10
1953-10-01 00:00:00+00       71.70
1953-11-01 00:00:00+00       71.60
1953-12-01 00:00:00+00       70.60
1954-01-01 00:00:00+00       68.70
1954-02-01 00:00:00+00       68.90
1954-03-01 00:00:00+00       71.70
1954-04-01 00:00:00+00       68.40
1954-05-01 00:00:00+00       67.90
1954-06-01 00:00:00+00       67.30
1954-07-01 00:00:00+00       67.80
1954-08-01 00:00:00+00       69.80
1954-09-01 00:00:00+00       70.30
1954-10-01 00:00:00+00       72.80
1954-11-01 00:00:00+00       72.40
1954-12-01 00:00:00+00       75.30
1955-01-01 00:00:00+00       84.70
1955-02-01 00:00:00+00       81.90
1955-03-01 00:00:00+00       74.80
1955-04-01 00:00:00+00       77.30
1955-05-01 00:00:00+00       82.30
1955-06-01 00:00:00+00       88.70
1955-07-01 00:00:00+00       86.70
1955-08-01 00:00:00+00       91.00
1955-09-01 00:00:00+00       95.20
1955-10-01 00:00:00+00      112.60
1955-11-01 00:00:00+00      130.00
1955-12-01 00:00:00+00      134.60
1956-01-01 00:00:00+00      140.80
1956-02-01 00:00:00+00      167.20
1956-03-01 00:00:00+00      160.20
1956-04-01 00:00:00+00      164.70
1956-05-01 00:00:00+00      163.40
1956-06-01 00:00:00+00      154.00
1956-07-01 00:00:00+00      162.80
1956-08-01 00:00:00+00      194.20
1956-09-01 00:00:00+00      200.20
1956-10-01 00:00:00+00      201.60
1956-11-01 00:00:00+00      250.40
1956-12-01 00:00:00+00      254.00
1957-01-01 00:00:00+00      232.60
1957-02-01 00:00:00+00      186.70
1957-03-01 00:00:00+00      197.80
1957-04-01 00:00:00+00      199.90
1957-05-01 00:00:00+00      208.80
1957-06-01 00:00:00+00      252.10
1957-07-01 00:00:00+00      218.00
1957-08-01 00:00:00+00      202.30
1957-09-01 00:00:00+00      267.10
1957-10-01 00:00:00+00      283.10
1957-11-01 00:00:00+00      259.20
1957-12-01 00:00:00+00      289.20
1958-01-01 00:00:00+00      251.50
1958-02-01 00:00:00+00      211.60
1958-03-01 00:00:00+00      251.60
1958-04-01 00:00:00+00      245.90
1958-05-01 00:00:00+00      220.60
1958-06-01 00:00:00+00      220.50
1958-07-01 00:00:00+00      224.10
1958-08-01 00:00:00+00      236.90
1958-09-01 00:00:00+00      243.60
1958-10-01 00:00:00+00      228.00
1958-11-01 00:00:00+00      209.20
1958-12-01 00:00:00+00      238.20
1959-01-01 00:00:00+00      275.50
1959-02-01 00:00:00+00      207.90
1959-03-01 00:00:00+00      229.20
1959-04-01 00:00:00+00      210.60
1959-05-01 00:00:00+00      212.80
1959-06-01 00:00:00+00      217.50
1959-07-01 00:00:00+00      203.00
1959-08-01 00:00:00+00      234.20
1959-09-01 00:00:00+00      194.30
1959-10-01 00:00:00+00      166.40
1959-11-01 00:00:00+00      184.80
1959-12-01 00:00:00+00      181.60
1960-01-01 00:00:00+00      201.50
1960-02-01 00:00:00+00      170.00
1960-03-01 00:00:00+00      147.90
1960-04-01 00:00:00+00      167.60
1960-05-01 00:00:00+00      162.70
1960-06-01 00:00:00+00      161.90
1960-07-01 00:00:00+00      163.90
1960-08-01 00:00:00+00      174.40
1960-09-01 00:00:00+00      164.50
1960-10-01 00:00:00+00      142.30
1960-11-01 00:00:00+00      148.90
1960-12-01 00:00:00+00      138.10
1961-01-01 00:00:00+00      122.00
1961-02-01 00:00:00+00      106.40
1961-03-01 00:00:00+00      104.80
1961-04-01 00:00:00+00      105.00
1961-05-01 00:00:00+00       99.30
1961-06-01 00:00:00+00      109.90
1961-07-01 00:00:00+00      116.50
1961-08-01 00:00:00+00      106.20
1961-09-01 00:00:00+00      112.70
1961-10-01 00:00:00+00       96.70
1961-11-01 00:00:00+00       90.40
1961-12-01 00:00:00+00       95.10
1962-01-01 00:00:00+00       94.60
1962-02-01 00:00:00+00      102.20
1962-03-01 00:00:00+00      100.30
1962-04-01 00:00:00+00       96.10
1962-05-01 00:00:00+00       97.80
1962-06-01 00:00:00+00       91.00
1962-07-01 00:00:00+00       81.60
1962-08-01 00:00:00+00       77.30
1962-09-01 00:00:00+00       89.50
1962-10-01 00:00:00+00       87.80
1962-11-01 00:00:00+00       84.90
1962-12-01 00:00:00+00       80.90
1963-01-01 00:00:00+00       79.30
1963-02-01 00:00:00+00       79.70
1963-03-01 00:00:00+00       77.80
1963-04-01 00:00:00+00       79.40
1963-05-01 00:00:00+00       87.70
1963-06-01 00:00:00+00       83.50
1963-07-01 00:00:00+00       75.90
1963-08-01 00:00:00+00       80.90
1963-09-01 00:00:00+00       85.10
1963-10-01 00:00:00+00       85.00
1963-11-01 00:00:00+00       81.60
1963-12-01 00:00:00+00       78.30
1964-01-01 00:00:00+00       75.30
1964-02-01 00:00:00+00       76.80
1964-03-01 00:00:00+00       75.80
1964-04-01 00:00:00+00       72.60
1964-05-01 00:00:00+00       69.50
1964-06-01 00:00:00+00       69.00
1964-07-01 00:00:00+00       67.00
1964-08-01 00:00:00+00       69.30
1964-09-01 00:00:00+00       70.10
1964-10-01 00:00:00+00       73.30
1964-11-01 00:00:00+00       73.70
1964-12-01 00:00:00+00       78.80
1965-01-01 00:00:00+00       78.50
1965-02-01 00:00:00+00       75.20
1965-03-01 00:00:00+00       74.10
1965-04-01 00:00:00+00       72.00
1965-05-01 00:00:00+00       78.20
1965-06-01 00:00:00+00       77.00
1965-07-01 00:00:00+00       74.30
1965-08-01 00:00:00+00       74.70
1965-09-01 00:00:00+00       76.50
1965-10-01 00:00:00+00       80.10
1965-11-01 00:00:00+00       77.60
1965-12-01 00:00:00+00       77.70
1966-01-01 00:00:00+00       87.90
1966-02-01 00:00:00+00       84.20
1966-03-01 00:00:00+00       90.30
1966-04-01 00:00:00+00       97.20
1966-05-01 00:00:00+00       98.50
1966-06-01 00:00:00+00       96.30
1966-07-01 00:00:00+00      106.70
1966-08-01 00:00:00+00      106.60
1966-09-01 00:00:00+00      110.90
1966-10-01 00:00:00+00      108.60
1966-11-01 00:00:00+00      113.30
1966-12-01 00:00:00+00      124.60
1967-01-01 00:00:00+00      147.70
1967-02-01 00:00:00+00      147.00
1967-03-01 00:00:00+00      160.60
1967-04-01 00:00:00+00      129.90
1967-05-01 00:00:00+00      143.00
1967-06-01 00:00:00+00      120.20
1967-07-01 00:00:00+00      140.30
1967-08-01 00:00:00+00      153.70
1967-09-01 00:00:00+00      131.90
1967-10-01 00:00:00+00      136.10
1967-11-01 00:00:00+00      145.30
1967-12-01 00:00:00+00      163.00
1968-01-01 00:00:00+00      189.10
1968-02-01 00:00:00+00      173.20
1968-03-01 00:00:00+00      142.60
1968-04-01 00:00:00+00      129.50
1968-05-01 00:00:00+00      154.90
1968-06-01 00:00:00+00      142.30
1968-07-01 00:00:00+00      137.20
1968-08-01 00:00:00+00      142.20
1968-09-01 00:00:00+00      140.90
1968-10-01 00:00:00+00      152.50
1968-11-01 00:00:00+00      138.50
1968-12-01 00:00:00+00      148.40
1969-01-01 00:00:00+00      152.80
1969-02-01 00:00:00+00      155.20
1969-03-01 00:00:00+00      172.30
1969-04-01 00:00:00+00      155.50
1969-05-01 00:00:00+00      145.40
1969-06-01 00:00:00+00      162.20
1969-07-01 00:00:00+00      136.60
1969-08-01 00:00:00+00      143.00
1969-09-01 00:00:00+00      137.30
1969-10-01 00:00:00+00      154.00
1969-11-01 00:00:00+00      156.70
1969-12-01 00:00:00+00      143.60
1970-01-01 00:00:00+00      158.30
1970-02-01 00:00:00+00      175.40
1970-03-01 00:00:00+00      158.40
1970-04-01 00:00:00+00      162.00
1970-05-01 00:00:00+00      168.40
1970-06-01 00:00:00+00      154.90
1970-07-01 00:00:00+00      152.00
1970-08-01 00:00:00+00      138.20
1970-09-01 00:00:00+00      143.20
1970-10-01 00:00:00+00      148.30
1970-11-01 00:00:00+00      162.00
1970-12-01 00:00:00+00      152.80
1971-01-01 00:00:00+00      162.60
1971-02-01 00:00:00+00      137.80
1971-03-01 00:00:00+00      111.90
1971-04-01 00:00:00+00      116.70
1971-05-01 00:00:00+00      109.90
1971-06-01 00:00:00+00      101.70
1971-07-01 00:00:00+00      117.30
1971-08-01 00:00:00+00      114.10
1971-09-01 00:00:00+00      104.00
1971-10-01 00:00:00+00      107.20
1971-11-01 00:00:00+00      114.00
1971-12-01 00:00:00+00      124.50
1972-01-01 00:00:00+00      114.80
1972-02-01 00:00:00+00      141.80
1972-03-01 00:00:00+00      128.50
1972-04-01 00:00:00+00      112.90
1972-05-01 00:00:00+00      129.60
1972-06-01 00:00:00+00      135.40
1972-07-01 00:00:00+00      122.00
1972-08-01 00:00:00+00      125.70
1972-09-01 00:00:00+00      113.70
1972-10-01 00:00:00+00      122.10
1972-11-01 00:00:00+00      101.60
1972-12-01 00:00:00+00      102.90
1973-01-01 00:00:00+00      102.20
1973-02-01 00:00:00+00       98.70
1973-03-01 00:00:00+00      100.40
1973-04-01 00:00:00+00      105.00
1973-05-01 00:00:00+00       97.00
1973-06-01 00:00:00+00       91.20
1973-07-01 00:00:00+00       84.50
1973-08-01 00:00:00+00       82.90
1973-09-01 00:00:00+00      105.60
1973-10-01 00:00:00+00       87.70
1973-11-01 00:00:00+00       81.50
1973-12-01 00:00:00+00       84.20
1974-01-01 00:00:00+00       83.10
1974-02-01 00:00:00+00       80.80
1974-03-01 00:00:00+00       79.20
1974-04-01 00:00:00+00       86.10
1974-05-01 00:00:00+00       90.60
1974-06-01 00:00:00+00       86.30
1974-07-01 00:00:00+00       92.50
1974-08-01 00:00:00+00       83.00
1974-09-01 00:00:00+00       87.80
1974-10-01 00:00:00+00       97.60
1974-11-01 00:00:00+00       90.30
1974-12-01 00:00:00+00       81.10
1975-01-01 00:00:00+00       77.50
1975-02-01 00:00:00+00       74.20
1975-03-01 00:00:00+00       72.40
1975-04-01 00:00:00+00       70.70
1975-05-01 00:00:00+00       70.10
1975-06-01 00:00:00+00       69.70
1975-07-01 00:00:00+00       77.20
1975-08-01 00:00:00+00       90.40
1975-09-01 00:00:00+00       79.50
1975-10-01 00:00:00+00       75.70
1975-11-01 00:00:00+00       80.80
1975-12-01 00:00:00+00       74.60
1976-01-01 00:00:00+00       74.80
1976-02-01 00:00:00+00       70.50
1976-03-01 00:00:00+00       76.70
1976-04-01 00:00:00+00       76.30
1976-05-01 00:00:00+00       70.60
1976-06-01 00:00:00+00       70.60
1976-07-01 00:00:00+00       67.50
1976-08-01 00:00:00+00       74.80
1976-09-01 00:00:00+00       73.10
1976-10-01 00:00:00+00       75.90
1976-11-01 00:00:00+00       72.90
1976-12-01 00:00:00+00       76.70
1977-01-01 00:00:00+00       77.40
1977-02-01 00:00:00+00       82.30
1977-03-01 00:00:00+00       76.50
1977-04-01 00:00:00+00       77.60
1977-05-01 00:00:00+00       79.70
1977-06-01 00:00:00+00       91.50
1977-07-01 00:00:00+00       81.00
1977-08-01 00:00:00+00       84.30
1977-09-01 00:00:00+00      100.20
1977-10-01 00:00:00+00       96.90
1977-11-01 00:00:00+00       93.70
1977-12-01 00:00:00+00      102.10
1978-01-01 00:00:00+00      109.60
1978-02-01 00:00:00+00      145.40
1978-03-01 00:00:00+00      141.80
1978-04-01 00:00:00+00      149.40
1978-05-01 00:00:00+00      146.50
1978-06-01 00:00:00+00      142.20
1978-07-01 00:00:00+00      131.10
1978-08-01 00:00:00+00      114.00
1978-09-01 00:00:00+00      157.90
1978-10-01 00:00:00+00      158.20
1978-11-01 00:00:00+00      151.50
1978-12-01 00:00:00+00      175.50
1979-01-01 00:00:00+00      203.00
1979-02-01 00:00:00+00      204.10
1979-03-01 00:00:00+00      185.80
1979-04-01 00:00:00+00      173.80
1979-05-01 00:00:00+00      165.20
1979-06-01 00:00:00+00      180.30
1979-07-01 00:00:00+00      165.90
1979-08-01 00:00:00+00      172.70
1979-09-01 00:00:00+00      200.20
1979-10-01 00:00:00+00      217.90
1979-11-01 00:00:00+00      231.80
1979-12-01 00:00:00+00      203.50
1980-01-01 00:00:00+00      206.20
1980-02-01 00:00:00+00      200.00
1980-03-01 00:00:00+00      168.10
1980-04-01 00:00:00+00      207.90
1980-05-01 00:00:00+00      224.00
1980-06-01 00:00:00+00      193.20
1980-07-01 00:00:00+00      184.80
1980-08-01 00:00:00+00      166.20
1980-09-01 00:00:00+00      183.90
1980-10-01 00:00:00+00      204.20
1980-11-01 00:00:00+00      218.10
1980-12-01 00:00:00+00      227.40
1981-01-01 00:00:00+00      174.60
1981-02-01 00:00:00+00      204.50
1981-03-01 00:00:00+00      205.30
1981-04-01 00:00:00+00      223.20
1981-05-01 00:00:00+00      194.60
1981-06-01 00:00:00+00      156.90
1981-07-01 00:00:00+00      191.90
1981-08-01 00:00:00+00      220.60
1981-09-01 00:00:00+00      219.50
1981-10-01 00:00:00+00      224.30
1981-11-01 00:00:00+00      207.80
1981-12-01 00:00:00+00      207.80
1982-01-01 00:00:00+00      179.00
1982-02-01 00:00:00+00      215.00
1982-03-01 00:00:00+00      210.50
1982-04-01 00:00:00+00      161.80
1982-05-01 00:00:00+00      144.70
1982-06-01 00:00:00+00      171.90
1982-07-01 00:00:00+00      159.60
1982-08-01 00:00:00+00      167.90
1982-09-01 00:00:00+00      165.30
1982-10-01 00:00:00+00      161.90
1982-11-01 00:00:00+00      167.40
1982-12-01 00:00:00+00      199.30
1983-01-01 00:00:00+00      142.30
1983-02-01 00:00:00+00      122.60
1983-03-01 00:00:00+00      118.50
1983-04-01 00:00:00+00      119.00
1983-05-01 00:00:00+00      137.10
1983-06-01 00:00:00+00      138.60
1983-07-01 00:00:00+00      125.00
1983-08-01 00:00:00+00      124.40
1983-09-01 00:00:00+00      109.00
1983-10-01 00:00:00+00      112.40
1983-11-01 00:00:00+00       93.00
1983-12-01 00:00:00+00       93.40
1984-01-01 00:00:00+00      116.10
1984-02-01 00:00:00+00      140.60
1984-03-01 00:00:00+00      122.00
1984-04-01 00:00:00+00      128.70
1984-05-01 00:00:00+00      128.30
1984-06-01 00:00:00+00      100.30
1984-07-01 00:00:00+00       89.30
1984-08-01 00:00:00+00       83.70
1984-09-01 00:00:00+00       78.10
1984-10-01 00:00:00+00       73.50
1984-11-01 00:00:00+00       76.30
1984-12-01 00:00:00+00       75.80
1985-01-01 00:00:00+00       74.50
1985-02-01 00:00:00+00       73.70
1985-03-01 00:00:00+00       73.30
1985-04-01 00:00:00+00       75.10
1985-05-01 00:00:00+00       80.20
1985-06-01 00:00:00+00       76.10
1985-07-01 00:00:00+00       78.70
1985-08-01 00:00:00+00       71.50
1985-09-01 00:00:00+00       69.50
1985-10-01 00:00:00+00       74.70
1985-11-01 00:00:00+00       74.20
1985-12-01 00:00:00+00       74.80
1986-01-01 00:00:00+00       73.30
1986-02-01 00:00:00+00       83.60
1986-03-01 00:00:00+00       77.00
1986-04-01 00:00:00+00       75.10
1986-05-01 00:00:00+00       72.60
1986-06-01 00:00:00+00       67.60
1986-07-01 00:00:00+00       70.20
1986-08-01 00:00:00+00       68.40
1986-09-01 00:00:00+00       68.70
1986-10-01 00:00:00+00       83.00
1986-11-01 00:00:00+00       77.10
1986-12-01 00:00:00+00       72.60
1987-01-01 00:00:00+00       72.50
1987-02-01 00:00:00+00       71.50
1987-03-01 00:00:00+00       74.00
1987-04-01 00:00:00+00       84.90
1987-05-01 00:00:00+00       87.80
1987-06-01 00:00:00+00       77.90
1987-07-01 00:00:00+00       84.30
1987-08-01 00:00:00+00       90.00
1987-09-01 00:00:00+00       86.10
1987-10-01 00:00:00+00       98.10
1987-11-01 00:00:00+00      101.20
1987-12-01 00:00:00+00       94.40
1988-01-01 00:00:00+00      108.00
1988-02-01 00:00:00+00      105.00
1988-03-01 00:00:00+00      114.90
1988-04-01 00:00:00+00      122.70
1988-05-01 00:00:00+00      115.20
1988-06-01 00:00:00+00      139.40
1988-07-01 00:00:00+00      152.70
1988-08-01 00:00:00+00      154.20
1988-09-01 00:00:00+00      152.50
1988-10-01 00:00:00+00      169.80
1988-11-01 00:00:00+00      156.20
1988-12-01 00:00:00+00      199.80
1989-01-01 00:00:00+00      235.40
1989-02-01 00:00:00+00      222.40
1989-03-01 00:00:00+00      205.10
1989-04-01 00:00:00+00      189.60
1989-05-01 00:00:00+00      190.10
1989-06-01 00:00:00+00      239.60
1989-07-01 00:00:00+00      181.90
1989-08-01 00:00:00+00      217.10
1989-09-01 00:00:00+00      226.20
1989-10-01 00:00:00+00      208.70
1989-11-01 00:00:00+00      235.10
1989-12-01 00:00:00+00      213.00
1990-01-01 00:00:00+00      210.10
1990-02-01 00:00:00+00      178.30
1990-03-01 00:00:00+00      188.80
1990-04-01 00:00:00+00      185.30
1990-05-01 00:00:00+00      189.70
1990-06-01 00:00:00+00      170.90
1990-07-01 00:00:00+00      180.70
1990-08-01 00:00:00+00      222.70
1990-09-01 00:00:00+00      177.40
1990-10-01 00:00:00+00      182.00
1990-11-01 00:00:00+00      184.30
1990-12-01 00:00:00+00      204.90
1991-01-01 00:00:00+00      229.40
1991-02-01 00:00:00+00      243.00
1991-03-01 00:00:00+00      230.00
1991-04-01 00:00:00+00      198.80
1991-05-01 00:00:00+00      190.30
1991-06-01 00:00:00+00      206.80
1991-07-01 00:00:00+00      212.00
1991-08-01 00:00:00+00      210.30
1991-09-01 00:00:00+00      180.60
1991-10-01 00:00:00+00      201.30
1991-11-01 00:00:00+00      172.00
1991-12-01 00:00:00+00      223.90
1992-01-01 00:00:00+00      217.60
1992-02-01 00:00:00+00      232.10
1992-03-01 00:00:00+00      171.30
1992-04-01 00:00:00+00      158.50
1992-05-01 00:00:00+00      125.40
1992-06-01 00:00:00+00      116.70
1992-07-01 00:00:00+00      132.20
1992-08-01 00:00:00+00      122.10
1992-09-01 00:00:00+00      116.80
1992-10-01 00:00:00+00      131.70
1992-11-01 00:00:00+00      145.90
1992-12-01 00:00:00+00      139.10
1993-01-01 00:00:00+00      121.00
1993-02-01 00:00:00+00      142.60
1993-03-01 00:00:00+00      136.40
1993-04-01 00:00:00+00      115.80
1993-05-01 00:00:00+00      112.30
1993-06-01 00:00:00+00      109.30
1993-07-01 00:00:00+00       99.00
1993-08-01 00:00:00+00       93.70
1993-09-01 00:00:00+00       87.00
1993-10-01 00:00:00+00      100.30
1993-11-01 00:00:00+00       95.90
1993-12-01 00:00:00+00      104.80
1994-01-01 00:00:00+00      115.00
1994-02-01 00:00:00+00       99.60
1994-03-01 00:00:00+00       90.40
1994-04-01 00:00:00+00       79.10
1994-05-01 00:00:00+00       79.90
1994-06-01 00:00:00+00       77.30
1994-07-01 00:00:00+00       80.50
1994-08-01 00:00:00+00       76.10
1994-09-01 00:00:00+00       79.10
1994-10-01 00:00:00+00       87.70
1994-11-01 00:00:00+00       80.90
1994-12-01 00:00:00+00       84.10
1995-01-01 00:00:00+00       82.60
1995-02-01 00:00:00+00       85.60
1995-03-01 00:00:00+00       85.10
1995-04-01 00:00:00+00       77.70
1995-05-01 00:00:00+00       75.50
1995-06-01 00:00:00+00       75.70
1995-07-01 00:00:00+00       73.90
1995-08-01 00:00:00+00       73.80
1995-09-01 00:00:00+00       72.00
1995-10-01 00:00:00+00       78.00
1995-11-01 00:00:00+00       74.20
1995-12-01 00:00:00+00       72.60
1996-01-01 00:00:00+00       74.50
1996-02-01 00:00:00+00       71.50
1996-03-01 00:00:00+00       70.70
1996-04-01 00:00:00+00       69.30
1996-05-01 00:00:00+00       70.10
1996-06-01 00:00:00+00       69.60
1996-07-01 00:00:00+00       71.20
1996-08-01 00:00:00+00       72.40
1996-09-01 00:00:00+00       69.40
1996-10-01 00:00:00+00       69.20
1996-11-01 00:00:00+00       78.70
1996-12-01 00:00:00+00       77.80
1997-01-01 00:00:00+00       74.00
1997-02-01 00:00:00+00       73.80
1997-03-01 00:00:00+00       73.50
1997-04-01 00:00:00+00       74.50
1997-05-01 00:00:00+00       74.60
1997-06-01 00:00:00+00       71.70
1997-07-01 00:00:00+00       71.10
1997-08-01 00:00:00+00       79.00
1997-09-01 00:00:00+00       96.20
1997-10-01 00:00:00+00       84.90
1997-11-01 00:00:00+00       99.50
1997-12-01 00:00:00+00       98.80
1998-01-01 00:00:00+00       93.40
1998-02-01 00:00:00+00       93.40
1998-03-01 00:00:00+00      109.10
1998-04-01 00:00:00+00      108.30
1998-05-01 00:00:00+00      106.70
1998-06-01 00:00:00+00      108.40
1998-07-01 00:00:00+00      114.00
1998-08-01 00:00:00+00      136.00
1998-09-01 00:00:00+00      138.30
1998-10-01 00:00:00+00      117.30
1998-11-01 00:00:00+00      140.20
1998-12-01 00:00:00+00      150.10
1999-01-01 00:00:00+00      142.60
1999-02-01 00:00:00+00      142.00
1999-03-01 00:00:00+00      126.30
1999-04-01 00:00:00+00      117.20
1999-05-01 00:00:00+00      148.60
1999-06-01 00:00:00+00      175.20
1999-07-01 00:00:00+00      165.60
1999-08-01 00:00:00+00      170.80
1999-09-01 00:00:00+00      135.70
1999-10-01 00:00:00+00      164.80
1999-11-01 00:00:00+00      191.50
1999-12-01 00:00:00+00      169.80
2000-01-01 00:00:00+00      158.10
2000-02-01 00:00:00+00      173.20
2000-03-01 00:00:00+00      208.20
2000-04-01 00:00:00+00      184.20
2000-05-01 00:00:00+00      184.50
2000-06-01 00:00:00+00      179.80
2000-07-01 00:00:00+00      204.70
2000-08-01 00:00:00+00      163.10
2000-09-01 00:00:00+00      182.10
2000-10-01 00:00:00+00      167.70
2000-11-01 00:00:00+00      178.80
2000-12-01 00:00:00+00      173.60
2001-01-01 00:00:00+00      166.60
2001-02-01 00:00:00+00      146.70
2001-03-01 00:00:00+00      177.70
2001-04-01 00:00:00+00      178.10
2001-05-01 00:00:00+00      147.90
2001-06-01 00:00:00+00      173.70
2001-07-01 00:00:00+00      131.30
2001-08-01 00:00:00+00      163.10
2001-09-01 00:00:00+00      233.80
2001-10-01 00:00:00+00      208.10
2001-11-01 00:00:00+00      212.70
2001-12-01 00:00:00+00      235.60
2002-01-01 00:00:00+00      227.30
2002-02-01 00:00:00+00      205.00
2002-03-01 00:00:00+00      180.30
2002-04-01 00:00:00+00      189.80
2002-05-01 00:00:00+00      178.40
2002-06-01 00:00:00+00      148.70
2002-07-01 00:00:00+00      175.00
2002-08-01 00:00:00+00      183.90
2002-09-01 00:00:00+00      175.80
2002-10-01 00:00:00+00      167.00
2002-11-01 00:00:00+00      168.70
2002-12-01 00:00:00+00      157.20
2003-01-01 00:00:00+00      144.00
2003-02-01 00:00:00+00      124.50
2003-03-01 00:00:00+00      132.20
2003-04-01 00:00:00+00      126.30
2003-05-01 00:00:00+00      116.20
2003-06-01 00:00:00+00      129.30
2003-07-01 00:00:00+00      127.70
2003-08-01 00:00:00+00      122.10
2003-09-01 00:00:00+00      112.20
2003-10-01 00:00:00+00      151.30
2003-11-01 00:00:00+00      140.80
2003-12-01 00:00:00+00      115.00
2004-01-01 00:00:00+00      114.10
2004-02-01 00:00:00+00      107.00
2004-03-01 00:00:00+00      112.00
2004-04-01 00:00:00+00      101.20
2004-05-01 00:00:00+00       99.80
2004-06-01 00:00:00+00       97.40
2004-07-01 00:00:00+00      118.50
2004-08-01 00:00:00+00      110.00
2004-09-01 00:00:00+00      103.00
2004-10-01 00:00:00+00      105.90
2004-11-01 00:00:00+00      113.70
2004-12-01 00:00:00+00       95.00
2005-01-01 00:00:00+00      102.30
2005-02-01 00:00:00+00       97.20
2005-03-01 00:00:00+00       89.90
2005-04-01 00:00:00+00       86.00
2005-05-01 00:00:00+00       99.50
2005-06-01 00:00:00+00       93.70
2005-07-01 00:00:00+00       96.50
2005-08-01 00:00:00+00       90.50
2005-09-01 00:00:00+00       91.10
2005-10-01 00:00:00+00       76.70
2005-11-01 00:00:00+00       86.80
2005-12-01 00:00:00+00       90.80
2006-01-01 00:00:00+00       83.40
2006-02-01 00:00:00+00       76.50
2006-03-01 00:00:00+00       75.50
2006-04-01 00:00:00+00       89.00
2006-05-01 00:00:00+00       80.90
2006-06-01 00:00:00+00       76.50
2006-07-01 00:00:00+00       75.80
2006-08-01 00:00:00+00       79.40
2006-09-01 00:00:00+00       77.80
2006-10-01 00:00:00+00       74.30
2006-11-01 00:00:00+00       86.30
2006-12-01 00:00:00+00       84.50
2007-01-01 00:00:00+00       83.50
2007-02-01 00:00:00+00       77.70
2007-03-01 00:00:00+00       72.20
2007-04-01 00:00:00+00       72.40
2007-05-01 00:00:00+00       74.40
2007-06-01 00:00:00+00       73.70
2007-07-01 00:00:00+00       71.60
2007-08-01 00:00:00+00       69.10
2007-09-01 00:00:00+00       67.10
2007-10-01 00:00:00+00       67.50
2007-11-01 00:00:00+00       69.60
2007-12-01 00:00:00+00       78.50
2008-01-01 00:00:00+00       74.30
2008-02-01 00:00:00+00       71.10
2008-03-01 00:00:00+00       72.90
2008-04-01 00:00:00+00       70.30
2008-05-01 00:00:00+00       68.40
2008-06-01 00:00:00+00       65.90
2008-07-01 00:00:00+00       65.70
2008-08-01 00:00:00+00       66.30
2008-09-01 00:00:00+00       67.20
2008-10-01 00:00:00+00       68.30
2008-11-01 00:00:00+00       68.60
2008-12-01 00:00:00+00       69.20
2009-01-01 00:00:00+00       69.80
2009-02-01 00:00:00+00       70.00
2009-03-01 00:00:00+00       69.20
2009-04-01 00:00:00+00       69.80
2009-05-01 00:00:00+00       70.50
2009-06-01 00:00:00+00       68.60
2009-07-01 00:00:00+00       68.20
2009-08-01 00:00:00+00       67.30
2009-09-01 00:00:00+00       70.50
2009-10-01 00:00:00+00       72.30
2009-11-01 00:00:00+00       73.60
2009-12-01 00:00:00+00       76.80
2010-01-01 00:00:00+00       81.10
2010-02-01 00:00:00+00       84.70
2010-03-01 00:00:00+00       83.40
2010-04-01 00:00:00+00       75.90
2010-05-01 00:00:00+00       73.80
2010-06-01 00:00:00+00       72.50
2010-07-01 00:00:00+00       79.80
2010-08-01 00:00:00+00       79.50
2010-09-01 00:00:00+00       81.10
2010-10-01 00:00:00+00       81.70
2010-11-01 00:00:00+00       82.50
2010-12-01 00:00:00+00       84.20
2011-01-01 00:00:00+00       83.70
2011-02-01 00:00:00+00       91.70
2011-03-01 00:00:00+00      115.90
2011-04-01 00:00:00+00      112.60
2011-05-01 00:00:00+00       95.80
2011-06-01 00:00:00+00       95.80
2011-07-01 00:00:00+00       94.10
2011-08-01 00:00:00+00      101.80
2011-09-01 00:00:00+00      134.50
2011-10-01 00:00:00+00      137.30
2011-11-01 00:00:00+00      153.20
2011-12-01 00:00:00+00      141.30
2012-01-01 00:00:00+00      132.60
2012-02-01 00:00:00+00      106.40
2012-03-01 00:00:00+00      114.40
2012-04-01 00:00:00+00      113.00
2012-05-01 00:00:00+00      121.20
2012-06-01 00:00:00+00      119.80
2012-07-01 00:00:00+00      132.90
2012-08-01 00:00:00+00      115.30
2012-09-01 00:00:00+00      123.00
2012-10-01 00:00:00+00      122.90
2012-11-01 00:00:00+00      121.00
2012-12-01 00:00:00+00      108.40
2013-01-01 00:00:00+00      126.70
2013-02-01 00:00:00+00      104.20
2013-03-01 00:00:00+00      111.30
2013-04-01 00:00:00+00      124.70
2013-05-01 00:00:00+00      131.10
2013-06-01 00:00:00+00      110.20
2013-07-01 00:00:00+00      115.30
2013-08-01 00:00:00+00      114.60
2013-09-01 00:00:00+00      102.60
2013-10-01 00:00:00+00      132.10
2013-11-01 00:00:00+00      148.20
2013-12-01 00:00:00+00      147.70
2014-01-01 00:00:00+00      156.80
2014-02-01 00:00:00+00      170.00
2014-03-01 00:00:00+00      149.60
2014-04-01 00:00:00+00      143.60
2014-05-01 00:00:00+00      129.70
2014-06-01 00:00:00+00      121.30
2014-07-01 00:00:00+00      137.30
2014-08-01 00:00:00+00      124.70
2014-09-01 00:00:00+00      145.90
2014-10-01 00:00:00+00      153.70
2014-11-01 00:00:00+00      154.80
2014-12-01 00:00:00+00      158.30
2015-01-01 00:00:00+00      141.50
2015-02-01 00:00:00+00      128.80
2015-03-01 00:00:00+00      125.50
2015-04-01 00:00:00+00      128.80
2015-05-01 00:00:00+00      119.50
2015-06-01 00:00:00+00      122.00
2015-07-01 00:00:00+00      106.80
2015-08-01 00:00:00+00      105.00
2015-09-01 00:00:00+00      101.10
2015-10-01 00:00:00+00      103.30
2015-11-01 00:00:00+00      109.20
2015-12-01 00:00:00+00      111.90
2016-01-01 00:00:00+00      103.50
2016-02-01 00:00:00+00      103.60
2016-03-01 00:00:00+00       91.50
2016-04-01 00:00:00+00       93.40
2016-05-01 00:00:00+00       92.80
2016-06-01 00:00:00+00       81.70
2016-07-01 00:00:00+00       85.50
2016-08-01 00:00:00+00       84.70
2016-09-01 00:00:00+00       87.30
2016-10-01 00:00:00+00       86.10
2016-11-01 00:00:00+00       78.50
2016-12-01 00:00:00+00       75.10
2017-01-01 00:00:00+00       77.30
2017-02-01 00:00:00+00       76.90
2017-03-01 00:00:00+00       74.60
2017-04-01 00:00:00+00       80.20
2017-05-01 00:00:00+00       73.50
2017-06-01 00:00:00+00       74.70
2017-07-01 00:00:00+00       77.20
2017-08-01 00:00:00+00       73.20
2017-09-01 00:00:00+00       75.70
2017-10-01 00:00:00+00       75.10
