1950     19.6630      19.663      19.664      0.0010     19.6635
1951     19.6770      19.677      19.678      0.0010     19.6775
1952     19.6900      19.690      19.691      0.0010     19.6905
1953     19.7040      19.704      19.705      0.0010     19.7045
1954     19.7170      19.717      19.718      0.0010     19.7170
1955     19.7250      19.725      19.726      0.0010     19.7255
1956     19.7270      19.727      19.728      0.0010     19.7270
1957     19.7290      19.729      19.730      0.0010     19.7295
1958     19.7320      19.732      19.733      0.0010     19.7325
1959     19.7340      19.734      19.735      0.0010     19.7340
1960     19.7370      19.737      19.738      0.0010     19.7370
1961     19.7410      19.741      19.742      0.0010     19.7410
1962     19.7460      19.746      19.747      0.0010     19.7465
1963     19.7500      19.750      19.751      0.0010     19.7505
1964     19.7540      19.754      19.755      0.0010     19.7545
1965     19.7540      19.754      19.755      0.0010     19.7545
1966     19.7480      19.748      19.749      0.0010     19.7480
1967     19.7420      19.742      19.743      0.0010     19.7425
1968     19.7360      19.736      19.737      0.0010     19.7365
1969     19.7300      19.730      19.731      0.0010     19.7300
1970     19.7220      19.722      19.723      0.0010     19.7225
1971     19.7090      19.709      19.710      0.0010     19.7095
1972     19.6970      19.697      19.698      0.0010     19.6975
1973     19.6850      19.685      19.686      0.0010     19.6850
1974     19.6730      19.673      19.674      0.0010     19.6735
1975     19.6570      19.657      19.658      0.0010     19.6570
1976     19.6380      19.638      19.639      0.0010     19.6385
1977     19.6190      19.619      19.620      0.0010     19.6190
1978     19.6000      19.600      19.601      0.0010     19.6005
1979     19.5810      19.581      19.582      0.0010     19.5810
1980     19.5570      19.557      19.558      0.0010     19.5570
1981     19.5290      19.529      19.530      0.0010     19.5290
1982     19.5000      19.500      19.501      0.0010     19.5005
1983     19.4720      19.472      19.473      0.0010     19.4725
1984     19.4440      19.444      19.445      0.0010     19.4445
1985     19.4220      19.422      19.423      0.0010     19.4225
1986     19.4080      19.408      19.409      0.0010     19.4085
1987     19.3950      19.395      19.396      0.0010     19.3955
1988     19.3810      19.381      19.382      0.0010     19.3815
1989     19.3670      19.367      19.368      0.0010     19.3675
1990     19.3590      19.359      19.360      0.0010     19.3590
1991     19.3570      19.357      19.358      0.0010     19.3575
1992     19.3550      19.355      19.356      0.0010     19.3550
1993     19.3530      19.353      19.354      0.0010     19.3535
1994     19.3510      19.351      19.352      0.0010     19.3515
1995     19.3450      19.345      19.346      0.0010     19.3450
1996     19.3340      19.334      19.335      0.0010     19.3345
1997     19.3230      19.323      19.324      0.0010     19.3235
1998     19.3120      19.312      19.313      0.0010     19.3125
1999     19.3010      19.301      19.302      0.0010     19.3015
2000     19.2890      19.289      19.290      0.0010     19.2890
2001     19.2760      19.276      19.277      0.0010     19.2760
2002     19.2630      19.263      19.264      0.0010     19.2635
2003     19.2500      19.250      19.251      0.0010     19.2505
2004     19.2370      19.237      19.238      0.0010     19.2370
2005     19.2210      19.221      19.222      0.0010     19.2215
2006     19.2010      19.201      19.202      0.0010     19.2015
2007     19.1810      19.181      19.182      0.0010     19.1815
2008     19.1610      19.161      19.162      0.0010     19.1610
2009     19.1420      19.142      19.143      0.0010     19.1425
2010     19.1230      19.123      19.124      0.0010     19.1230
2011     19.1050      19.105      19.106      0.0010     19.1050
2012     19.0880      19.088      19.089      0.0010     19.0880
2013     19.0700      19.070      19.071      0.0010     19.0705
2014     19.0530      19.053      19.054      0.0010     19.0530
2015     19.0360      19.036      19.037      0.0010     19.0360
2016     19.0210      19.021      19.022      0.0010     19.0215
2017     19.0060      19.006      19.007      0.0010     19.0065
2018     18.9900      18.990      18.991      0.0010     18.9905
2019     18.9750      18.975      18.976      0.0010     18.9755
2020     18.9600      18.960      18.961      0.0010     18.9600
2021     18.9440      18.944      18.945      0.0010     18.9445
2022     18.9290      18.929      18.930      0.0010     18.9295
2023     18.9140      18.914      18.915      0.0010     18.9140
2024     18.8990      18.899      18.900      0.0010     18.8995
2025     18.8840      18.884      18.885      0.0010     18.8845
2026     18.8680      18.868      18.869      0.0010     18.8685
2027     18.8530      18.853      18.854      0.0010     18.8535
2028     18.8380      18.838      18.839      0.0010     18.8380
2029     18.8230      18.823      18.824      0.0010     18.8235
2030     18.8080      18.808      18.809      0.0010     18.8085
2031     18.7930      18.793      18.794      0.0010     18.7930
2032     18.7780      18.778      18.779      0.0010     18.7785
2033     18.7630      18.763      18.764      0.0010     18.7635
2034     18.7480      18.642      18.748      0.1060     18.7470
2035     18.7330      18.628      18.734      0.1060     18.7320
2036     18.7190      18.615      18.719      0.1040     18.7180
2037     18.7040      18.704      18.705      0.0010     18.7045
2038     18.6890      18.689      18.690      0.0010     18.6890
2039     18.6740      18.674      18.675      0.0010     18.6745
2040     18.6600      18.660      18.661      0.0010     18.6605
2041     18.6450      18.645      18.646      0.0010     18.6455
2042     18.6300      18.630      18.631      0.0010     18.6300
2043     18.6170      18.617      18.618      0.0010     18.6175
2044     18.6010      18.601      18.602      0.0010     18.6015
2045     18.5880      18.588      18.589      0.0010     18.5880
2046     18.5730      18.573      18.574      0.0010     18.5735
2047     18.5590      18.559      18.560      0.0010     18.5595
2048     18.5440      18.544      18.545      0.0010     18.5445
2049     18.5300      18.530      18.531      0.0010     18.5305
2050     18.5160      18.516      18.517      0.0010     18.5165
