1950     10.6960      10.105      12.214      2.1090     10.6950
1951     10.6550      10.071      12.174      2.1030     10.6540
1952     10.6240      10.040      12.133      2.0930     10.6230
1953     10.5980      10.010      12.093      2.0830     10.5970
1954     10.5660       9.978      12.053      2.0750     10.5650
1955     10.5360       9.946      12.004      2.0580     10.5350
1956     10.4960       9.910      11.946      2.0360     10.4950
1957     10.4650       9.881      11.889      2.0080     10.4640
1958     10.4300       9.850      11.831      1.9810     10.4290
1959     10.3920       9.818      11.773      1.9550     10.3910
1960     10.3580       9.625      11.719      2.0940     10.3570
1961     10.3170       9.589      11.671      2.0820     10.3160
1962     10.2810       9.551      11.622      2.0710     10.2800
1963     10.2440       9.515      11.573      2.0580     10.2430
1964     10.2050       9.479      11.524      2.0450     10.2040
1965     10.1690       9.445      11.471      2.0260     10.1680
1966     10.1550       9.416      11.460      2.0440     10.1540
1967     10.1390       9.388      11.409      2.0210     10.1380
1968     10.1030       9.359      11.355      1.9960     10.1020
1969     10.0880       9.481      11.299      1.8180     10.0870
1970     10.0670       9.303      11.242      1.9390     10.0660
1971     10.0410       9.261      11.184      1.9230     10.0400
1972     10.0080       9.235      11.124      1.8890     10.0070
1973      9.9990       9.358      11.063      1.7050      9.9980
1974     10.0110       9.323      11.146      1.8230     10.0100
1975      9.9740       9.301      11.107      1.8060      9.9730
1976      9.9860       9.276      11.061      1.7850      9.9850
1977      9.9500       9.105      11.014      1.9090      9.9490
1978      9.9520       9.224      10.966      1.7420      9.9510
1979      9.9610       9.055      10.917      1.8620      9.9600
1980      9.9950       9.034      10.867      1.8330      9.9940
1981     10.0610       9.006      10.817      1.8110     10.0600
1982     10.1340       8.908      10.764      1.8560     10.1330
1983      9.9440       8.885      10.713      1.8280      9.9430
1984      9.7350       8.845      10.660      1.8150      9.7340
1985      9.6270       8.817      10.606      1.7890      9.6260
1986      9.6020       8.791      10.559      1.7680      9.6010
1987      9.6000       8.772      10.509      1.7370      9.5990
1988      9.5960       8.672      10.458      1.7860      9.5950
1989      9.5750       8.725      10.405      1.6800      9.5740
1990      9.5330       8.703      10.353      1.6500      9.5320
1991      9.5220       8.612      10.634      2.0220      9.5210
1992      9.4710       8.644      10.593      1.9490      9.4700
1993      9.3740       8.627      10.195      1.5680      9.3730
1994      9.2190       8.558      10.139      1.5810      9.2180
1995      9.1090       8.543      10.079      1.5360      9.1080
1996      8.9610       8.515      10.013      1.4980      8.9600
1997      8.8610       8.511      10.379      1.8680      8.8600
1998      8.8440       8.498       9.872      1.3740      8.8430
1999      8.8920       8.480      10.082      1.6020      8.8910
2000      8.8570       8.461      10.047      1.5860      8.8560
2001      8.9220       8.451      10.010      1.5590      8.9210
2002      8.8120       8.441       9.966      1.5250      8.8110
2003      8.6950       8.413       9.932      1.5190      8.6940
2004      8.6690       8.418       9.886      1.4680      8.6680
2005      8.5880       8.394      10.037      1.6430      8.5870
2006      8.5160       8.385       9.990      1.6050      8.5150
2007      8.6620       8.376       9.944      1.5680      8.6610
2008      8.4320       8.364       9.896      1.5320      8.4310
2009      8.4360       8.359       9.849      1.4900      8.4350
2010      8.4090       8.349       9.800      1.4510      8.4080
2011      8.3970       8.336       9.750      1.4140      8.3960
2012      8.4060       8.325       9.698      1.3730      8.4050
2013      8.3770       8.314       9.647      1.3330      8.3760
2014      8.3800       8.313       9.594      1.2810      8.3790
2015      8.3410       8.287       9.543      1.2560      8.3400
2016      8.3340       8.270       9.492      1.2220      8.3330
2017      8.3030       8.252       9.441      1.1890      8.3020
2018      8.2780       8.233       9.328      1.0950      8.2770
2019      8.2660       8.211       9.288      1.0770      8.2650
2020      8.2400       8.185       9.285      1.1000      8.2390
2021      8.2100       6.299       9.232      2.9330      8.2090
2022      8.1770       8.129       9.179      1.0500      8.1760
2023      8.1440       8.097       9.073      0.9760      8.1430
2024      8.0990       8.062       9.071      1.0090      8.0980
2025      8.0630       8.025       8.967      0.9420      8.0620
2026      8.0190       6.192       8.804      2.6120      8.0180
2027      7.9850       7.944       8.860      0.9160      7.9840
2028      7.9280       5.991       8.849      2.8580      7.9270
2029      7.8790       7.852       8.748      0.8960      7.8780
2030      7.8250       7.803       8.735      0.9320      7.8240
2031      7.7760       7.751       8.677      0.9260      7.7750
2032      7.7230       7.697       8.618      0.9210      7.7220
2033      7.6610       6.027       8.525      2.4980      7.6600
2034      7.6090       7.583       8.466      0.8830      7.6080
2035      7.5440       7.522       8.436      0.9140      7.5430
2036      7.4840       7.460       8.374      0.9140      7.4830
2037      7.4190       7.396       8.281      0.8850      7.4180
2038      7.3810       7.349       8.248      0.8990      7.3800
2039      7.3250       7.265       8.185      0.9200      7.3240
2040      7.2650       5.806       8.119      2.3130      7.2640
2041      7.1990       5.949       8.052      2.1030      7.1980
2042      7.1440       7.091       7.986      0.8950      7.1430
2043      7.0780       5.554       7.916      2.3620      7.0770
2044      7.0350       5.761       7.846      2.0850      7.0340
2045      6.9750       5.780       7.777      1.9970      6.9740
2046      6.9070       5.345       7.705      2.3600      6.9060
2047      6.8350       6.778       7.630      0.8520      6.8340
2048      6.7810       6.715       7.557      0.8420      6.7800
2049      6.7070       5.426       7.481      2.0550      6.7060
2050      6.6540       6.589       7.403      0.8140      6.6530
