1950      9.1960       8.752       9.461      0.7090      9.1950
1951      9.1670       8.727       9.442      0.7150      9.1660
1952      9.1530       8.689       9.422      0.7330      9.1520
1953      9.1230       8.685       9.403      0.7180      9.1220
1954      9.1100       8.638       9.383      0.7450      9.1090
1955      9.0760       8.610       9.362      0.7520      9.0750
1956      9.0580       8.581       9.338      0.7570      9.0570
1957      9.0260       8.555       9.314      0.7590      9.0250
1958      9.0030       8.529       9.290      0.7610      9.0020
1959      8.9780       8.503       9.266      0.7630      8.9770
1960      8.9480       8.478       9.243      0.7650      8.9470
1961      8.9240       8.445       9.221      0.7760      8.9230
1962      8.9100       8.420       9.199      0.7790      8.9090
1963      8.8820       8.394       9.177      0.7830      8.8810
1964      8.8560       8.372       9.155      0.7830      8.8550
1965      8.8530       8.346       9.132      0.7860      8.8520
1966      8.8060       8.318       9.107      0.7890      8.8050
1967      8.7770       8.294       9.082      0.7880      8.7760
1968      8.7520       8.260       9.057      0.7970      8.7510
1969      8.7240       8.233       9.032      0.7990      8.7230
1970      8.6970       8.206       9.007      0.8010      8.6960
1971      8.6760       8.179       8.981      0.8020      8.6750
1972      8.6430       8.149       8.956      0.8070      8.6420
1973      8.6350       8.122       8.930      0.8080      8.6340
1974      8.6000       8.093       8.905      0.8120      8.5990
1975      8.5670       8.066       8.879      0.8130      8.5660
1976      8.5260       8.037       8.855      0.8180      8.5250
1977      8.4990       8.009       8.829      0.8200      8.4980
1978      8.4810       7.981       8.804      0.8230      8.4800
1979      8.4500       7.955       8.779      0.8240      8.4490
1980      8.4090       7.925       8.752      0.8270      8.4080
1981      8.3870       7.897       8.725      0.8280      8.3860
1982      8.3490       7.865       8.697      0.8320      8.3480
1983      8.3220       7.837       8.670      0.8330      8.3210
1984      8.2860       7.800       8.641      0.8410      8.2850
1985      8.2530       7.777       8.615      0.8380      8.2520
1986      8.2190       7.744       8.589      0.8450      8.2180
1987      8.1970       7.712       8.563      0.8510      8.1960
1988      8.1620       7.683       8.538      0.8550      8.1610
1989      8.1280       7.656       8.511      0.8550      8.1270
1990      8.1050       7.626       8.487      0.8610      8.1040
1991      8.0750       7.599       8.462      0.8630      8.0740
1992      8.0420       7.574       8.437      0.8630      8.0410
1993      8.0170       7.547       8.413      0.8660      8.0160
1994      7.9740       7.516       8.388      0.8720      7.9730
1995      7.9710       7.483       8.364      0.8810      7.9700
1996      7.9370       7.454       8.338      0.8840      7.9360
1997      7.9060       7.432       8.311      0.8790      7.9050
1998      7.8610       7.402       8.285      0.8830      7.8600
1999      7.8600       7.379       8.260      0.8810      7.8590
2000      7.8100       7.337       8.234      0.8970      7.8090
2001      7.7780       7.321       8.210      0.8890      7.7770
2002      7.7660       7.277       8.185      0.9080      7.7650
2003      7.7440       7.249       8.161      0.9120      7.7430
2004      7.6970       7.221       8.136      0.9150      7.6960
2005      7.6680       7.193       8.111      0.9180      7.6670
2006      7.6450       7.159       8.085      0.9260      7.6440
2007      7.6150       7.130       8.060      0.9300      7.6140
2008      7.5970       7.105       8.034      0.9290      7.5960
2009      7.5490       7.093       8.008      0.9150      7.5480
2010      7.5340       7.041       7.981      0.9400      7.5330
2011      7.4880       7.008       7.952      0.9440      7.4870
2012      7.4550       6.965       7.923      0.9580      7.4540
2013      7.4210       6.947       7.894      0.9470      7.4200
2014      7.3960       6.931       7.866      0.9350      7.3950
2015      7.3570       6.907       7.837      0.9300      7.3560
2016      7.3360       6.867       7.810      0.9430      7.3350
2017      7.2990       6.802       7.782      0.9800      7.2980
2018      7.2610       6.783       7.754      0.9710      7.2600
2019      7.2280       6.764       7.722      0.9580      7.2270
2020      7.2130       6.742       7.699      0.9570      7.2120
2021      7.1830       6.661       7.672      1.0110      7.1820
2022      7.1330       6.619       7.643      1.0240      7.1320
2023      7.1030       6.642       7.616      0.9740      7.1020
2024      7.0880       6.602       7.587      0.9850      7.0870
2025      7.0370       6.541       7.551      1.0100      7.0360
2026      7.0080       6.485       7.531      1.0460      7.0070
2027      6.9890       6.497       7.503      1.0060      6.9880
2028      6.9690       6.407       7.476      1.0690      6.9680
2029      6.9190       6.388       7.448      1.0600      6.9180
2030      6.8780       6.328       7.411      1.0830      6.8770
2031      6.8310       6.293       7.383      1.0900      6.8300
2032      6.8040       6.323       7.363      1.0400      6.8030
2033      6.7750       6.303       7.335      1.0320      6.7740
2034      6.7490       6.185       7.306      1.1210      6.7480
2035      6.7100       6.149       7.279      1.1300      6.7090
2036      6.6900       6.089       7.250      1.1610      6.6890
2037      6.6420       6.078       7.221      1.1430      6.6410
2038      6.6130       6.116       7.185      1.0690      6.6120
2039      6.5820       5.999       7.155      1.1560      6.5810
2040      6.5620       5.992       7.131      1.1390      6.5610
2041      6.5240       5.876       7.098      1.2220      6.5230
2042      6.4650       5.879       7.074      1.1950      6.4640
2043      6.4310       5.813       7.050      1.2370      6.4300
2044      6.4070       5.740       7.013      1.2730      6.4060
2045      6.3600       5.697       6.988      1.2910      6.3590
2046      6.3380       5.698       6.954      1.2560      6.3370
2047      6.3180       5.607       6.935      1.3280      6.3170
2048      6.2600       5.586       6.898      1.3120      6.2590
2049      6.2360       5.522       6.879      1.3570      6.2350
2050      6.1910       5.608       6.840      1.2320      6.1900
