1950     11.3240       9.644      11.443      1.7990     11.3230
1951     11.3360       9.019      11.453      2.4340     11.3350
1952     11.3520       9.664      11.464      1.8000     11.3510
1953     11.3600       9.674      11.474      1.8000     11.3590
1954     11.3710       9.684      11.484      1.8000     11.3700
1955     11.3800       9.691      11.490      1.7990     11.3790
1956     11.3830       9.694      11.492      1.7980     11.3820
1957     11.3860       9.697      11.494      1.7970     11.3850
1958     11.3920       9.699      11.496      1.7970     11.3910
1959     11.3940       9.702      11.498      1.7960     11.3930
1960     11.4010       9.706      11.500      1.7940     11.4000
1961     11.4030       9.709      11.502      1.7930     11.4020
1962     11.4100       9.713      11.507      1.7940     11.4090
1963     11.4150       9.716      11.511      1.7950     11.4140
1964     11.4190       9.720      11.514      1.7940     11.4180
1965     11.4210       9.722      11.516      1.7940     11.4200
1966     11.4220       9.723      11.515      1.7920     11.4210
1967     11.4250       9.723      11.515      1.7920     11.4240
1968     11.4270       9.724      11.513      1.7890     11.4260
1969     11.4270       9.727      11.514      1.7870     11.4260
1970     11.4280       9.732      11.513      1.7810     11.4270
1971     11.4310       9.755      11.511      1.7560     11.4300
1972     11.4310       9.756      11.509      1.7530     11.4300
1973     11.4320      10.444      11.507      1.0630     11.4310
1974     11.4330      10.443      11.505      1.0620     11.4320
1975     11.4360      10.445      11.506      1.0610     11.4350
1976     11.4440      10.449      11.510      1.0610     11.4430
1977     11.4480      10.454      11.513      1.0590     11.4470
1978     11.4550      10.458      11.517      1.0590     11.4540
1979     11.4580      10.463      11.521      1.0580     11.4570
1980     11.4580      10.462      11.519      1.0570     11.4570
1981     11.4510      10.456      11.512      1.0560     11.4500
1982     11.4470      10.450      11.505      1.0550     11.4460
1983     11.4390      10.445      11.497      1.0520     11.4380
1984     11.4330      10.439      11.490      1.0510     11.4320
1985     11.4260      10.430      11.481      1.0510     11.4250
1986     11.4130      10.418      11.467      1.0490     11.4120
1987     11.4000      10.406      11.454      1.0480     11.3990
1988     11.3840      10.393      11.442      1.0490     11.3830
1989     11.3700      10.381      11.429      1.0480     11.3690
1990     11.3570      10.367      11.414      1.0470     11.3560
1991     11.3340      10.350      11.397      1.0470     11.3330
1992     11.3170      10.333      11.380      1.0470     11.3160
1993     11.3010       8.925      11.363      2.4380     11.3000
1994     11.2830      10.299      11.345      1.0460     11.2820
1995     11.2600       8.892      11.328      2.4360     11.2590
1996     11.2410      10.264      11.309      1.0450     11.2400
1997     11.2210      10.245      11.291      1.0460     11.2200
1998     11.2020       8.840      11.272      2.4320     11.2010
1999     11.1770       8.823      11.254      2.4310     11.1760
2000     11.1670       8.809      11.239      2.4300     11.1660
2001     11.1560       8.799      11.229      2.4300     11.1550
2002     11.1460       8.789      11.218      2.4290     11.1450
2003     11.1330       8.615      11.207      2.5920     11.1330
2004     11.1180       8.769      11.196      2.4270     11.1170
2005     11.1100       8.593      11.184      2.5910     11.1090
2006     11.0930       8.580      11.170      2.5900     11.0930
2007     11.0810       8.566      11.157      2.5910     11.0800
2008     11.0680       8.553      11.143      2.5900     11.0680
2009     11.0540      10.085      11.129      1.0440     11.0530
2010     11.0370       8.526      11.114      2.5880     11.0360
2011     11.0280      10.057      11.101      1.0440     11.0270
2012     11.0140      10.043      11.086      1.0430     11.0130
2013     11.0000       8.484      11.071      2.5870     10.9990
2014     10.9860       8.470      11.057      2.5870     10.9860
2015     10.9750       8.623      11.044      2.4210     10.9740
2016     10.9710       9.991      11.032      1.0410     10.9700
2017     10.9570       8.600      11.020      2.4200     10.9560
2018     10.9460       8.589      11.008      2.4190     10.9450
2019     10.9370       9.958      10.997      1.0390     10.9360
2020     10.9240       9.947      10.985      1.0380     10.9230
2021     10.9150       8.552      10.973      2.4210     10.9140
2022     10.9020       9.925      10.961      1.0360     10.9010
2023     10.8880       9.914      10.950      1.0360     10.8870
2024     10.8760       9.902      10.937      1.0350     10.8750
2025     10.8660       9.891      10.926      1.0350     10.8650
2026     10.8580       9.880      10.915      1.0350     10.8570
2027     10.8480       9.869      10.903      1.0340     10.8470
2028     10.8320       8.474      10.891      2.4170     10.8310
2029     10.8210       9.847      10.880      1.0330     10.8200
2030     10.8110       9.836      10.868      1.0320     10.8100
2031     10.7970       8.440      10.856      2.4160     10.7960
2032     10.7860       8.428      10.845      2.4170     10.7850
2033     10.7770       9.803      10.833      1.0300     10.7760
2034     10.7660       8.406      10.822      2.4160     10.7650
2035     10.7560       9.782      10.810      1.0280     10.7550
2036     10.7420       9.774      10.799      1.0250     10.7410
2037     10.7330       8.374      10.787      2.4130     10.7320
2038     10.7190       8.361      10.776      2.4150     10.7180
2039     10.7090       8.193      10.764      2.5710     10.7080
2040     10.6980       9.730      10.753      1.0230     10.6970
2041     10.6890       9.720      10.741      1.0210     10.6880
2042     10.6750       8.315      10.730      2.4150     10.6740
2043     10.6640       8.304      10.718      2.4140     10.6630
2044     10.6540       9.687      10.707      1.0200     10.6530
2045     10.6420       9.676      10.695      1.0190     10.6410
2046     10.6310       8.270      10.684      2.4140     10.6300
2047     10.6200       9.654      10.673      1.0190     10.6190
2048     10.6090       8.247      10.661      2.4140     10.6080
2049     10.5970       8.236      10.650      2.4140     10.5960
2050     10.5860       8.224      10.638      2.4140     10.5850
