1950     11.6830      10.512      12.338      1.8260     11.6820    yyyy  RcEff  RS  RH
1951     11.6990      10.532      12.346      1.8140     11.6980
1952     11.7170      10.642      12.355      1.7130     11.7160
1953     11.7270      10.653      12.363      1.7100     11.7260
1954     11.7350      10.663      12.371      1.7080     11.7340
1955     11.7420      10.670      12.376      1.7060     11.7410
1956     11.7490      10.674      12.377      1.7030     11.7480
1957     11.7490      10.678      12.378      1.7000     11.7480
1958     11.7530      10.682      12.379      1.6970     11.7520
1959     11.7560      10.686      12.380      1.6940     11.7550
1960     11.7630      10.690      12.382      1.6920     11.7620
1961     11.7700      10.695      12.385      1.6900     11.7690
1962     11.7790      10.700      12.388      1.6880     11.7780
1963     11.7840      10.704      12.391      1.6870     11.7830
1964     11.7910      10.709      12.393      1.6840     11.7900
1965     11.7990      10.727      12.394      1.6670     11.7980
1966     11.7990      10.726      12.393      1.6670     11.7980
1967     11.8060      10.734      12.392      1.6580     11.8050
1968     11.8130      10.741      12.391      1.6500     11.8120
1969     11.8170      10.749      12.390      1.6410     11.8160
1970     11.8250      10.755      12.388      1.6330     11.8240
1971     11.8300      10.759      12.386      1.6270     11.8290
1972     11.8340      10.763      12.383      1.6200     11.8330
1973     11.8360      10.767      12.380      1.6130     11.8350
1974     11.8390      10.771      12.378      1.6070     11.8380
1975     11.8500      10.780      12.378      1.5980     11.8490
1976     11.8600      10.793      12.380      1.5870     11.8590
1977     11.8780      10.806      12.385      1.5790     11.8770
1978     11.8910      10.819      12.388      1.5690     11.8900
1979     11.9000      10.832      12.391      1.5590     11.8990
1980     11.9050      10.835      12.390      1.5550     11.9040
1981     11.9000      10.829      12.383      1.5540     11.8990
1982     11.8950      10.823      12.377      1.5540     11.8940
1983     11.8880      10.817      12.370      1.5530     11.8870
1984     11.8850      10.810      12.363      1.5530     11.8840
1985     11.8740      10.798      12.354      1.5560     11.8730
1986     11.8510      10.778      12.342      1.5640     11.8500
1987     11.8310      10.757      12.330      1.5730     11.8300
1988     11.8130      10.737      12.317      1.5800     11.8120
1989     11.7890      10.717      12.305      1.5880     11.7880
1990     11.7670      10.691      12.291      1.6000     11.7660
1991     11.7340      10.658      12.276      1.6180     11.7330
1992     11.7070      10.626      12.260      1.6340     11.7060
1993     11.6730      10.593      12.244      1.6510     11.6720
1994     11.6420      10.561      12.228      1.6670     11.6410
1995     11.6110      10.527      12.212      1.6850     11.6100
1996     11.5880      10.500      12.196      1.6960     11.5870
1997     11.5600      10.461      12.179      1.7180     11.5590
1998     11.5370      10.437      12.162      1.7250     11.5360
1999     11.5190      10.412      12.146      1.7340     11.5180
2000     11.4980      10.393      12.132      1.7390     11.4970
2001     11.4890      10.379      12.122      1.7430     11.4880
2002     11.4730      10.364      12.112      1.7480     11.4720
2003     11.4620      10.350      12.102      1.7520     11.4610
2004     11.4490      10.335      12.092      1.7570     11.4480
2005     11.4380      10.320      12.081      1.7610     11.4370
2006     11.4230      10.303      12.069      1.7660     11.4220
2007     11.4130      10.285      12.057      1.7720     11.4120
2008     11.3970      10.268      12.045      1.7770     11.3960
2009     11.3830      10.251      12.034      1.7830     11.3820
2010     11.3620      10.117      12.022      1.9050     11.3610
2011     11.3490      10.100      12.010      1.9100     11.3480
2012     11.3320      10.082      11.999      1.9170     11.3310
2013     11.3260      10.065      11.987      1.9220     11.3250
2014     11.3130      10.047      11.975      1.9280     11.3120
2015     11.3050      10.032      11.965      1.9330     11.3040
2016     11.2990      10.020      11.956      1.9360     11.2980
2017     11.2950      10.008      11.947      1.9390     11.2940
2018     11.2870       9.994      11.938      1.9440     11.2860
2019     11.2780       9.980      11.929      1.9490     11.2770
2020     11.2690      10.087      11.920      1.8330     11.2680
2021     11.2620      10.074      11.910      1.8360     11.2610
2022     11.2510      10.061      11.901      1.8400     11.2500
2023     11.2400      10.047      11.892      1.8450     11.2390
2024     11.2310      10.034      11.883      1.8490     11.2300
2025     11.2290      10.021      11.874      1.8530     11.2280
2026     11.2200      10.008      11.865      1.8570     11.2190
2027     11.2050       9.994      11.856      1.8620     11.2040
2028     11.1950       9.981      11.846      1.8650     11.1940
2029     11.1870       9.967      11.837      1.8700     11.1860
2030     11.1810       9.954      11.828      1.8740     11.1800
2031     11.1680       9.940      11.819      1.8790     11.1670
2032     11.1590       9.927      11.810      1.8830     11.1580
2033     11.1500       9.913      11.800      1.8870     11.1490
2034     11.1420       9.899      11.791      1.8920     11.1410
2035     11.1320       9.886      11.782      1.8960     11.1310
2036     11.1200       9.872      11.773      1.9010     11.1190
2037     11.1130       9.858      11.763      1.9050     11.1120
2038     11.1090       9.844      11.754      1.9100     11.1080
2039     11.0960       9.830      11.745      1.9150     11.0950
2040     11.0850       8.003      11.735      3.7320     11.0840
2041     11.0780       9.802      11.726      1.9240     11.0770
2042     11.0710       9.788      11.717      1.9290     11.0700
2043     11.0610       9.773      11.707      1.9340     11.0600
2044     11.0510       9.759      11.698      1.9390     11.0500
2045     11.0420       9.745      11.689      1.9440     11.0410
2046     11.0350       9.731      11.679      1.9480     11.0340
2047     11.0270       9.716      11.670      1.9540     11.0260
2048     11.0170       9.702      11.660      1.9580     11.0160
2049     11.0100       9.687      11.651      1.9640     11.0090
2050     11.0030       9.673      11.640      1.9670     11.0020
