1950-01-01 00:00:00+00      0.0000
1950-02-01 00:00:00+00      0.0000
1950-03-01 00:00:00+00      0.0000
1950-04-01 00:00:00+00      0.0000
1950-05-01 00:00:00+00      0.0000
1950-06-01 00:00:00+00      0.0000
1950-07-01 00:00:00+00      0.0000
1950-08-01 00:00:00+00      0.0000
1950-09-01 00:00:00+00      0.0000
1950-10-01 00:00:00+00      0.0000
1950-11-01 00:00:00+00      0.0000
1950-12-01 00:00:00+00      0.0000
1951-01-01 00:00:00+00      0.0000
1951-02-01 00:00:00+00      0.0000
1951-03-01 00:00:00+00      0.0000
1951-04-01 00:00:00+00      0.0000
1951-05-01 00:00:00+00      0.0000
1951-06-01 00:00:00+00      0.0000
1951-07-01 00:00:00+00      0.0000
1951-08-01 00:00:00+00      0.0000
1951-09-01 00:00:00+00      0.0000
1951-10-01 00:00:00+00      0.0000
1951-11-01 00:00:00+00      0.0000
1951-12-01 00:00:00+00      0.0000
1952-01-01 00:00:00+00      0.0000
1952-02-01 00:00:00+00      0.0000
1952-03-01 00:00:00+00      0.0000
1952-04-01 00:00:00+00      0.0000
1952-05-01 00:00:00+00      0.0000
1952-06-01 00:00:00+00      0.0000
1952-07-01 00:00:00+00      0.0000
1952-08-01 00:00:00+00      0.0000
1952-09-01 00:00:00+00      0.0000
1952-10-01 00:00:00+00      0.0000
1952-11-01 00:00:00+00      0.0000
1952-12-01 00:00:00+00      0.0000
1953-01-01 00:00:00+00      0.0000
1953-02-01 00:00:00+00      0.0000
1953-03-01 00:00:00+00      0.0000
1953-04-01 00:00:00+00      0.0000
1953-05-01 00:00:00+00      0.0000
1953-06-01 00:00:00+00      0.0000
1953-07-01 00:00:00+00      0.0000
1953-08-01 00:00:00+00      0.0000
1953-09-01 00:00:00+00      0.0000
1953-10-01 00:00:00+00      0.0000
1953-11-01 00:00:00+00      0.0000
1953-12-01 00:00:00+00      0.0000
1954-01-01 00:00:00+00      0.0000
1954-02-01 00:00:00+00      0.0000
1954-03-01 00:00:00+00      0.0000
1954-04-01 00:00:00+00      0.0000
1954-05-01 00:00:00+00      0.0000
1954-06-01 00:00:00+00      0.0000
1954-07-01 00:00:00+00      0.0000
1954-08-01 00:00:00+00      0.0000
1954-09-01 00:00:00+00      0.0000
1954-10-01 00:00:00+00      0.0000
1954-11-01 00:00:00+00      0.0000
1954-12-01 00:00:00+00      0.0000
1955-01-01 00:00:00+00      0.0000
1955-02-01 00:00:00+00      0.0000
1955-03-01 00:00:00+00      0.0000
1955-04-01 00:00:00+00      0.0000
1955-05-01 00:00:00+00      0.0000
1955-06-01 00:00:00+00      0.0000
1955-07-01 00:00:00+00      0.0000
1955-08-01 00:00:00+00      0.0000
1955-09-01 00:00:00+00      0.0000
1955-10-01 00:00:00+00      0.0000
1955-11-01 00:00:00+00      0.0000
1955-12-01 00:00:00+00      0.0000
1956-01-01 00:00:00+00      0.0000
1956-02-01 00:00:00+00      0.0000
1956-03-01 00:00:00+00      0.0000
1956-04-01 00:00:00+00      0.0000
1956-05-01 00:00:00+00      0.0000
1956-06-01 00:00:00+00      0.0000
1956-07-01 00:00:00+00      0.0000
1956-08-01 00:00:00+00      0.0000
1956-09-01 00:00:00+00      0.0000
1956-10-01 00:00:00+00      0.0000
1956-11-01 00:00:00+00      0.0000
1956-12-01 00:00:00+00      0.0000
1957-01-01 00:00:00+00      0.0000
1957-02-01 00:00:00+00      0.0000
1957-03-01 00:00:00+00      0.0000
1957-04-01 00:00:00+00      0.0000
1957-05-01 00:00:00+00      0.0000
1957-06-01 00:00:00+00      0.0000
1957-07-01 00:00:00+00      0.0000
1957-08-01 00:00:00+00      0.0000
1957-09-01 00:00:00+00      0.0000
1957-10-01 00:00:00+00      0.0000
1957-11-01 00:00:00+00      0.0000
1957-12-01 00:00:00+00      0.0000
1958-01-01 00:00:00+00      0.0000
1958-02-01 00:00:00+00      0.0000
1958-03-01 00:00:00+00      0.0000
1958-04-01 00:00:00+00      0.0000
1958-05-01 00:00:00+00      0.0000
1958-06-01 00:00:00+00      0.0000
1958-07-01 00:00:00+00      0.0000
1958-08-01 00:00:00+00      0.0000
1958-09-01 00:00:00+00      0.0000
1958-10-01 00:00:00+00      0.0000
1958-11-01 00:00:00+00      0.0000
1958-12-01 00:00:00+00      0.0000
1959-01-01 00:00:00+00      0.0000
1959-02-01 00:00:00+00      0.0000
1959-03-01 00:00:00+00      0.0000
1959-04-01 00:00:00+00      0.0000
1959-05-01 00:00:00+00      0.0000
1959-06-01 00:00:00+00      0.0000
1959-07-01 00:00:00+00      0.0000
1959-08-01 00:00:00+00      0.0000
1959-09-01 00:00:00+00      0.0000
1959-10-01 00:00:00+00      0.0000
1959-11-01 00:00:00+00      0.0000
1959-12-01 00:00:00+00      0.0000
1960-01-01 00:00:00+00      0.0000
1960-02-01 00:00:00+00      0.0000
1960-03-01 00:00:00+00      0.0000
1960-04-01 00:00:00+00      0.0000
1960-05-01 00:00:00+00      0.0000
1960-06-01 00:00:00+00      0.0000
1960-07-01 00:00:00+00      0.0000
1960-08-01 00:00:00+00      0.0000
1960-09-01 00:00:00+00      0.0000
1960-10-01 00:00:00+00      0.0000
1960-11-01 00:00:00+00      0.0000
1960-12-01 00:00:00+00      0.0000
1961-01-01 00:00:00+00      0.0000
1961-02-01 00:00:00+00      0.0000
1961-03-01 00:00:00+00      0.0000
1961-04-01 00:00:00+00      0.0000
1961-05-01 00:00:00+00      0.0000
1961-06-01 00:00:00+00      0.0000
1961-07-01 00:00:00+00      0.0000
1961-08-01 00:00:00+00      0.0000
1961-09-01 00:00:00+00      0.0000
1961-10-01 00:00:00+00      0.0000
1961-11-01 00:00:00+00      0.0000
1961-12-01 00:00:00+00      0.0000
1962-01-01 00:00:00+00      0.0000
1962-02-01 00:00:00+00      0.0000
1962-03-01 00:00:00+00      0.0000
1962-04-01 00:00:00+00      0.0000
1962-05-01 00:00:00+00      0.0000
1962-06-01 00:00:00+00      0.0000
1962-07-01 00:00:00+00      0.0000
1962-08-01 00:00:00+00      0.0000
1962-09-01 00:00:00+00      0.0000
1962-10-01 00:00:00+00      0.0000
1962-11-01 00:00:00+00      0.0000
1962-12-01 00:00:00+00      0.0000
1963-01-01 00:00:00+00      0.0000
1963-02-01 00:00:00+00      0.0000
1963-03-01 00:00:00+00      0.0000
1963-04-01 00:00:00+00      0.0000
1963-05-01 00:00:00+00      0.0000
1963-06-01 00:00:00+00      0.0000
1963-07-01 00:00:00+00      0.0000
1963-08-01 00:00:00+00      0.0000
1963-09-01 00:00:00+00      0.0000
1963-10-01 00:00:00+00      0.0000
1963-11-01 00:00:00+00      0.0000
1963-12-01 00:00:00+00      0.0000
1964-01-01 00:00:00+00    314.8167
1964-02-01 00:00:00+00    315.2333
1964-03-01 00:00:00+00    316.9000
1964-04-01 00:00:00+00    317.7667
1964-05-01 00:00:00+00    318.5667
1964-06-01 00:00:00+00    319.5833
1964-07-01 00:00:00+00    319.5667
1964-08-01 00:00:00+00    320.9167
1964-09-01 00:00:00+00    320.7667
1964-10-01 00:00:00+00    321.3000
1964-11-01 00:00:00+00    324.8000
1964-12-01 00:00:00+00    332.6500
1965-01-01 00:00:00+00    327.8000
1965-02-01 00:00:00+00    324.7500
1965-03-01 00:00:00+00    327.8833
1965-04-01 00:00:00+00    330.5833
1965-05-01 00:00:00+00    330.6500
1965-06-01 00:00:00+00    324.6167
1965-07-01 00:00:00+00    322.0667
1965-08-01 00:00:00+00    321.0667
1965-09-01 00:00:00+00    322.2833
1965-10-01 00:00:00+00    322.5500
1965-11-01 00:00:00+00    324.0333
1965-12-01 00:00:00+00    325.6500
1966-01-01 00:00:00+00    322.1167
1966-02-01 00:00:00+00    322.5833
1966-03-01 00:00:00+00    319.6167
1966-04-01 00:00:00+00    317.6000
1966-05-01 00:00:00+00    319.1000
1966-06-01 00:00:00+00    314.6500
1966-07-01 00:00:00+00    311.5667
1966-08-01 00:00:00+00    312.1667
1966-09-01 00:00:00+00    299.7333
1966-10-01 00:00:00+00    307.5167
1966-11-01 00:00:00+00    309.7500
1966-12-01 00:00:00+00    306.8833
1967-01-01 00:00:00+00    303.6500
1967-02-01 00:00:00+00    300.9667
1967-03-01 00:00:00+00    306.1167
1967-04-01 00:00:00+00    306.9667
1967-05-01 00:00:00+00    302.5000
1967-06-01 00:00:00+00    300.4667
1967-07-01 00:00:00+00    303.8500
1967-08-01 00:00:00+00    301.0333
1967-09-01 00:00:00+00    300.7500
1967-10-01 00:00:00+00    302.0333
1967-11-01 00:00:00+00    297.7167
1967-12-01 00:00:00+00    297.7833
1968-01-01 00:00:00+00    299.6500
1968-02-01 00:00:00+00    298.9167
1968-03-01 00:00:00+00    298.4833
1968-04-01 00:00:00+00    299.9667
1968-05-01 00:00:00+00    297.2167
1968-06-01 00:00:00+00    291.4500
1968-07-01 00:00:00+00    291.0000
1968-08-01 00:00:00+00    291.9000
1968-09-01 00:00:00+00    288.8167
1968-10-01 00:00:00+00    284.9500
1968-11-01 00:00:00+00    277.1000
1968-12-01 00:00:00+00    279.8333
1969-01-01 00:00:00+00    287.7000
1969-02-01 00:00:00+00    288.9667
1969-03-01 00:00:00+00    288.8000
1969-04-01 00:00:00+00    288.0167
1969-05-01 00:00:00+00    279.6167
1969-06-01 00:00:00+00    275.8167
1969-07-01 00:00:00+00    278.9167
1969-08-01 00:00:00+00    283.4333
1969-09-01 00:00:00+00    286.4167
1969-10-01 00:00:00+00    286.9833
1969-11-01 00:00:00+00    286.9667
1969-12-01 00:00:00+00    288.4167
1970-01-01 00:00:00+00    288.3333
1970-02-01 00:00:00+00    291.7667
1970-03-01 00:00:00+00    290.3833
1970-04-01 00:00:00+00    286.8500
1970-05-01 00:00:00+00    287.4000
1970-06-01 00:00:00+00    280.2167
1970-07-01 00:00:00+00    280.3667
1970-08-01 00:00:00+00    284.5333
1970-09-01 00:00:00+00    289.9167
1970-10-01 00:00:00+00    291.6833
1970-11-01 00:00:00+00    286.2667
1970-12-01 00:00:00+00    294.3000
1971-01-01 00:00:00+00    294.0333
1971-02-01 00:00:00+00    301.0000
1971-03-01 00:00:00+00    302.2000
1971-04-01 00:00:00+00    303.8000
1971-05-01 00:00:00+00    305.9333
1971-06-01 00:00:00+00    312.0333
1971-07-01 00:00:00+00    313.6333
1971-08-01 00:00:00+00    315.3000
1971-09-01 00:00:00+00    315.1333
1971-10-01 00:00:00+00    317.8000
1971-11-01 00:00:00+00    319.0667
1971-12-01 00:00:00+00    318.5333
1972-01-01 00:00:00+00    316.3667
1972-02-01 00:00:00+00    317.0833
1972-03-01 00:00:00+00    321.1333
1972-04-01 00:00:00+00    324.8000
1972-05-01 00:00:00+00    322.5833
1972-06-01 00:00:00+00    314.8500
1972-07-01 00:00:00+00    321.3167
1972-08-01 00:00:00+00    305.3167
1972-09-01 00:00:00+00    318.7833
1972-10-01 00:00:00+00    321.9000
1972-11-01 00:00:00+00    320.2333
1972-12-01 00:00:00+00    320.7667
1973-01-01 00:00:00+00    322.0167
1973-02-01 00:00:00+00    320.7000
1973-03-01 00:00:00+00    319.4000
1973-04-01 00:00:00+00    312.5000
1973-05-01 00:00:00+00    308.3167
1973-06-01 00:00:00+00    317.1167
1973-07-01 00:00:00+00    321.3167
1973-08-01 00:00:00+00    322.7500
1973-09-01 00:00:00+00    326.2167
1973-10-01 00:00:00+00    326.9000
1973-11-01 00:00:00+00    327.0833
1973-12-01 00:00:00+00    328.0333
1974-01-01 00:00:00+00    330.3000
1974-02-01 00:00:00+00    330.8500
1974-03-01 00:00:00+00    327.7333
1974-04-01 00:00:00+00    326.3667
1974-05-01 00:00:00+00    319.6833
1974-06-01 00:00:00+00    315.9500
1974-07-01 00:00:00+00    312.8000
1974-08-01 00:00:00+00    318.3500
1974-09-01 00:00:00+00    313.1333
1974-10-01 00:00:00+00    313.4333
1974-11-01 00:00:00+00    315.0833
1974-12-01 00:00:00+00    317.5667
1975-01-01 00:00:00+00    317.8000
1975-02-01 00:00:00+00    322.6333
1975-03-01 00:00:00+00    320.3000
1975-04-01 00:00:00+00    319.5667
1975-05-01 00:00:00+00    319.5000
1975-06-01 00:00:00+00    319.9500
1975-07-01 00:00:00+00    320.6667
1975-08-01 00:00:00+00    319.7333
1975-09-01 00:00:00+00    321.5500
1975-10-01 00:00:00+00    321.4333
1975-11-01 00:00:00+00    317.8167
1975-12-01 00:00:00+00    318.9167
1976-01-01 00:00:00+00    319.8000
1976-02-01 00:00:00+00    321.0500
1976-03-01 00:00:00+00    320.4167
1976-04-01 00:00:00+00    317.6333
1976-05-01 00:00:00+00    319.9333
1976-06-01 00:00:00+00    319.9333
1976-07-01 00:00:00+00    320.8667
1976-08-01 00:00:00+00    320.6500
1976-09-01 00:00:00+00    320.7667
1976-10-01 00:00:00+00    322.0833
1976-11-01 00:00:00+00    322.0500
1976-12-01 00:00:00+00    320.4667
1977-01-01 00:00:00+00    320.8500
1977-02-01 00:00:00+00    321.6167
1977-03-01 00:00:00+00    321.9167
1977-04-01 00:00:00+00    322.4333
1977-05-01 00:00:00+00    320.1000
1977-06-01 00:00:00+00    320.0500
1977-07-01 00:00:00+00    315.2833
1977-08-01 00:00:00+00    316.4333
1977-09-01 00:00:00+00    318.3333
1977-10-01 00:00:00+00    319.8833
1977-11-01 00:00:00+00    323.6000
1977-12-01 00:00:00+00    323.8333
1978-01-01 00:00:00+00    312.7333
1978-02-01 00:00:00+00    312.8333
1978-03-01 00:00:00+00    315.6333
1978-04-01 00:00:00+00    309.0167
1978-05-01 00:00:00+00    301.2500
1978-06-01 00:00:00+00    295.2667
1978-07-01 00:00:00+00    304.7833
1978-08-01 00:00:00+00    311.7500
1978-09-01 00:00:00+00    312.4000
1978-10-01 00:00:00+00    306.4000
1978-11-01 00:00:00+00    308.6667
1978-12-01 00:00:00+00    308.1333
1979-01-01 00:00:00+00    305.1333
1979-02-01 00:00:00+00    302.3667
1979-03-01 00:00:00+00    298.5500
1979-04-01 00:00:00+00    291.2667
1979-05-01 00:00:00+00    294.0667
1979-06-01 00:00:00+00    287.6833
1979-07-01 00:00:00+00    288.1667
1979-08-01 00:00:00+00    280.4667
1979-09-01 00:00:00+00    282.3500
1979-10-01 00:00:00+00    287.8833
1979-11-01 00:00:00+00    288.5000
1979-12-01 00:00:00+00    295.0167
1980-01-01 00:00:00+00    293.9167
1980-02-01 00:00:00+00    291.5333
1980-03-01 00:00:00+00    293.7000
1980-04-01 00:00:00+00    289.9667
1980-05-01 00:00:00+00    293.1500
1980-06-01 00:00:00+00    283.5167
1980-07-01 00:00:00+00    283.3500
1980-08-01 00:00:00+00    285.3833
1980-09-01 00:00:00+00    284.6167
1980-10-01 00:00:00+00    278.9167
1980-11-01 00:00:00+00    274.6667
1980-12-01 00:00:00+00    273.1000
1981-01-01 00:00:00+00    280.4333
1981-02-01 00:00:00+00    275.7833
1981-03-01 00:00:00+00    275.0667
1981-04-01 00:00:00+00    271.8000
1981-05-01 00:00:00+00    273.2667
1981-06-01 00:00:00+00    278.3833
1981-07-01 00:00:00+00    280.2833
1981-08-01 00:00:00+00    279.9500
1981-09-01 00:00:00+00    284.3333
1981-10-01 00:00:00+00    273.7500
1981-11-01 00:00:00+00    273.8000
1981-12-01 00:00:00+00    282.0833
1982-01-01 00:00:00+00    285.2500
1982-02-01 00:00:00+00    277.3333
1982-03-01 00:00:00+00    283.5667
1982-04-01 00:00:00+00    285.0500
1982-05-01 00:00:00+00    289.5500
1982-06-01 00:00:00+00    272.5333
1982-07-01 00:00:00+00    260.3167
1982-08-01 00:00:00+00    266.3000
1982-09-01 00:00:00+00    255.6333
1982-10-01 00:00:00+00    266.8667
1982-11-01 00:00:00+00    269.4500
1982-12-01 00:00:00+00    261.1500
1983-01-01 00:00:00+00    271.0500
1983-02-01 00:00:00+00    273.1667
1983-03-01 00:00:00+00    280.2833
1983-04-01 00:00:00+00    280.9167
1983-05-01 00:00:00+00    271.6167
1983-06-01 00:00:00+00    278.4500
1983-07-01 00:00:00+00    284.6667
1983-08-01 00:00:00+00    294.0167
1983-09-01 00:00:00+00    285.2500
1983-10-01 00:00:00+00    285.3833
1983-11-01 00:00:00+00    287.1500
1983-12-01 00:00:00+00    287.3667
1984-01-01 00:00:00+00    292.9500
1984-02-01 00:00:00+00    291.6833
1984-03-01 00:00:00+00    286.8667
1984-04-01 00:00:00+00    284.0833
1984-05-01 00:00:00+00    276.7333
1984-06-01 00:00:00+00    281.2000
1984-07-01 00:00:00+00    284.0167
1984-08-01 00:00:00+00    287.5167
1984-09-01 00:00:00+00    289.9500
1984-10-01 00:00:00+00    291.2667
1984-11-01 00:00:00+00    289.8333
1984-12-01 00:00:00+00    292.0833
1985-01-01 00:00:00+00    297.8167
1985-02-01 00:00:00+00    305.4833
1985-03-01 00:00:00+00    306.7000
1985-04-01 00:00:00+00    308.6500
1985-05-01 00:00:00+00    311.0000
1985-06-01 00:00:00+00    314.8833
1985-07-01 00:00:00+00    313.6833
1985-08-01 00:00:00+00    314.3000
1985-09-01 00:00:00+00    317.7167
1985-10-01 00:00:00+00    318.9167
1985-11-01 00:00:00+00    321.3333
1985-12-01 00:00:00+00    319.7500
1986-01-01 00:00:00+00    313.8000
1986-02-01 00:00:00+00    300.4000
1986-03-01 00:00:00+00    305.0333
1986-04-01 00:00:00+00    312.3500
1986-05-01 00:00:00+00    312.4833
1986-06-01 00:00:00+00    313.1667
1986-07-01 00:00:00+00    312.1333
1986-08-01 00:00:00+00    312.5667
1986-09-01 00:00:00+00    312.1000
1986-10-01 00:00:00+00    316.6000
1986-11-01 00:00:00+00    312.9167
1986-12-01 00:00:00+00    317.9333
1987-01-01 00:00:00+00    326.8167
1987-02-01 00:00:00+00    330.3500
1987-03-01 00:00:00+00    329.8833
1987-04-01 00:00:00+00    327.0667
1987-05-01 00:00:00+00    324.2000
1987-06-01 00:00:00+00    323.3167
1987-07-01 00:00:00+00    319.3833
1987-08-01 00:00:00+00    316.2000
1987-09-01 00:00:00+00    314.2500
1987-10-01 00:00:00+00    315.9833
1987-11-01 00:00:00+00    312.0167
1987-12-01 00:00:00+00    313.4500
1988-01-01 00:00:00+00    302.4333
1988-02-01 00:00:00+00    304.8333
1988-03-01 00:00:00+00    305.7667
1988-04-01 00:00:00+00    303.4000
1988-05-01 00:00:00+00    303.9167
1988-06-01 00:00:00+00    301.9667
1988-07-01 00:00:00+00    296.9667
1988-08-01 00:00:00+00    295.9167
1988-09-01 00:00:00+00    297.2167
1988-10-01 00:00:00+00    295.5500
1988-11-01 00:00:00+00    294.4500
1988-12-01 00:00:00+00    288.6333
1989-01-01 00:00:00+00    279.3000
1989-02-01 00:00:00+00    280.8000
1989-03-01 00:00:00+00    265.0667
1989-04-01 00:00:00+00    267.4167
1989-05-01 00:00:00+00    261.4333
1989-06-01 00:00:00+00    261.9333
1989-07-01 00:00:00+00    269.9833
1989-08-01 00:00:00+00    263.7833
1989-09-01 00:00:00+00    260.4500
1989-10-01 00:00:00+00    253.8667
1989-11-01 00:00:00+00    248.9667
1989-12-01 00:00:00+00    256.2000
1990-01-01 00:00:00+00    259.3000
1990-02-01 00:00:00+00    262.9667
1990-03-01 00:00:00+00    259.7833
1990-04-01 00:00:00+00    251.4833
1990-05-01 00:00:00+00    249.0333
1990-06-01 00:00:00+00    248.2333
1990-07-01 00:00:00+00    257.2167
1990-08-01 00:00:00+00    253.9333
1990-09-01 00:00:00+00    261.2167
1990-10-01 00:00:00+00    267.6667
1990-11-01 00:00:00+00    272.3833
1990-12-01 00:00:00+00    274.3833
1991-01-01 00:00:00+00    277.6333
1991-02-01 00:00:00+00    277.1000
1991-03-01 00:00:00+00    257.6000
1991-04-01 00:00:00+00    260.4167
1991-05-01 00:00:00+00    260.5667
1991-06-01 00:00:00+00    228.1000
1991-07-01 00:00:00+00    229.9833
1991-08-01 00:00:00+00    244.4000
1991-09-01 00:00:00+00    258.3333
1991-10-01 00:00:00+00    262.9500
1991-11-01 00:00:00+00    264.4000
1991-12-01 00:00:00+00    270.9667
1992-01-01 00:00:00+00    273.5000
1992-02-01 00:00:00+00    270.1000
1992-03-01 00:00:00+00    276.5500
1992-04-01 00:00:00+00    284.8000
1992-05-01 00:00:00+00    281.7667
1992-06-01 00:00:00+00    286.9500
1992-07-01 00:00:00+00    291.9000
1992-08-01 00:00:00+00    291.9167
1992-09-01 00:00:00+00    290.4000
1992-10-01 00:00:00+00    296.4167
1992-11-01 00:00:00+00    292.7000
1992-12-01 00:00:00+00    300.1167
1993-01-01 00:00:00+00    301.0000
1993-02-01 00:00:00+00    298.8167
1993-03-01 00:00:00+00    295.0000
1993-04-01 00:00:00+00    299.7333
1993-05-01 00:00:00+00    300.9833
1993-06-01 00:00:00+00    305.5000
1993-07-01 00:00:00+00    305.8500
1993-08-01 00:00:00+00    305.4833
1993-09-01 00:00:00+00    308.7333
1993-10-01 00:00:00+00    310.4333
1993-11-01 00:00:00+00    308.2500
1993-12-01 00:00:00+00    307.6667
1994-01-01 00:00:00+00    309.0667
1994-02-01 00:00:00+00    304.5500
1994-03-01 00:00:00+00    303.7833
1994-04-01 00:00:00+00    302.3500
1994-05-01 00:00:00+00    303.4500
1994-06-01 00:00:00+00    303.4667
1994-07-01 00:00:00+00    305.8000
1994-08-01 00:00:00+00    307.3167
1994-09-01 00:00:00+00    310.8667
1994-10-01 00:00:00+00    310.3167
1994-11-01 00:00:00+00    311.3000
1994-12-01 00:00:00+00    311.7500
1995-01-01 00:00:00+00    314.6833
1995-02-01 00:00:00+00    315.9500
1995-03-01 00:00:00+00    313.8667
1995-04-01 00:00:00+00    314.7500
1995-05-01 00:00:00+00    314.5667
1995-06-01 00:00:00+00    314.0167
1995-07-01 00:00:00+00    315.1167
1995-08-01 00:00:00+00    316.5500
1995-09-01 00:00:00+00    315.7833
1995-10-01 00:00:00+00    316.8667
1995-11-01 00:00:00+00    317.4333
1995-12-01 00:00:00+00    319.0667
1996-01-01 00:00:00+00    318.7833
1996-02-01 00:00:00+00    319.8500
1996-03-01 00:00:00+00    320.1333
1996-04-01 00:00:00+00    320.0167
1996-05-01 00:00:00+00    318.6000
1996-06-01 00:00:00+00    317.8167
1996-07-01 00:00:00+00    317.3000
1996-08-01 00:00:00+00    317.2667
1996-09-01 00:00:00+00    317.5500
1996-10-01 00:00:00+00    315.6500
1996-11-01 00:00:00+00    316.5667
1996-12-01 00:00:00+00    316.6833
1997-01-01 00:00:00+00    321.1833
1997-02-01 00:00:00+00    319.4667
1997-03-01 00:00:00+00    319.8333
1997-04-01 00:00:00+00    319.1000
1997-05-01 00:00:00+00    322.1667
1997-06-01 00:00:00+00    320.9500
1997-07-01 00:00:00+00    320.9667
1997-08-01 00:00:00+00    321.8000
1997-09-01 00:00:00+00    321.0167
1997-10-01 00:00:00+00    320.1333
1997-11-01 00:00:00+00    315.8167
1997-12-01 00:00:00+00    320.1667
1998-01-01 00:00:00+00    320.7833
1998-02-01 00:00:00+00    319.3333
1998-03-01 00:00:00+00    318.0667
1998-04-01 00:00:00+00    310.2500
1998-05-01 00:00:00+00    306.7833
1998-06-01 00:00:00+00    309.2500
1998-07-01 00:00:00+00    310.7000
1998-08-01 00:00:00+00    307.8500
1998-09-01 00:00:00+00    312.1333
1998-10-01 00:00:00+00    316.1333
1998-11-01 00:00:00+00    313.1667
1998-12-01 00:00:00+00    311.1833
1999-01-01 00:00:00+00    305.3167
1999-02-01 00:00:00+00    305.0333
1999-03-01 00:00:00+00    305.9667
1999-04-01 00:00:00+00    306.9167
1999-05-01 00:00:00+00    305.4333
1999-06-01 00:00:00+00    308.0833
1999-07-01 00:00:00+00    309.5333
1999-08-01 00:00:00+00    301.4667
1999-09-01 00:00:00+00    295.6667
1999-10-01 00:00:00+00    292.9333
1999-11-01 00:00:00+00    291.3000
1999-12-01 00:00:00+00    290.2500
2000-01-01 00:00:00+00    291.7500
2000-02-01 00:00:00+00    286.9000
2000-03-01 00:00:00+00    283.5833
2000-04-01 00:00:00+00    284.4000
2000-05-01 00:00:00+00    281.6833
2000-06-01 00:00:00+00    275.2500
2000-07-01 00:00:00+00    267.7167
2000-08-01 00:00:00+00    271.2500
2000-09-01 00:00:00+00    275.7833
2000-10-01 00:00:00+00    284.8167
2000-11-01 00:00:00+00    277.7833
2000-12-01 00:00:00+00    280.2667
2001-01-01 00:00:00+00    280.8167
2001-02-01 00:00:00+00    287.9500
2001-03-01 00:00:00+00    291.7333
2001-04-01 00:00:00+00    276.0000
2001-05-01 00:00:00+00    282.9833
2001-06-01 00:00:00+00    284.1333
2001-07-01 00:00:00+00    285.6500
2001-08-01 00:00:00+00    280.1333
2001-09-01 00:00:00+00    280.3333
2001-10-01 00:00:00+00    275.9333
2001-11-01 00:00:00+00    281.7500
2001-12-01 00:00:00+00    283.0167
2002-01-01 00:00:00+00    277.5833
2002-02-01 00:00:00+00    286.8333
2002-03-01 00:00:00+00    282.2333
2002-04-01 00:00:00+00    282.1000
2002-05-01 00:00:00+00    281.4500
2002-06-01 00:00:00+00    283.3167
2002-07-01 00:00:00+00    278.4000
2002-08-01 00:00:00+00    271.5333
2002-09-01 00:00:00+00    276.5000
2002-10-01 00:00:00+00    279.4667
2002-11-01 00:00:00+00    274.5667
2002-12-01 00:00:00+00    277.9333
2003-01-01 00:00:00+00    281.9167
2003-02-01 00:00:00+00    281.4500
2003-03-01 00:00:00+00    281.9333
2003-04-01 00:00:00+00    279.0833
2003-05-01 00:00:00+00    277.9000
2003-06-01 00:00:00+00    270.7667
2003-07-01 00:00:00+00    276.0500
2003-08-01 00:00:00+00    278.4167
2003-09-01 00:00:00+00    281.4333
2003-10-01 00:00:00+00    276.8333
2003-11-01 00:00:00+00    257.3167
2003-12-01 00:00:00+00    278.8667
2004-01-01 00:00:00+00    279.4500
2004-02-01 00:00:00+00    288.3500
2004-03-01 00:00:00+00    294.1667
2004-04-01 00:00:00+00    294.3333
2004-05-01 00:00:00+00    294.4833
2004-06-01 00:00:00+00    295.1667
2004-07-01 00:00:00+00    289.7500
2004-08-01 00:00:00+00    291.6667
2004-09-01 00:00:00+00    294.7000
2004-10-01 00:00:00+00    300.5167
2004-11-01 00:00:00+00    293.2833
2004-12-01 00:00:00+00    296.2833
2005-01-01 00:00:00+00    283.7167
2005-02-01 00:00:00+00    292.6500
2005-03-01 00:00:00+00    295.0833
2005-04-01 00:00:00+00    298.3333
2005-05-01 00:00:00+00    290.7167
2005-06-01 00:00:00+00    295.8667
2005-07-01 00:00:00+00    294.7333
2005-08-01 00:00:00+00    291.2333
2005-09-01 00:00:00+00    283.3500
2005-10-01 00:00:00+00    298.3833
2005-11-01 00:00:00+00    302.0333
2005-12-01 00:00:00+00    302.8667
2006-01-01 00:00:00+00    304.3833
2006-02-01 00:00:00+00    309.0000
2006-03-01 00:00:00+00    310.7167
2006-04-01 00:00:00+00    311.5833
2006-05-01 00:00:00+00    312.4833
2006-06-01 00:00:00+00    312.5333
2006-07-01 00:00:00+00    311.2833
2006-08-01 00:00:00+00    311.0833
2006-09-01 00:00:00+00    311.4667
2006-10-01 00:00:00+00    314.3500
2006-11-01 00:00:00+00    313.5000
2006-12-01 00:00:00+00    307.9667
2007-01-01 00:00:00+00    315.3000
2007-02-01 00:00:00+00    313.7500
2007-03-01 00:00:00+00    315.8333
2007-04-01 00:00:00+00    318.5500
2007-05-01 00:00:00+00    319.1000
2007-06-01 00:00:00+00    318.9667
2007-07-01 00:00:00+00    319.4000
2007-08-01 00:00:00+00    318.9667
2007-09-01 00:00:00+00    319.8500
2007-10-01 00:00:00+00    320.2500
2007-11-01 00:00:00+00    319.9667
2007-12-01 00:00:00+00    321.7500
2008-01-01 00:00:00+00    320.1500
2008-02-01 00:00:00+00    319.4667
2008-03-01 00:00:00+00    319.7000
2008-04-01 00:00:00+00    319.4833
2008-05-01 00:00:00+00    317.9000
2008-06-01 00:00:00+00    318.2833
2008-07-01 00:00:00+00    319.6333
2008-08-01 00:00:00+00    321.7833
2008-09-01 00:00:00+00    322.6667
2008-10-01 00:00:00+00    323.9500
2008-11-01 00:00:00+00    324.0167
2008-12-01 00:00:00+00    322.5833
2009-01-01 00:00:00+00    317.9667
2009-02-01 00:00:00+00    321.7667
2009-03-01 00:00:00+00    334.2167
2009-04-01 00:00:00+00    342.0000
2009-05-01 00:00:00+00    342.6833
2009-06-01 00:00:00+00    342.4000
2009-07-01 00:00:00+00    342.0000
2009-08-01 00:00:00+00    341.3667
2009-09-01 00:00:00+00    341.7000
2009-10-01 00:00:00+00    342.7833
2009-11-01 00:00:00+00    343.0500
2009-12-01 00:00:00+00    343.2833
2010-01-01 00:00:00+00      0.0000
2010-02-01 00:00:00+00      0.0000
2010-03-01 00:00:00+00      0.0000
2010-04-01 00:00:00+00      0.0000
2010-05-01 00:00:00+00      0.0000
2010-06-01 00:00:00+00      0.0000
2010-07-01 00:00:00+00      0.0000
2010-08-01 00:00:00+00      0.0000
2010-09-01 00:00:00+00      0.0000
2010-10-01 00:00:00+00      0.0000
2010-11-01 00:00:00+00      0.0000
2010-12-01 00:00:00+00      0.0000
2011-01-01 00:00:00+00      0.0000
2011-02-01 00:00:00+00      0.0000
2011-03-01 00:00:00+00      0.0000
2011-04-01 00:00:00+00      0.0000
2011-05-01 00:00:00+00      0.0000
2011-06-01 00:00:00+00      0.0000
2011-07-01 00:00:00+00      0.0000
2011-08-01 00:00:00+00      0.0000
2011-09-01 00:00:00+00      0.0000
2011-10-01 00:00:00+00      0.0000
2011-11-01 00:00:00+00      0.0000
2011-12-01 00:00:00+00      0.0000
2012-01-01 00:00:00+00      0.0000
2012-02-01 00:00:00+00      0.0000
2012-03-01 00:00:00+00      0.0000
2012-04-01 00:00:00+00      0.0000
2012-05-01 00:00:00+00      0.0000
2012-06-01 00:00:00+00      0.0000
2012-07-01 00:00:00+00      0.0000
2012-08-01 00:00:00+00      0.0000
2012-09-01 00:00:00+00      0.0000
2012-10-01 00:00:00+00      0.0000
2012-11-01 00:00:00+00      0.0000
2012-12-01 00:00:00+00      0.0000
2013-01-01 00:00:00+00      0.0000
2013-02-01 00:00:00+00      0.0000
2013-03-01 00:00:00+00      0.0000
2013-04-01 00:00:00+00      0.0000
2013-05-01 00:00:00+00      0.0000
2013-06-01 00:00:00+00      0.0000
2013-07-01 00:00:00+00      0.0000
2013-08-01 00:00:00+00      0.0000
2013-09-01 00:00:00+00      0.0000
2013-10-01 00:00:00+00      0.0000
2013-11-01 00:00:00+00      0.0000
2013-12-01 00:00:00+00      0.0000
2014-01-01 00:00:00+00      0.0000
2014-02-01 00:00:00+00      0.0000
2014-03-01 00:00:00+00      0.0000
2014-04-01 00:00:00+00      0.0000
2014-05-01 00:00:00+00      0.0000
2014-06-01 00:00:00+00      0.0000
2014-07-01 00:00:00+00      0.0000
2014-08-01 00:00:00+00      0.0000
2014-09-01 00:00:00+00      0.0000
2014-10-01 00:00:00+00      0.0000
2014-11-01 00:00:00+00    319.4667
2014-12-01 00:00:00+00    307.6333
2015-01-01 00:00:00+00    311.0833
2015-02-01 00:00:00+00    311.9333
2015-03-01 00:00:00+00    306.4667
2015-04-01 00:00:00+00    309.2500
2015-05-01 00:00:00+00    314.0500
2015-06-01 00:00:00+00    312.9833
2015-07-01 00:00:00+00    317.4000
2015-08-01 00:00:00+00    318.1667
2015-09-01 00:00:00+00    318.1167
2015-10-01 00:00:00+00    318.6333
2015-11-01 00:00:00+00    320.8167
2015-12-01 00:00:00+00    321.0833
2016-01-01 00:00:00+00    325.5833
2016-02-01 00:00:00+00    331.8167
2016-03-01 00:00:00+00    331.7833
2016-04-01 00:00:00+00    331.4167
2016-05-01 00:00:00+00    332.4833
2016-06-01 00:00:00+00    333.9167
2016-07-01 00:00:00+00    332.7500
2016-08-01 00:00:00+00    335.2000
2016-09-01 00:00:00+00    335.9167
2016-10-01 00:00:00+00      0.0000
2016-11-01 00:00:00+00      0.0000
2016-12-01 00:00:00+00      0.0000
2017-01-01 00:00:00+00      0.0000
2017-02-01 00:00:00+00      0.0000
2017-03-01 00:00:00+00      0.0000
2017-04-01 00:00:00+00      0.0000
2017-05-01 00:00:00+00      0.0000
2017-06-01 00:00:00+00      0.0000
2017-07-01 00:00:00+00      0.0000
2017-08-01 00:00:00+00      0.0000
2017-09-01 00:00:00+00      0.0000
2017-10-01 00:00:00+00      0.0000
2017-11-01 00:00:00+00      0.0000
2017-12-01 00:00:00+00      0.0000
