1950-01-01 00:00:00+00      0.0000
1950-02-01 00:00:00+00      0.0000
1950-03-01 00:00:00+00      0.0000
1950-04-01 00:00:00+00      0.0000
1950-05-01 00:00:00+00      0.0000
1950-06-01 00:00:00+00      0.0000
1950-07-01 00:00:00+00      0.0000
1950-08-01 00:00:00+00      0.0000
1950-09-01 00:00:00+00      0.0000
1950-10-01 00:00:00+00      0.0000
1950-11-01 00:00:00+00      0.0000
1950-12-01 00:00:00+00      0.0000
1951-01-01 00:00:00+00      0.0000
1951-02-01 00:00:00+00      0.0000
1951-03-01 00:00:00+00      0.0000
1951-04-01 00:00:00+00      0.0000
1951-05-01 00:00:00+00      0.0000
1951-06-01 00:00:00+00      0.0000
1951-07-01 00:00:00+00      0.0000
1951-08-01 00:00:00+00      0.0000
1951-09-01 00:00:00+00      0.0000
1951-10-01 00:00:00+00      0.0000
1951-11-01 00:00:00+00      0.0000
1951-12-01 00:00:00+00      0.0000
1952-01-01 00:00:00+00      0.0000
1952-02-01 00:00:00+00      0.0000
1952-03-01 00:00:00+00      0.0000
1952-04-01 00:00:00+00      0.0000
1952-05-01 00:00:00+00      0.0000
1952-06-01 00:00:00+00      0.0000
1952-07-01 00:00:00+00      0.0000
1952-08-01 00:00:00+00      0.0000
1952-09-01 00:00:00+00      0.0000
1952-10-01 00:00:00+00      0.0000
1952-11-01 00:00:00+00      0.0000
1952-12-01 00:00:00+00      0.0000
1953-01-01 00:00:00+00      0.0000
1953-02-01 00:00:00+00      0.0000
1953-03-01 00:00:00+00      0.0000
1953-04-01 00:00:00+00      0.0000
1953-05-01 00:00:00+00      0.0000
1953-06-01 00:00:00+00      0.0000
1953-07-01 00:00:00+00      0.0000
1953-08-01 00:00:00+00      0.0000
1953-09-01 00:00:00+00      0.0000
1953-10-01 00:00:00+00      0.0000
1953-11-01 00:00:00+00      0.0000
1953-12-01 00:00:00+00      0.0000
1954-01-01 00:00:00+00      0.0000
1954-02-01 00:00:00+00      0.0000
1954-03-01 00:00:00+00      0.0000
1954-04-01 00:00:00+00      0.0000
1954-05-01 00:00:00+00      0.0000
1954-06-01 00:00:00+00      0.0000
1954-07-01 00:00:00+00      0.0000
1954-08-01 00:00:00+00      0.0000
1954-09-01 00:00:00+00      0.0000
1954-10-01 00:00:00+00      0.0000
1954-11-01 00:00:00+00      0.0000
1954-12-01 00:00:00+00      0.0000
1955-01-01 00:00:00+00      0.0000
1955-02-01 00:00:00+00      0.0000
1955-03-01 00:00:00+00      0.0000
1955-04-01 00:00:00+00      0.0000
1955-05-01 00:00:00+00      0.0000
1955-06-01 00:00:00+00      0.0000
1955-07-01 00:00:00+00      0.0000
1955-08-01 00:00:00+00      0.0000
1955-09-01 00:00:00+00      0.0000
1955-10-01 00:00:00+00      0.0000
1955-11-01 00:00:00+00      0.0000
1955-12-01 00:00:00+00      0.0000
1956-01-01 00:00:00+00      0.0000
1956-02-01 00:00:00+00      0.0000
1956-03-01 00:00:00+00      0.0000
1956-04-01 00:00:00+00      0.0000
1956-05-01 00:00:00+00      0.0000
1956-06-01 00:00:00+00      0.0000
1956-07-01 00:00:00+00      0.0000
1956-08-01 00:00:00+00      0.0000
1956-09-01 00:00:00+00      0.0000
1956-10-01 00:00:00+00      0.0000
1956-11-01 00:00:00+00      0.0000
1956-12-01 00:00:00+00      0.0000
1957-01-01 00:00:00+00      0.0000
1957-02-01 00:00:00+00      0.0000
1957-03-01 00:00:00+00      0.0000
1957-04-01 00:00:00+00      0.0000
1957-05-01 00:00:00+00      0.0000
1957-06-01 00:00:00+00      0.0000
1957-07-01 00:00:00+00      0.0000
1957-08-01 00:00:00+00      0.0000
1957-09-01 00:00:00+00      0.0000
1957-10-01 00:00:00+00      0.0000
1957-11-01 00:00:00+00      0.0000
1957-12-01 00:00:00+00      0.0000
1958-01-01 00:00:00+00      0.0000
1958-02-01 00:00:00+00      0.0000
1958-03-01 00:00:00+00      0.0000
1958-04-01 00:00:00+00      0.0000
1958-05-01 00:00:00+00      0.0000
1958-06-01 00:00:00+00      0.0000
1958-07-01 00:00:00+00      0.0000
1958-08-01 00:00:00+00      0.0000
1958-09-01 00:00:00+00      0.0000
1958-10-01 00:00:00+00      0.0000
1958-11-01 00:00:00+00      0.0000
1958-12-01 00:00:00+00      0.0000
1959-01-01 00:00:00+00      0.0000
1959-02-01 00:00:00+00      0.0000
1959-03-01 00:00:00+00      0.0000
1959-04-01 00:00:00+00      0.0000
1959-05-01 00:00:00+00      0.0000
1959-06-01 00:00:00+00      0.0000
1959-07-01 00:00:00+00      0.0000
1959-08-01 00:00:00+00      0.0000
1959-09-01 00:00:00+00      0.0000
1959-10-01 00:00:00+00      0.0000
1959-11-01 00:00:00+00      0.0000
1959-12-01 00:00:00+00      0.0000
1960-01-01 00:00:00+00      0.0000
1960-02-01 00:00:00+00      0.0000
1960-03-01 00:00:00+00      0.0000
1960-04-01 00:00:00+00      0.0000
1960-05-01 00:00:00+00      0.0000
1960-06-01 00:00:00+00      0.0000
1960-07-01 00:00:00+00      0.0000
1960-08-01 00:00:00+00      0.0000
1960-09-01 00:00:00+00      0.0000
1960-10-01 00:00:00+00      0.0000
1960-11-01 00:00:00+00      0.0000
1960-12-01 00:00:00+00      0.0000
1961-01-01 00:00:00+00      0.0000
1961-02-01 00:00:00+00      0.0000
1961-03-01 00:00:00+00      0.0000
1961-04-01 00:00:00+00      0.0000
1961-05-01 00:00:00+00      0.0000
1961-06-01 00:00:00+00      0.0000
1961-07-01 00:00:00+00      0.0000
1961-08-01 00:00:00+00      0.0000
1961-09-01 00:00:00+00      0.0000
1961-10-01 00:00:00+00      0.0000
1961-11-01 00:00:00+00      0.0000
1961-12-01 00:00:00+00      0.0000
1962-01-01 00:00:00+00      0.0000
1962-02-01 00:00:00+00      0.0000
1962-03-01 00:00:00+00      0.0000
1962-04-01 00:00:00+00      0.0000
1962-05-01 00:00:00+00      0.0000
1962-06-01 00:00:00+00      0.0000
1962-07-01 00:00:00+00      0.0000
1962-08-01 00:00:00+00      0.0000
1962-09-01 00:00:00+00      0.0000
1962-10-01 00:00:00+00      0.0000
1962-11-01 00:00:00+00      0.0000
1962-12-01 00:00:00+00      0.0000
1963-01-01 00:00:00+00      0.0000
1963-02-01 00:00:00+00      0.0000
1963-03-01 00:00:00+00      0.0000
1963-04-01 00:00:00+00      0.0000
1963-05-01 00:00:00+00      0.0000
1963-06-01 00:00:00+00      0.0000
1963-07-01 00:00:00+00      0.0000
1963-08-01 00:00:00+00      0.0000
1963-09-01 00:00:00+00      0.0000
1963-10-01 00:00:00+00      0.0000
1963-11-01 00:00:00+00      0.0000
1963-12-01 00:00:00+00      0.0000
1964-01-01 00:00:00+00      0.0000
1964-02-01 00:00:00+00      0.0000
1964-03-01 00:00:00+00      0.0000
1964-04-01 00:00:00+00      0.0000
1964-05-01 00:00:00+00      0.0000
1964-06-01 00:00:00+00      0.0000
1964-07-01 00:00:00+00      0.0000
1964-08-01 00:00:00+00      0.0000
1964-09-01 00:00:00+00      0.0000
1964-10-01 00:00:00+00      0.0000
1964-11-01 00:00:00+00      0.0000
1964-12-01 00:00:00+00      0.0000
1965-01-01 00:00:00+00      0.0000
1965-02-01 00:00:00+00      0.0000
1965-03-01 00:00:00+00      0.0000
1965-04-01 00:00:00+00      0.0000
1965-05-01 00:00:00+00      0.0000
1965-06-01 00:00:00+00      0.0000
1965-07-01 00:00:00+00      0.0000
1965-08-01 00:00:00+00      0.0000
1965-09-01 00:00:00+00      0.0000
1965-10-01 00:00:00+00      0.0000
1965-11-01 00:00:00+00      0.0000
1965-12-01 00:00:00+00      0.0000
1966-01-01 00:00:00+00      0.0000
1966-02-01 00:00:00+00      0.0000
1966-03-01 00:00:00+00      0.0000
1966-04-01 00:00:00+00      0.0000
1966-05-01 00:00:00+00      0.0000
1966-06-01 00:00:00+00      0.0000
1966-07-01 00:00:00+00      0.0000
1966-08-01 00:00:00+00      0.0000
1966-09-01 00:00:00+00      0.0000
1966-10-01 00:00:00+00      0.0000
1966-11-01 00:00:00+00      0.0000
1966-12-01 00:00:00+00      0.0000
1967-01-01 00:00:00+00      0.0000
1967-02-01 00:00:00+00      0.0000
1967-03-01 00:00:00+00      0.0000
1967-04-01 00:00:00+00      0.0000
1967-05-01 00:00:00+00      0.0000
1967-06-01 00:00:00+00      0.0000
1967-07-01 00:00:00+00      0.0000
1967-08-01 00:00:00+00      0.0000
1967-09-01 00:00:00+00      0.0000
1967-10-01 00:00:00+00      0.0000
1967-11-01 00:00:00+00      0.0000
1967-12-01 00:00:00+00      0.0000
1968-01-01 00:00:00+00      0.0000
1968-02-01 00:00:00+00      0.0000
1968-03-01 00:00:00+00      0.0000
1968-04-01 00:00:00+00      0.0000
1968-05-01 00:00:00+00      0.0000
1968-06-01 00:00:00+00      0.0000
1968-07-01 00:00:00+00      0.0000
1968-08-01 00:00:00+00      0.0000
1968-09-01 00:00:00+00      0.0000
1968-10-01 00:00:00+00      0.0000
1968-11-01 00:00:00+00      0.0000
1968-12-01 00:00:00+00      0.0000
1969-01-01 00:00:00+00    101.7833
1969-02-01 00:00:00+00    102.8667
1969-03-01 00:00:00+00    101.9500
1969-04-01 00:00:00+00    101.1667
1969-05-01 00:00:00+00     98.7500
1969-06-01 00:00:00+00     97.6500
1969-07-01 00:00:00+00     98.4500
1969-08-01 00:00:00+00    100.1667
1969-09-01 00:00:00+00    100.2167
1969-10-01 00:00:00+00    100.3000
1969-11-01 00:00:00+00    100.2333
1969-12-01 00:00:00+00    100.6667
1970-01-01 00:00:00+00    100.2833
1970-02-01 00:00:00+00    101.1667
1970-03-01 00:00:00+00    101.2833
1970-04-01 00:00:00+00     99.9500
1970-05-01 00:00:00+00     99.7667
1970-06-01 00:00:00+00     98.0000
1970-07-01 00:00:00+00     98.1167
1970-08-01 00:00:00+00     99.3333
1970-09-01 00:00:00+00    100.5333
1970-10-01 00:00:00+00    100.8833
1970-11-01 00:00:00+00     99.2167
1970-12-01 00:00:00+00    101.3667
1971-01-01 00:00:00+00    100.8667
1971-02-01 00:00:00+00    102.4167
1971-03-01 00:00:00+00    103.2000
1971-04-01 00:00:00+00    104.0333
1971-05-01 00:00:00+00    104.7667
1971-06-01 00:00:00+00    106.4500
1971-07-01 00:00:00+00    106.1167
1971-08-01 00:00:00+00    106.7000
1971-09-01 00:00:00+00    106.1000
1971-10-01 00:00:00+00    106.5333
1971-11-01 00:00:00+00    106.6167
1971-12-01 00:00:00+00    106.0667
1972-01-01 00:00:00+00    106.7833
1972-02-01 00:00:00+00    106.4500
1972-03-01 00:00:00+00    107.4500
1972-04-01 00:00:00+00    108.3833
1972-05-01 00:00:00+00    108.1333
1972-06-01 00:00:00+00    106.4667
1972-07-01 00:00:00+00    107.3500
1972-08-01 00:00:00+00    103.3167
1972-09-01 00:00:00+00    107.3000
1972-10-01 00:00:00+00    108.9000
1972-11-01 00:00:00+00    107.6500
1972-12-01 00:00:00+00    108.1667
1973-01-01 00:00:00+00    106.5500
1973-02-01 00:00:00+00    104.2667
1973-03-01 00:00:00+00    104.3000
1973-04-01 00:00:00+00    103.1167
1973-05-01 00:00:00+00    101.5667
1973-06-01 00:00:00+00    104.0167
1973-07-01 00:00:00+00    104.8833
1973-08-01 00:00:00+00    105.3167
1973-09-01 00:00:00+00    106.3333
1973-10-01 00:00:00+00    105.5500
1973-11-01 00:00:00+00    105.8667
1973-12-01 00:00:00+00    105.4667
1974-01-01 00:00:00+00    106.1667
1974-02-01 00:00:00+00    105.7167
1974-03-01 00:00:00+00    106.0833
1974-04-01 00:00:00+00    105.5833
1974-05-01 00:00:00+00    103.7833
1974-06-01 00:00:00+00    102.5500
1974-07-01 00:00:00+00    101.3333
1974-08-01 00:00:00+00    102.8167
1974-09-01 00:00:00+00    101.5000
1974-10-01 00:00:00+00    101.9667
1974-11-01 00:00:00+00    102.5000
1974-12-01 00:00:00+00    105.6667
1975-01-01 00:00:00+00    106.3000
1975-02-01 00:00:00+00    106.2500
1975-03-01 00:00:00+00    106.2333
1975-04-01 00:00:00+00    107.4500
1975-05-01 00:00:00+00    107.7500
1975-06-01 00:00:00+00    107.9000
1975-07-01 00:00:00+00    107.7667
1975-08-01 00:00:00+00    107.1167
1975-09-01 00:00:00+00    106.9500
1975-10-01 00:00:00+00    106.6500
1975-11-01 00:00:00+00    105.6833
1975-12-01 00:00:00+00    107.1333
1976-01-01 00:00:00+00    107.6500
1976-02-01 00:00:00+00    107.1667
1976-03-01 00:00:00+00    106.6333
1976-04-01 00:00:00+00    107.0500
1976-05-01 00:00:00+00    107.5333
1976-06-01 00:00:00+00    107.4000
1976-07-01 00:00:00+00    108.0500
1976-08-01 00:00:00+00    108.2667
1976-09-01 00:00:00+00    107.9833
1976-10-01 00:00:00+00    107.2667
1976-11-01 00:00:00+00    108.0167
1976-12-01 00:00:00+00    106.4333
1977-01-01 00:00:00+00    107.5167
1977-02-01 00:00:00+00    108.1000
1977-03-01 00:00:00+00    108.5167
1977-04-01 00:00:00+00    109.0000
1977-05-01 00:00:00+00    109.5500
1977-06-01 00:00:00+00    108.7333
1977-07-01 00:00:00+00    107.7000
1977-08-01 00:00:00+00    107.8333
1977-09-01 00:00:00+00    107.3500
1977-10-01 00:00:00+00    108.4333
1977-11-01 00:00:00+00    108.5333
1977-12-01 00:00:00+00    108.0000
1978-01-01 00:00:00+00    105.9167
1978-02-01 00:00:00+00    106.2667
1978-03-01 00:00:00+00    106.6500
1978-04-01 00:00:00+00    105.3333
1978-05-01 00:00:00+00    103.6833
1978-06-01 00:00:00+00    104.8667
1978-07-01 00:00:00+00    105.2000
1978-08-01 00:00:00+00    106.4667
1978-09-01 00:00:00+00    107.0833
1978-10-01 00:00:00+00    105.0833
1978-11-01 00:00:00+00    105.0833
1978-12-01 00:00:00+00    104.3000
1979-01-01 00:00:00+00    102.2833
1979-02-01 00:00:00+00    102.6833
1979-03-01 00:00:00+00    102.5000
1979-04-01 00:00:00+00    101.4667
1979-05-01 00:00:00+00    102.0000
1979-06-01 00:00:00+00     99.5500
1979-07-01 00:00:00+00     99.3167
1979-08-01 00:00:00+00     97.5833
1979-09-01 00:00:00+00     98.3000
1979-10-01 00:00:00+00     99.9667
1979-11-01 00:00:00+00     99.8667
1979-12-01 00:00:00+00    102.1167
1980-01-01 00:00:00+00    102.2333
1980-02-01 00:00:00+00    101.6333
1980-03-01 00:00:00+00    102.7500
1980-04-01 00:00:00+00    101.5333
1980-05-01 00:00:00+00    101.6667
1980-06-01 00:00:00+00     99.0667
1980-07-01 00:00:00+00     98.8500
1980-08-01 00:00:00+00     99.4000
1980-09-01 00:00:00+00     99.1000
1980-10-01 00:00:00+00     97.1333
1980-11-01 00:00:00+00     96.2500
1980-12-01 00:00:00+00     96.4500
1981-01-01 00:00:00+00     99.3167
1981-02-01 00:00:00+00     97.8000
1981-03-01 00:00:00+00     97.5000
1981-04-01 00:00:00+00     96.8833
1981-05-01 00:00:00+00     95.6500
1981-06-01 00:00:00+00     98.6500
1981-07-01 00:00:00+00     99.3667
1981-08-01 00:00:00+00     99.2500
1981-09-01 00:00:00+00    100.3333
1981-10-01 00:00:00+00     97.0667
1981-11-01 00:00:00+00     97.2500
1981-12-01 00:00:00+00     97.1167
1982-01-01 00:00:00+00    100.3667
1982-02-01 00:00:00+00     98.3333
1982-03-01 00:00:00+00    100.8667
1982-04-01 00:00:00+00    102.1500
1982-05-01 00:00:00+00    102.9500
1982-06-01 00:00:00+00     98.0333
1982-07-01 00:00:00+00     94.0667
1982-08-01 00:00:00+00     94.1833
1982-09-01 00:00:00+00     91.7333
1982-10-01 00:00:00+00     93.4500
1982-11-01 00:00:00+00     95.3333
1982-12-01 00:00:00+00     92.7000
1983-01-01 00:00:00+00     95.4667
1983-02-01 00:00:00+00     97.9333
1983-03-01 00:00:00+00     99.5500
1983-04-01 00:00:00+00     99.7000
1983-05-01 00:00:00+00     97.0667
1983-06-01 00:00:00+00     98.7833
1983-07-01 00:00:00+00    100.8833
1983-08-01 00:00:00+00    100.8667
1983-09-01 00:00:00+00    101.2333
1983-10-01 00:00:00+00    101.4833
1983-11-01 00:00:00+00    102.1500
1983-12-01 00:00:00+00    101.0167
1984-01-01 00:00:00+00    102.3667
1984-02-01 00:00:00+00    102.1500
1984-03-01 00:00:00+00    101.1333
1984-04-01 00:00:00+00    100.7667
1984-05-01 00:00:00+00     98.1833
1984-06-01 00:00:00+00     99.7000
1984-07-01 00:00:00+00    100.6000
1984-08-01 00:00:00+00    101.7833
1984-09-01 00:00:00+00    102.0167
1984-10-01 00:00:00+00    101.8167
1984-11-01 00:00:00+00    101.8333
1984-12-01 00:00:00+00    102.3000
1985-01-01 00:00:00+00    102.6000
1985-02-01 00:00:00+00    104.3000
1985-03-01 00:00:00+00    105.1000
1985-04-01 00:00:00+00    104.6167
1985-05-01 00:00:00+00    104.8667
1985-06-01 00:00:00+00    106.1333
1985-07-01 00:00:00+00    105.5000
1985-08-01 00:00:00+00    105.8333
1985-09-01 00:00:00+00    107.2500
1985-10-01 00:00:00+00    107.1500
1985-11-01 00:00:00+00    108.3333
1985-12-01 00:00:00+00    107.5667
1986-01-01 00:00:00+00    107.2667
1986-02-01 00:00:00+00    106.2333
1986-03-01 00:00:00+00    107.3000
1986-04-01 00:00:00+00    109.3833
1986-05-01 00:00:00+00    109.7167
1986-06-01 00:00:00+00    109.8167
1986-07-01 00:00:00+00    109.7167
1986-08-01 00:00:00+00    109.9667
1986-09-01 00:00:00+00    109.6667
1986-10-01 00:00:00+00    109.9667
1986-11-01 00:00:00+00    108.3667
1986-12-01 00:00:00+00    109.9333
1987-01-01 00:00:00+00    110.8667
1987-02-01 00:00:00+00    111.8667
1987-03-01 00:00:00+00    111.9333
1987-04-01 00:00:00+00    111.3500
1987-05-01 00:00:00+00    113.7667
1987-06-01 00:00:00+00    109.3667
1987-07-01 00:00:00+00    108.6000
1987-08-01 00:00:00+00    107.9333
1987-09-01 00:00:00+00    107.0667
1987-10-01 00:00:00+00    106.8667
1987-11-01 00:00:00+00    105.7500
1987-12-01 00:00:00+00    107.1167
1988-01-01 00:00:00+00    103.2833
1988-02-01 00:00:00+00    104.3833
1988-03-01 00:00:00+00    104.9667
1988-04-01 00:00:00+00    105.1667
1988-05-01 00:00:00+00    105.5167
1988-06-01 00:00:00+00    106.3833
1988-07-01 00:00:00+00    104.4667
1988-08-01 00:00:00+00    104.0000
1988-09-01 00:00:00+00    104.1167
1988-10-01 00:00:00+00    103.5833
1988-11-01 00:00:00+00    103.0667
1988-12-01 00:00:00+00    100.6500
1989-01-01 00:00:00+00     98.9333
1989-02-01 00:00:00+00     97.4167
1989-03-01 00:00:00+00     95.3333
1989-04-01 00:00:00+00     96.1167
1989-05-01 00:00:00+00     94.2333
1989-06-01 00:00:00+00     95.0500
1989-07-01 00:00:00+00     97.6500
1989-08-01 00:00:00+00     96.1333
1989-09-01 00:00:00+00     94.6333
1989-10-01 00:00:00+00     91.9167
1989-11-01 00:00:00+00     91.2333
1989-12-01 00:00:00+00     91.5667
1990-01-01 00:00:00+00     93.7500
1990-02-01 00:00:00+00     93.9333
1990-03-01 00:00:00+00     92.8167
1990-04-01 00:00:00+00     91.8833
1990-05-01 00:00:00+00     90.8333
1990-06-01 00:00:00+00     91.1333
1990-07-01 00:00:00+00     93.4833
1990-08-01 00:00:00+00     92.9667
1990-09-01 00:00:00+00     94.4833
1990-10-01 00:00:00+00     95.9000
1990-11-01 00:00:00+00     98.2167
1990-12-01 00:00:00+00     98.4167
1991-01-01 00:00:00+00    100.3333
1991-02-01 00:00:00+00    100.9500
1991-03-01 00:00:00+00     94.5000
1991-04-01 00:00:00+00     95.7000
1991-05-01 00:00:00+00     95.9167
1991-06-01 00:00:00+00     85.6500
1991-07-01 00:00:00+00     86.1333
1991-08-01 00:00:00+00     91.3667
1991-09-01 00:00:00+00     95.2167
1991-10-01 00:00:00+00     96.6167
1991-11-01 00:00:00+00     97.4667
1991-12-01 00:00:00+00     97.7333
1992-01-01 00:00:00+00     98.0000
1992-02-01 00:00:00+00     97.9167
1992-03-01 00:00:00+00     99.4500
1992-04-01 00:00:00+00    102.7333
1992-05-01 00:00:00+00    101.7333
1992-06-01 00:00:00+00    103.7833
1992-07-01 00:00:00+00    104.7833
1992-08-01 00:00:00+00    105.1833
1992-09-01 00:00:00+00    105.2833
1992-10-01 00:00:00+00    106.3667
1992-11-01 00:00:00+00    105.1833
1992-12-01 00:00:00+00    105.7833
1993-01-01 00:00:00+00    105.7333
1993-02-01 00:00:00+00    105.5500
1993-03-01 00:00:00+00    106.2000
1993-04-01 00:00:00+00    108.0000
1993-05-01 00:00:00+00    107.7000
1993-06-01 00:00:00+00    108.1333
1993-07-01 00:00:00+00    108.4833
1993-08-01 00:00:00+00    108.4500
1993-09-01 00:00:00+00    109.4833
1993-10-01 00:00:00+00    109.2500
1993-11-01 00:00:00+00    109.5667
1993-12-01 00:00:00+00    109.1500
1994-01-01 00:00:00+00    108.7667
1994-02-01 00:00:00+00    108.5167
1994-03-01 00:00:00+00    108.3500
1994-04-01 00:00:00+00    108.3167
1994-05-01 00:00:00+00    109.3167
1994-06-01 00:00:00+00    108.9500
1994-07-01 00:00:00+00    109.7333
1994-08-01 00:00:00+00    109.9500
1994-09-01 00:00:00+00    110.4500
1994-10-01 00:00:00+00    109.8333
1994-11-01 00:00:00+00    109.6667
1994-12-01 00:00:00+00    109.2000
1995-01-01 00:00:00+00    109.4000
1995-02-01 00:00:00+00    110.3000
1995-03-01 00:00:00+00    109.8167
1995-04-01 00:00:00+00    110.2333
1995-05-01 00:00:00+00    110.2333
1995-06-01 00:00:00+00    111.0000
1995-07-01 00:00:00+00    110.8167
1995-08-01 00:00:00+00    111.1000
1995-09-01 00:00:00+00    111.2167
1995-10-01 00:00:00+00    110.9000
1995-11-01 00:00:00+00    110.8833
1995-12-01 00:00:00+00    110.5500
1996-01-01 00:00:00+00    111.1333
1996-02-01 00:00:00+00    111.1500
1996-03-01 00:00:00+00    112.1833
1996-04-01 00:00:00+00    112.3000
1996-05-01 00:00:00+00    111.8833
1996-06-01 00:00:00+00    111.2833
1996-07-01 00:00:00+00    111.4000
1996-08-01 00:00:00+00    111.7000
1996-09-01 00:00:00+00    111.5000
1996-10-01 00:00:00+00    110.7833
1996-11-01 00:00:00+00    109.2167
1996-12-01 00:00:00+00    110.6833
1997-01-01 00:00:00+00    109.9333
1997-02-01 00:00:00+00    110.9833
1997-03-01 00:00:00+00    110.5667
1997-04-01 00:00:00+00    111.1167
1997-05-01 00:00:00+00    110.4000
1997-06-01 00:00:00+00    110.9667
1997-07-01 00:00:00+00    110.8333
1997-08-01 00:00:00+00    111.3000
1997-09-01 00:00:00+00    110.9333
1997-10-01 00:00:00+00    110.6667
1997-11-01 00:00:00+00    110.1000
1997-12-01 00:00:00+00    110.2500
1998-01-01 00:00:00+00    110.2667
1998-02-01 00:00:00+00    110.3667
1998-03-01 00:00:00+00    110.4667
1998-04-01 00:00:00+00    106.6667
1998-05-01 00:00:00+00    106.7833
1998-06-01 00:00:00+00    106.8500
1998-07-01 00:00:00+00    107.8333
1998-08-01 00:00:00+00    106.6500
1998-09-01 00:00:00+00    107.2667
1998-10-01 00:00:00+00    108.3667
1998-11-01 00:00:00+00    107.4833
1998-12-01 00:00:00+00    106.7333
1999-01-01 00:00:00+00    105.2000
1999-02-01 00:00:00+00    104.9667
1999-03-01 00:00:00+00    105.0333
1999-04-01 00:00:00+00    105.9667
1999-05-01 00:00:00+00    105.8000
1999-06-01 00:00:00+00    106.6167
1999-07-01 00:00:00+00    107.2667
1999-08-01 00:00:00+00    105.0167
1999-09-01 00:00:00+00    107.8833
1999-10-01 00:00:00+00    106.5833
1999-11-01 00:00:00+00    106.3833
1999-12-01 00:00:00+00    105.1667
2000-01-01 00:00:00+00    105.7667
2000-02-01 00:00:00+00    105.2167
2000-03-01 00:00:00+00    103.8833
2000-04-01 00:00:00+00    103.8833
2000-05-01 00:00:00+00    102.0833
2000-06-01 00:00:00+00    100.3667
2000-07-01 00:00:00+00     98.6833
2000-08-01 00:00:00+00    100.2833
2000-09-01 00:00:00+00    101.3167
2000-10-01 00:00:00+00    103.0167
2000-11-01 00:00:00+00    100.2667
2000-12-01 00:00:00+00    101.8833
2001-01-01 00:00:00+00    103.3167
2001-02-01 00:00:00+00    104.8500
2001-03-01 00:00:00+00    106.6167
2001-04-01 00:00:00+00    101.9000
2001-05-01 00:00:00+00    104.1167
2001-06-01 00:00:00+00    104.9333
2001-07-01 00:00:00+00    105.3333
2001-08-01 00:00:00+00    103.4833
2001-09-01 00:00:00+00    103.6833
2001-10-01 00:00:00+00    102.2500
2001-11-01 00:00:00+00    103.4500
2001-12-01 00:00:00+00    103.5000
2002-01-01 00:00:00+00    101.0167
2002-02-01 00:00:00+00    104.8167
2002-03-01 00:00:00+00    103.7333
2002-04-01 00:00:00+00    103.7667
2002-05-01 00:00:00+00    103.8667
2002-06-01 00:00:00+00    104.1667
2002-07-01 00:00:00+00    102.5500
2002-08-01 00:00:00+00    100.8167
2002-09-01 00:00:00+00    102.3667
2002-10-01 00:00:00+00    103.0000
2002-11-01 00:00:00+00    101.0500
2002-12-01 00:00:00+00    101.9833
2003-01-01 00:00:00+00    102.4667
2003-02-01 00:00:00+00    102.9333
2003-03-01 00:00:00+00    103.3833
2003-04-01 00:00:00+00    103.2333
2003-05-01 00:00:00+00    102.5167
2003-06-01 00:00:00+00    100.3333
2003-07-01 00:00:00+00    102.2167
2003-08-01 00:00:00+00    103.0833
2003-09-01 00:00:00+00    103.7500
2003-10-01 00:00:00+00    102.2167
2003-11-01 00:00:00+00     96.7500
2003-12-01 00:00:00+00    102.8167
2004-01-01 00:00:00+00    102.5000
2004-02-01 00:00:00+00    105.2000
2004-03-01 00:00:00+00    107.1000
2004-04-01 00:00:00+00    108.0167
2004-05-01 00:00:00+00    108.4000
2004-06-01 00:00:00+00    108.6000
2004-07-01 00:00:00+00    107.6667
2004-08-01 00:00:00+00    108.8500
2004-09-01 00:00:00+00    108.5667
2004-10-01 00:00:00+00    110.9500
2004-11-01 00:00:00+00    108.0667
2004-12-01 00:00:00+00    108.6833
2005-01-01 00:00:00+00    104.6167
2005-02-01 00:00:00+00    107.8667
2005-03-01 00:00:00+00    108.7000
2005-04-01 00:00:00+00    109.8167
2005-05-01 00:00:00+00    107.8667
2005-06-01 00:00:00+00    109.3667
2005-07-01 00:00:00+00    108.6667
2005-08-01 00:00:00+00    107.9833
2005-09-01 00:00:00+00    105.4667
2005-10-01 00:00:00+00    109.8833
2005-11-01 00:00:00+00    110.2167
2005-12-01 00:00:00+00    110.0333
2006-01-01 00:00:00+00    110.8667
2006-02-01 00:00:00+00    112.2500
2006-03-01 00:00:00+00    113.3500
2006-04-01 00:00:00+00    114.3667
2006-05-01 00:00:00+00    113.9667
2006-06-01 00:00:00+00    113.8333
2006-07-01 00:00:00+00    113.4833
2006-08-01 00:00:00+00    113.6667
2006-09-01 00:00:00+00    113.6333
2006-10-01 00:00:00+00    113.9167
2006-11-01 00:00:00+00    113.3167
2006-12-01 00:00:00+00    111.2167
2007-01-01 00:00:00+00    114.4000
2007-02-01 00:00:00+00    114.2000
2007-03-01 00:00:00+00    112.8167
2007-04-01 00:00:00+00    115.7333
2007-05-01 00:00:00+00    115.6167
2007-06-01 00:00:00+00    115.5833
2007-07-01 00:00:00+00    115.6500
2007-08-01 00:00:00+00    115.2333
2007-09-01 00:00:00+00    115.4500
2007-10-01 00:00:00+00    115.1667
2007-11-01 00:00:00+00    115.1500
2007-12-01 00:00:00+00    114.3667
2008-01-01 00:00:00+00    114.7833
2008-02-01 00:00:00+00    114.1500
2008-03-01 00:00:00+00    114.8667
2008-04-01 00:00:00+00    113.0667
2008-05-01 00:00:00+00    115.6333
2008-06-01 00:00:00+00    115.5000
2008-07-01 00:00:00+00    115.7667
2008-08-01 00:00:00+00    116.1500
2008-09-01 00:00:00+00    116.3500
2008-10-01 00:00:00+00    116.3000
2008-11-01 00:00:00+00    116.5500
2008-12-01 00:00:00+00    116.2500
2009-01-01 00:00:00+00    114.3833
2009-02-01 00:00:00+00    115.1667
2009-03-01 00:00:00+00    115.4333
2009-04-01 00:00:00+00    115.7500
2009-05-01 00:00:00+00    115.3833
2009-06-01 00:00:00+00    115.1833
2009-07-01 00:00:00+00    115.0500
2009-08-01 00:00:00+00    115.0833
2009-09-01 00:00:00+00    115.4167
2009-10-01 00:00:00+00    115.5833
2009-11-01 00:00:00+00    115.5500
2009-12-01 00:00:00+00    115.8500
2010-01-01 00:00:00+00    115.5167
2010-02-01 00:00:00+00    114.4500
2010-03-01 00:00:00+00    113.5333
2010-04-01 00:00:00+00    112.6500
2010-05-01 00:00:00+00    112.9667
2010-06-01 00:00:00+00    112.4333
2010-07-01 00:00:00+00    112.6000
2010-08-01 00:00:00+00    112.1500
2010-09-01 00:00:00+00    112.0500
2010-10-01 00:00:00+00    112.1333
2010-11-01 00:00:00+00    111.9333
2010-12-01 00:00:00+00    109.9667
2011-01-01 00:00:00+00    112.1500
2011-02-01 00:00:00+00    112.1833
2011-03-01 00:00:00+00    111.2833
2011-04-01 00:00:00+00    109.2333
2011-05-01 00:00:00+00    110.5500
2011-06-01 00:00:00+00    107.9667
2011-07-01 00:00:00+00    109.0167
2011-08-01 00:00:00+00    109.2000
2011-09-01 00:00:00+00    109.0167
2011-10-01 00:00:00+00    108.6667
2011-11-01 00:00:00+00    109.8500
2011-12-01 00:00:00+00    111.4000
2012-01-01 00:00:00+00    110.1667
2012-02-01 00:00:00+00    104.9167
2012-03-01 00:00:00+00    106.6333
2012-04-01 00:00:00+00    109.4833
2012-05-01 00:00:00+00    109.5667
2012-06-01 00:00:00+00    108.2167
2012-07-01 00:00:00+00    106.3000
2012-08-01 00:00:00+00    106.2000
2012-09-01 00:00:00+00    107.6167
2012-10-01 00:00:00+00    107.6667
2012-11-01 00:00:00+00    108.0000
2012-12-01 00:00:00+00    108.2667
2013-01-01 00:00:00+00    108.6333
2013-02-01 00:00:00+00    109.2167
2013-03-01 00:00:00+00    107.6000
2013-04-01 00:00:00+00    108.0167
2013-05-01 00:00:00+00    105.4333
2013-06-01 00:00:00+00    105.3000
2013-07-01 00:00:00+00    105.9833
2013-08-01 00:00:00+00    106.5000
2013-09-01 00:00:00+00    106.9500
2013-10-01 00:00:00+00    108.0500
2013-11-01 00:00:00+00    107.7333
2013-12-01 00:00:00+00    106.7667
2014-01-01 00:00:00+00    106.6833
2014-02-01 00:00:00+00    104.9667
2014-03-01 00:00:00+00    105.1833
2014-04-01 00:00:00+00    101.7833
2014-05-01 00:00:00+00    102.1833
2014-06-01 00:00:00+00    100.9833
2014-07-01 00:00:00+00    101.5833
2014-08-01 00:00:00+00    103.8167
2014-09-01 00:00:00+00    104.0333
2014-10-01 00:00:00+00    103.6833
2014-11-01 00:00:00+00    103.3500
2014-12-01 00:00:00+00    101.4500
2015-01-01 00:00:00+00    102.4667
2015-02-01 00:00:00+00    103.1167
2015-03-01 00:00:00+00    102.7000
2015-04-01 00:00:00+00    100.9667
2015-05-01 00:00:00+00    102.4667
2015-06-01 00:00:00+00    100.6833
2015-07-01 00:00:00+00    101.6500
2015-08-01 00:00:00+00    102.1833
2015-09-01 00:00:00+00    106.5833
2015-10-01 00:00:00+00    104.1167
2015-11-01 00:00:00+00    104.2500
2015-12-01 00:00:00+00    104.9833
2016-01-01 00:00:00+00    105.6000
2016-02-01 00:00:00+00    106.6000
2016-03-01 00:00:00+00    107.6000
2016-04-01 00:00:00+00    108.6000
2016-05-01 00:00:00+00    107.0667
2016-06-01 00:00:00+00    108.0667
2016-07-01 00:00:00+00    109.0667
2016-08-01 00:00:00+00    110.5333
2016-09-01 00:00:00+00    111.8167
2016-10-01 00:00:00+00    112.0333
2016-11-01 00:00:00+00    112.4333
2016-12-01 00:00:00+00    112.6500
2017-01-01 00:00:00+00    112.5333
2017-02-01 00:00:00+00    112.5667
2017-03-01 00:00:00+00    115.1333
2017-04-01 00:00:00+00      0.0000
2017-05-01 00:00:00+00      0.0000
2017-06-01 00:00:00+00      0.0000
2017-07-01 00:00:00+00      0.0000
2017-08-01 00:00:00+00      0.0000
2017-09-01 00:00:00+00      0.0000
2017-10-01 00:00:00+00      0.0000
2017-11-01 00:00:00+00      0.0000
2017-12-01 00:00:00+00      0.0000
