1950-01-01 00:00:00+00      0.0000
1950-02-01 00:00:00+00      0.0000
1950-03-01 00:00:00+00      0.0000
1950-04-01 00:00:00+00      0.0000
1950-05-01 00:00:00+00      0.0000
1950-06-01 00:00:00+00      0.0000
1950-07-01 00:00:00+00      0.0000
1950-08-01 00:00:00+00      0.0000
1950-09-01 00:00:00+00      0.0000
1950-10-01 00:00:00+00      0.0000
1950-11-01 00:00:00+00      0.0000
1950-12-01 00:00:00+00      0.0000
1951-01-01 00:00:00+00      0.0000
1951-02-01 00:00:00+00      0.0000
1951-03-01 00:00:00+00      0.0000
1951-04-01 00:00:00+00      0.0000
1951-05-01 00:00:00+00      0.0000
1951-06-01 00:00:00+00      0.0000
1951-07-01 00:00:00+00      0.0000
1951-08-01 00:00:00+00      0.0000
1951-09-01 00:00:00+00      0.0000
1951-10-01 00:00:00+00      0.0000
1951-11-01 00:00:00+00      0.0000
1951-12-01 00:00:00+00      0.0000
1952-01-01 00:00:00+00      0.0000
1952-02-01 00:00:00+00      0.0000
1952-03-01 00:00:00+00      0.0000
1952-04-01 00:00:00+00      0.0000
1952-05-01 00:00:00+00      0.0000
1952-06-01 00:00:00+00      0.0000
1952-07-01 00:00:00+00      0.0000
1952-08-01 00:00:00+00      0.0000
1952-09-01 00:00:00+00      0.0000
1952-10-01 00:00:00+00      0.0000
1952-11-01 00:00:00+00      0.0000
1952-12-01 00:00:00+00      0.0000
1953-01-01 00:00:00+00      0.0000
1953-02-01 00:00:00+00      0.0000
1953-03-01 00:00:00+00      0.0000
1953-04-01 00:00:00+00      0.0000
1953-05-01 00:00:00+00      0.0000
1953-06-01 00:00:00+00      0.0000
1953-07-01 00:00:00+00      0.0000
1953-08-01 00:00:00+00      0.0000
1953-09-01 00:00:00+00      0.0000
1953-10-01 00:00:00+00      0.0000
1953-11-01 00:00:00+00      0.0000
1953-12-01 00:00:00+00      0.0000
1954-01-01 00:00:00+00      0.0000
1954-02-01 00:00:00+00      0.0000
1954-03-01 00:00:00+00      0.0000
1954-04-01 00:00:00+00      0.0000
1954-05-01 00:00:00+00      0.0000
1954-06-01 00:00:00+00      0.0000
1954-07-01 00:00:00+00      0.0000
1954-08-01 00:00:00+00      0.0000
1954-09-01 00:00:00+00      0.0000
1954-10-01 00:00:00+00      0.0000
1954-11-01 00:00:00+00      0.0000
1954-12-01 00:00:00+00      0.0000
1955-01-01 00:00:00+00      0.0000
1955-02-01 00:00:00+00      0.0000
1955-03-01 00:00:00+00      0.0000
1955-04-01 00:00:00+00      0.0000
1955-05-01 00:00:00+00      0.0000
1955-06-01 00:00:00+00      0.0000
1955-07-01 00:00:00+00      0.0000
1955-08-01 00:00:00+00      0.0000
1955-09-01 00:00:00+00      0.0000
1955-10-01 00:00:00+00      0.0000
1955-11-01 00:00:00+00      0.0000
1955-12-01 00:00:00+00      0.0000
1956-01-01 00:00:00+00      0.0000
1956-02-01 00:00:00+00      0.0000
1956-03-01 00:00:00+00      0.0000
1956-04-01 00:00:00+00      0.0000
1956-05-01 00:00:00+00      0.0000
1956-06-01 00:00:00+00      0.0000
1956-07-01 00:00:00+00      0.0000
1956-08-01 00:00:00+00      0.0000
1956-09-01 00:00:00+00      0.0000
1956-10-01 00:00:00+00      0.0000
1956-11-01 00:00:00+00      0.0000
1956-12-01 00:00:00+00      0.0000
1957-01-01 00:00:00+00      0.0000
1957-02-01 00:00:00+00      0.0000
1957-03-01 00:00:00+00      0.0000
1957-04-01 00:00:00+00      0.0000
1957-05-01 00:00:00+00      0.0000
1957-06-01 00:00:00+00      0.0000
1957-07-01 00:00:00+00      0.0000
1957-08-01 00:00:00+00      0.0000
1957-09-01 00:00:00+00      0.0000
1957-10-01 00:00:00+00      0.0000
1957-11-01 00:00:00+00      0.0000
1957-12-01 00:00:00+00      0.0000
1958-01-01 00:00:00+00      0.0000
1958-02-01 00:00:00+00      0.0000
1958-03-01 00:00:00+00      0.0000
1958-04-01 00:00:00+00      0.0000
1958-05-01 00:00:00+00      0.0000
1958-06-01 00:00:00+00      0.0000
1958-07-01 00:00:00+00      0.0000
1958-08-01 00:00:00+00      0.0000
1958-09-01 00:00:00+00      0.0000
1958-10-01 00:00:00+00      0.0000
1958-11-01 00:00:00+00      0.0000
1958-12-01 00:00:00+00      0.0000
1959-01-01 00:00:00+00      0.0000
1959-02-01 00:00:00+00      0.0000
1959-03-01 00:00:00+00      0.0000
1959-04-01 00:00:00+00      0.0000
1959-05-01 00:00:00+00      0.0000
1959-06-01 00:00:00+00      0.0000
1959-07-01 00:00:00+00      0.0000
1959-08-01 00:00:00+00      0.0000
1959-09-01 00:00:00+00      0.0000
1959-10-01 00:00:00+00      0.0000
1959-11-01 00:00:00+00      0.0000
1959-12-01 00:00:00+00      0.0000
1960-01-01 00:00:00+00      0.0000
1960-02-01 00:00:00+00      0.0000
1960-03-01 00:00:00+00      0.0000
1960-04-01 00:00:00+00      0.0000
1960-05-01 00:00:00+00      0.0000
1960-06-01 00:00:00+00      0.0000
1960-07-01 00:00:00+00      0.0000
1960-08-01 00:00:00+00      0.0000
1960-09-01 00:00:00+00      0.0000
1960-10-01 00:00:00+00      0.0000
1960-11-01 00:00:00+00      0.0000
1960-12-01 00:00:00+00      0.0000
1961-01-01 00:00:00+00      0.0000
1961-02-01 00:00:00+00      0.0000
1961-03-01 00:00:00+00      0.0000
1961-04-01 00:00:00+00      0.0000
1961-05-01 00:00:00+00      0.0000
1961-06-01 00:00:00+00      0.0000
1961-07-01 00:00:00+00      0.0000
1961-08-01 00:00:00+00      0.0000
1961-09-01 00:00:00+00      0.0000
1961-10-01 00:00:00+00      0.0000
1961-11-01 00:00:00+00      0.0000
1961-12-01 00:00:00+00      0.0000
1962-01-01 00:00:00+00      0.0000
1962-02-01 00:00:00+00      0.0000
1962-03-01 00:00:00+00      0.0000
1962-04-01 00:00:00+00      0.0000
1962-05-01 00:00:00+00      0.0000
1962-06-01 00:00:00+00      0.0000
1962-07-01 00:00:00+00      0.0000
1962-08-01 00:00:00+00      0.0000
1962-09-01 00:00:00+00      0.0000
1962-10-01 00:00:00+00      0.0000
1962-11-01 00:00:00+00      0.0000
1962-12-01 00:00:00+00      0.0000
1963-01-01 00:00:00+00      0.0000
1963-02-01 00:00:00+00      0.0000
1963-03-01 00:00:00+00      0.0000
1963-04-01 00:00:00+00      0.0000
1963-05-01 00:00:00+00      0.0000
1963-06-01 00:00:00+00      0.0000
1963-07-01 00:00:00+00      0.0000
1963-08-01 00:00:00+00      0.0000
1963-09-01 00:00:00+00      0.0000
1963-10-01 00:00:00+00      0.0000
1963-11-01 00:00:00+00      0.0000
1963-12-01 00:00:00+00      0.0000
1964-01-01 00:00:00+00      0.0000
1964-02-01 00:00:00+00      0.0000
1964-03-01 00:00:00+00      0.0000
1964-04-01 00:00:00+00      0.0000
1964-05-01 00:00:00+00      0.0000
1964-06-01 00:00:00+00      0.0000
1964-07-01 00:00:00+00    194.1389
1964-08-01 00:00:00+00    194.5556
1964-09-01 00:00:00+00    195.3333
1964-10-01 00:00:00+00    195.2778
1964-11-01 00:00:00+00    195.8056
1964-12-01 00:00:00+00    198.4722
1965-01-01 00:00:00+00    197.7500
1965-02-01 00:00:00+00    197.8611
1965-03-01 00:00:00+00    198.6111
1965-04-01 00:00:00+00    199.7500
1965-05-01 00:00:00+00    199.9444
1965-06-01 00:00:00+00    197.7500
1965-07-01 00:00:00+00    196.0833
1965-08-01 00:00:00+00    196.3333
1965-09-01 00:00:00+00    196.6389
1965-10-01 00:00:00+00    198.3056
1965-11-01 00:00:00+00    199.1389
1965-12-01 00:00:00+00    199.7222
1966-01-01 00:00:00+00    198.0833
1966-02-01 00:00:00+00    197.8611
1966-03-01 00:00:00+00    196.1667
1966-04-01 00:00:00+00    194.8611
1966-05-01 00:00:00+00    196.3333
1966-06-01 00:00:00+00    193.5278
1966-07-01 00:00:00+00    192.0556
1966-08-01 00:00:00+00    192.0833
1966-09-01 00:00:00+00    184.6389
1966-10-01 00:00:00+00    189.5556
1966-11-01 00:00:00+00    191.1389
1966-12-01 00:00:00+00    189.4444
1967-01-01 00:00:00+00    187.2222
1967-02-01 00:00:00+00    185.8889
1967-03-01 00:00:00+00    188.4722
1967-04-01 00:00:00+00    188.0000
1967-05-01 00:00:00+00    185.2500
1967-06-01 00:00:00+00    183.7500
1967-07-01 00:00:00+00    185.6944
1967-08-01 00:00:00+00    183.7500
1967-09-01 00:00:00+00    183.7500
1967-10-01 00:00:00+00    185.0000
1967-11-01 00:00:00+00    182.5000
1967-12-01 00:00:00+00    182.4167
1968-01-01 00:00:00+00    182.6111
1968-02-01 00:00:00+00    182.3333
1968-03-01 00:00:00+00    182.5000
1968-04-01 00:00:00+00    183.2500
1968-05-01 00:00:00+00    181.4722
1968-06-01 00:00:00+00    178.7222
1968-07-01 00:00:00+00    179.0556
1968-08-01 00:00:00+00    179.9722
1968-09-01 00:00:00+00    178.4722
1968-10-01 00:00:00+00    175.8611
1968-11-01 00:00:00+00    170.1667
1968-12-01 00:00:00+00    172.5833
1969-01-01 00:00:00+00    178.0000
1969-02-01 00:00:00+00    178.1944
1969-03-01 00:00:00+00    177.1667
1969-04-01 00:00:00+00    176.3056
1969-05-01 00:00:00+00    172.5833
1969-06-01 00:00:00+00    170.1389
1969-07-01 00:00:00+00    172.1944
1969-08-01 00:00:00+00    174.8889
1969-09-01 00:00:00+00    176.6667
1969-10-01 00:00:00+00    177.5000
1969-11-01 00:00:00+00    178.0556
1969-12-01 00:00:00+00    177.6389
1970-01-01 00:00:00+00    177.7778
1970-02-01 00:00:00+00    179.1667
1970-03-01 00:00:00+00    179.0833
1970-04-01 00:00:00+00    176.5000
1970-05-01 00:00:00+00    176.5833
1970-06-01 00:00:00+00    172.6389
1970-07-01 00:00:00+00    172.9167
1970-08-01 00:00:00+00    175.4167
1970-09-01 00:00:00+00    178.5556
1970-10-01 00:00:00+00    179.3333
1970-11-01 00:00:00+00    176.4444
1970-12-01 00:00:00+00    181.3333
1971-01-01 00:00:00+00    181.6389
1971-02-01 00:00:00+00    184.1111
1971-03-01 00:00:00+00    184.3611
1971-04-01 00:00:00+00    184.9444
1971-05-01 00:00:00+00    186.1667
1971-06-01 00:00:00+00    189.1667
1971-07-01 00:00:00+00    189.3889
1971-08-01 00:00:00+00    190.5556
1971-09-01 00:00:00+00    190.6667
1971-10-01 00:00:00+00    191.7500
1971-11-01 00:00:00+00    191.1111
1971-12-01 00:00:00+00    190.6389
1972-01-01 00:00:00+00    189.9722
1972-02-01 00:00:00+00    189.6389
1972-03-01 00:00:00+00    191.9167
1972-04-01 00:00:00+00    193.9444
1972-05-01 00:00:00+00    192.5278
1972-06-01 00:00:00+00    189.4722
1972-07-01 00:00:00+00    192.3333
1972-08-01 00:00:00+00    184.3889
1972-09-01 00:00:00+00    192.0278
1972-10-01 00:00:00+00    192.7222
1972-11-01 00:00:00+00    191.5000
1972-12-01 00:00:00+00    192.6944
1973-01-01 00:00:00+00    192.2222
1973-02-01 00:00:00+00    191.5556
1973-03-01 00:00:00+00    190.2500
1973-04-01 00:00:00+00    186.6111
1973-05-01 00:00:00+00    184.9167
1973-06-01 00:00:00+00    189.1667
1973-07-01 00:00:00+00    190.7222
1973-08-01 00:00:00+00    191.9444
1973-09-01 00:00:00+00    194.4167
1973-10-01 00:00:00+00    194.4167
1973-11-01 00:00:00+00    194.3889
1973-12-01 00:00:00+00    194.5000
1974-01-01 00:00:00+00    194.6944
1974-02-01 00:00:00+00    195.1944
1974-03-01 00:00:00+00    193.1944
1974-04-01 00:00:00+00    192.3333
1974-05-01 00:00:00+00    189.4444
1974-06-01 00:00:00+00    187.7222
1974-07-01 00:00:00+00    184.1667
1974-08-01 00:00:00+00    187.3333
1974-09-01 00:00:00+00    185.5000
1974-10-01 00:00:00+00    186.2778
1974-11-01 00:00:00+00    186.1389
1974-12-01 00:00:00+00    189.1111
1975-01-01 00:00:00+00    189.2222
1975-02-01 00:00:00+00    190.8889
1975-03-01 00:00:00+00    191.5556
1975-04-01 00:00:00+00    192.9722
1975-05-01 00:00:00+00    193.9167
1975-06-01 00:00:00+00    194.6111
1975-07-01 00:00:00+00    193.8889
1975-08-01 00:00:00+00    193.5000
1975-09-01 00:00:00+00    193.9444
1975-10-01 00:00:00+00    193.8611
1975-11-01 00:00:00+00    191.6389
1975-12-01 00:00:00+00    192.6944
1976-01-01 00:00:00+00    192.0278
1976-02-01 00:00:00+00    191.9722
1976-03-01 00:00:00+00    191.8611
1976-04-01 00:00:00+00    190.6667
1976-05-01 00:00:00+00    192.9722
1976-06-01 00:00:00+00    193.8056
1976-07-01 00:00:00+00    194.6111
1976-08-01 00:00:00+00    194.7500
1976-09-01 00:00:00+00    194.6944
1976-10-01 00:00:00+00    194.7778
1976-11-01 00:00:00+00    194.2222
1976-12-01 00:00:00+00    193.0000
1977-01-01 00:00:00+00    195.0000
1977-02-01 00:00:00+00    195.2500
1977-03-01 00:00:00+00    196.5556
1977-04-01 00:00:00+00    195.3611
1977-05-01 00:00:00+00    196.1667
1977-06-01 00:00:00+00    194.2778
1977-07-01 00:00:00+00    191.5278
1977-08-01 00:00:00+00    192.1667
1977-09-01 00:00:00+00    191.4444
1977-10-01 00:00:00+00    194.8611
1977-11-01 00:00:00+00    195.3889
1977-12-01 00:00:00+00    195.2500
1978-01-01 00:00:00+00    192.4722
1978-02-01 00:00:00+00    190.5000
1978-03-01 00:00:00+00    190.3611
1978-04-01 00:00:00+00    185.2500
1978-05-01 00:00:00+00    182.0556
1978-06-01 00:00:00+00    184.9444
1978-07-01 00:00:00+00    185.0000
1978-08-01 00:00:00+00    189.5278
1978-09-01 00:00:00+00    189.8333
1978-10-01 00:00:00+00    186.1111
1978-11-01 00:00:00+00    187.3056
1978-12-01 00:00:00+00    189.0000
1979-01-01 00:00:00+00    185.7778
1979-02-01 00:00:00+00    184.9167
1979-03-01 00:00:00+00    183.2222
1979-04-01 00:00:00+00    178.8611
1979-05-01 00:00:00+00    179.7500
1979-06-01 00:00:00+00    175.7500
1979-07-01 00:00:00+00    175.1389
1979-08-01 00:00:00+00    171.6389
1979-09-01 00:00:00+00    173.3889
1979-10-01 00:00:00+00    175.6389
1979-11-01 00:00:00+00    175.2778
1979-12-01 00:00:00+00    179.7222
1980-01-01 00:00:00+00    178.6111
1980-02-01 00:00:00+00    176.8056
1980-03-01 00:00:00+00    179.4444
1980-04-01 00:00:00+00    176.2778
1980-05-01 00:00:00+00    176.5000
1980-06-01 00:00:00+00    172.3056
1980-07-01 00:00:00+00    171.7500
1980-08-01 00:00:00+00    172.7778
1980-09-01 00:00:00+00    173.1111
1980-10-01 00:00:00+00    168.6667
1980-11-01 00:00:00+00    165.8889
1980-12-01 00:00:00+00    166.3056
1981-01-01 00:00:00+00    170.5000
1981-02-01 00:00:00+00    168.1389
1981-03-01 00:00:00+00    167.2500
1981-04-01 00:00:00+00    165.6111
1981-05-01 00:00:00+00    164.1389
1981-06-01 00:00:00+00    169.6944
1981-07-01 00:00:00+00    169.9444
1981-08-01 00:00:00+00    169.9167
1981-09-01 00:00:00+00    172.6111
1981-10-01 00:00:00+00    166.9167
1981-11-01 00:00:00+00    166.9722
1981-12-01 00:00:00+00    170.3333
1982-01-01 00:00:00+00    173.8611
1982-02-01 00:00:00+00    167.8889
1982-03-01 00:00:00+00    173.3889
1982-04-01 00:00:00+00    174.4722
1982-05-01 00:00:00+00    176.4722
1982-06-01 00:00:00+00    168.0000
1982-07-01 00:00:00+00    160.2500
1982-08-01 00:00:00+00    161.0000
1982-09-01 00:00:00+00    156.9722
1982-10-01 00:00:00+00    161.1944
1982-11-01 00:00:00+00    162.9444
1982-12-01 00:00:00+00    159.4167
1983-01-01 00:00:00+00    164.4722
1983-02-01 00:00:00+00    167.1944
1983-03-01 00:00:00+00    170.0556
1983-04-01 00:00:00+00    171.5000
1983-05-01 00:00:00+00    167.2500
1983-06-01 00:00:00+00    170.1667
1983-07-01 00:00:00+00    173.9444
1983-08-01 00:00:00+00    173.4722
1983-09-01 00:00:00+00    175.5556
1983-10-01 00:00:00+00    175.8889
1983-11-01 00:00:00+00    175.7222
1983-12-01 00:00:00+00    176.3056
1984-01-01 00:00:00+00    178.1111
1984-02-01 00:00:00+00    176.5556
1984-03-01 00:00:00+00    174.1944
1984-04-01 00:00:00+00    172.0833
1984-05-01 00:00:00+00    168.7222
1984-06-01 00:00:00+00    171.5833
1984-07-01 00:00:00+00    173.4167
1984-08-01 00:00:00+00    175.3056
1984-09-01 00:00:00+00    176.4444
1984-10-01 00:00:00+00    177.0833
1984-11-01 00:00:00+00    175.8056
1984-12-01 00:00:00+00    177.0556
1985-01-01 00:00:00+00    177.5000
1985-02-01 00:00:00+00    180.2222
1985-03-01 00:00:00+00    181.6111
1985-04-01 00:00:00+00    182.2778
1985-05-01 00:00:00+00    183.0000
1985-06-01 00:00:00+00    185.9722
1985-07-01 00:00:00+00    185.4167
1985-08-01 00:00:00+00    185.1111
1985-09-01 00:00:00+00    187.3889
1985-10-01 00:00:00+00    187.6667
1985-11-01 00:00:00+00    188.2500
1985-12-01 00:00:00+00    187.2222
1986-01-01 00:00:00+00    186.8611
1986-02-01 00:00:00+00    182.1944
1986-03-01 00:00:00+00    185.8611
1986-04-01 00:00:00+00    189.6111
1986-05-01 00:00:00+00    190.5278
1986-06-01 00:00:00+00    191.6389
1986-07-01 00:00:00+00    191.3056
1986-08-01 00:00:00+00    192.0278
1986-09-01 00:00:00+00    191.6667
1986-10-01 00:00:00+00    192.6667
1986-11-01 00:00:00+00    190.0833
1986-12-01 00:00:00+00    191.4167
1987-01-01 00:00:00+00    193.1389
1987-02-01 00:00:00+00    194.6944
1987-03-01 00:00:00+00    195.1389
1987-04-01 00:00:00+00    194.9444
1987-05-01 00:00:00+00    194.0000
1987-06-01 00:00:00+00    191.9444
1987-07-01 00:00:00+00    189.9444
1987-08-01 00:00:00+00    188.1389
1987-09-01 00:00:00+00    187.0000
1987-10-01 00:00:00+00    187.0833
1987-11-01 00:00:00+00    184.8333
1987-12-01 00:00:00+00    184.0000
1988-01-01 00:00:00+00    179.5833
1988-02-01 00:00:00+00    181.1111
1988-03-01 00:00:00+00    182.5278
1988-04-01 00:00:00+00    181.1389
1988-05-01 00:00:00+00    182.4444
1988-06-01 00:00:00+00    181.4444
1988-07-01 00:00:00+00    179.6944
1988-08-01 00:00:00+00    177.5278
1988-09-01 00:00:00+00    178.5556
1988-10-01 00:00:00+00    177.2222
1988-11-01 00:00:00+00    176.7222
1988-12-01 00:00:00+00    172.2222
1989-01-01 00:00:00+00    169.8889
1989-02-01 00:00:00+00    169.1944
1989-03-01 00:00:00+00    161.7778
1989-04-01 00:00:00+00    162.5833
1989-05-01 00:00:00+00    159.8611
1989-06-01 00:00:00+00    160.9444
1989-07-01 00:00:00+00    165.3611
1989-08-01 00:00:00+00    162.5278
1989-09-01 00:00:00+00    163.0000
1989-10-01 00:00:00+00    158.5278
1989-11-01 00:00:00+00    154.6944
1989-12-01 00:00:00+00    156.4167
1990-01-01 00:00:00+00    159.3611
1990-02-01 00:00:00+00    160.6667
1990-03-01 00:00:00+00    158.6389
1990-04-01 00:00:00+00    154.8889
1990-05-01 00:00:00+00    154.6667
1990-06-01 00:00:00+00    154.8056
1990-07-01 00:00:00+00    158.7222
1990-08-01 00:00:00+00    157.6667
1990-09-01 00:00:00+00    160.5278
1990-10-01 00:00:00+00    164.2500
1990-11-01 00:00:00+00    166.6944
1990-12-01 00:00:00+00    166.6389
1991-01-01 00:00:00+00    170.0278
1991-02-01 00:00:00+00    170.4722
1991-03-01 00:00:00+00    158.9167
1991-04-01 00:00:00+00    160.2778
1991-05-01 00:00:00+00    161.8889
1991-06-01 00:00:00+00    144.1944
1991-07-01 00:00:00+00    145.5000
1991-08-01 00:00:00+00    154.0556
1991-09-01 00:00:00+00    161.0278
1991-10-01 00:00:00+00    162.6944
1991-11-01 00:00:00+00    163.2500
1991-12-01 00:00:00+00    165.7778
1992-01-01 00:00:00+00    165.3056
1992-02-01 00:00:00+00    163.1389
1992-03-01 00:00:00+00    167.4722
1992-04-01 00:00:00+00    172.9167
1992-05-01 00:00:00+00    171.4167
1992-06-01 00:00:00+00    175.1944
1992-07-01 00:00:00+00    177.9722
1992-08-01 00:00:00+00    178.0000
1992-09-01 00:00:00+00    177.4444
1992-10-01 00:00:00+00    179.2500
1992-11-01 00:00:00+00    178.1111
1992-12-01 00:00:00+00    180.6389
1993-01-01 00:00:00+00    180.7222
1993-02-01 00:00:00+00    179.5556
1993-03-01 00:00:00+00    177.8611
1993-04-01 00:00:00+00    180.6389
1993-05-01 00:00:00+00    182.2500
1993-06-01 00:00:00+00    183.7778
1993-07-01 00:00:00+00    184.5278
1993-08-01 00:00:00+00    183.9722
1993-09-01 00:00:00+00    185.0833
1993-10-01 00:00:00+00    185.4444
1993-11-01 00:00:00+00    184.1667
1993-12-01 00:00:00+00    185.1389
1994-01-01 00:00:00+00    185.5278
1994-02-01 00:00:00+00    182.5556
1994-03-01 00:00:00+00    182.3333
1994-04-01 00:00:00+00    181.8611
1994-05-01 00:00:00+00    183.8056
1994-06-01 00:00:00+00    184.3056
1994-07-01 00:00:00+00    185.2222
1994-08-01 00:00:00+00    186.3056
1994-09-01 00:00:00+00    188.1667
1994-10-01 00:00:00+00    187.0833
1994-11-01 00:00:00+00    187.5000
1994-12-01 00:00:00+00    186.9722
1995-01-01 00:00:00+00    188.1111
1995-02-01 00:00:00+00    188.8056
1995-03-01 00:00:00+00    187.8889
1995-04-01 00:00:00+00    188.3611
1995-05-01 00:00:00+00    189.3333
1995-06-01 00:00:00+00    188.8889
1995-07-01 00:00:00+00    189.0833
1995-08-01 00:00:00+00    189.5833
1995-09-01 00:00:00+00    189.8889
1995-10-01 00:00:00+00    189.7778
1995-11-01 00:00:00+00    189.3889
1995-12-01 00:00:00+00    189.6389
1996-01-01 00:00:00+00    190.5556
1996-02-01 00:00:00+00    191.8889
1996-03-01 00:00:00+00    191.8333
1996-04-01 00:00:00+00    192.3333
1996-05-01 00:00:00+00    191.7222
1996-06-01 00:00:00+00    191.7778
1996-07-01 00:00:00+00    191.1667
1996-08-01 00:00:00+00    191.2778
1996-09-01 00:00:00+00    190.7222
1996-10-01 00:00:00+00    190.0833
1996-11-01 00:00:00+00    189.6389
1996-12-01 00:00:00+00    190.3056
1997-01-01 00:00:00+00    191.5000
1997-02-01 00:00:00+00    191.7500
1997-03-01 00:00:00+00    192.1944
1997-04-01 00:00:00+00    191.8611
1997-05-01 00:00:00+00    192.7778
1997-06-01 00:00:00+00    192.6667
1997-07-01 00:00:00+00    192.2778
1997-08-01 00:00:00+00    193.1111
1997-09-01 00:00:00+00    192.3333
1997-10-01 00:00:00+00    191.1111
1997-11-01 00:00:00+00    190.8056
1997-12-01 00:00:00+00    190.8889
1998-01-01 00:00:00+00    190.9167
1998-02-01 00:00:00+00    191.7500
1998-03-01 00:00:00+00    191.9722
1998-04-01 00:00:00+00    187.5833
1998-05-01 00:00:00+00    184.5000
1998-06-01 00:00:00+00    185.8056
1998-07-01 00:00:00+00    187.3056
1998-08-01 00:00:00+00    184.3333
1998-09-01 00:00:00+00    187.1389
1998-10-01 00:00:00+00    188.4167
1998-11-01 00:00:00+00    186.9444
1998-12-01 00:00:00+00    185.3889
1999-01-01 00:00:00+00    182.5833
1999-02-01 00:00:00+00    181.3611
1999-03-01 00:00:00+00    182.4444
1999-04-01 00:00:00+00    184.1111
1999-05-01 00:00:00+00    183.6389
1999-06-01 00:00:00+00    184.6944
1999-07-01 00:00:00+00    185.2778
1999-08-01 00:00:00+00    181.0278
1999-09-01 00:00:00+00    178.0556
1999-10-01 00:00:00+00    176.7222
1999-11-01 00:00:00+00    175.3611
1999-12-01 00:00:00+00    174.0556
2000-01-01 00:00:00+00    174.9167
2000-02-01 00:00:00+00    173.0000
2000-03-01 00:00:00+00    170.9444
2000-04-01 00:00:00+00    171.3333
2000-05-01 00:00:00+00    167.7500
2000-06-01 00:00:00+00    164.8889
2000-07-01 00:00:00+00    161.7500
2000-08-01 00:00:00+00    164.4167
2000-09-01 00:00:00+00    167.5278
2000-10-01 00:00:00+00    168.8056
2000-11-01 00:00:00+00    163.3056
2000-12-01 00:00:00+00    165.4722
2001-01-01 00:00:00+00    170.9444
2001-02-01 00:00:00+00    173.2222
2001-03-01 00:00:00+00    176.4444
2001-04-01 00:00:00+00    166.4444
2001-05-01 00:00:00+00    171.4444
2001-06-01 00:00:00+00    172.3889
2001-07-01 00:00:00+00    173.0833
2001-08-01 00:00:00+00    169.8333
2001-09-01 00:00:00+00    171.0833
2001-10-01 00:00:00+00    167.1111
2001-11-01 00:00:00+00    169.2778
2001-12-01 00:00:00+00    170.5556
2002-01-01 00:00:00+00    167.0278
2002-02-01 00:00:00+00    171.7222
2002-03-01 00:00:00+00    170.4444
2002-04-01 00:00:00+00    170.2500
2002-05-01 00:00:00+00    170.5000
2002-06-01 00:00:00+00    171.3056
2002-07-01 00:00:00+00    168.5000
2002-08-01 00:00:00+00    164.7778
2002-09-01 00:00:00+00    167.3056
2002-10-01 00:00:00+00    168.9167
2002-11-01 00:00:00+00    170.3889
2002-12-01 00:00:00+00    170.8889
2003-01-01 00:00:00+00    173.4722
2003-02-01 00:00:00+00    173.3333
2003-03-01 00:00:00+00    174.5556
2003-04-01 00:00:00+00    173.2778
2003-05-01 00:00:00+00    172.5833
2003-06-01 00:00:00+00    169.0833
2003-07-01 00:00:00+00    172.0000
2003-08-01 00:00:00+00    173.4167
2003-09-01 00:00:00+00    175.0556
2003-10-01 00:00:00+00    172.1111
2003-11-01 00:00:00+00    161.6111
2003-12-01 00:00:00+00    172.2778
2004-01-01 00:00:00+00    171.6944
2004-02-01 00:00:00+00    176.2500
2004-03-01 00:00:00+00    179.4444
2004-04-01 00:00:00+00    181.8889
2004-05-01 00:00:00+00    183.9722
2004-06-01 00:00:00+00    184.0556
2004-07-01 00:00:00+00    181.3611
2004-08-01 00:00:00+00    182.7778
2004-09-01 00:00:00+00    184.2778
2004-10-01 00:00:00+00    188.3333
2004-11-01 00:00:00+00    183.4722
2004-12-01 00:00:00+00    185.7222
2005-01-01 00:00:00+00    178.6944
2005-02-01 00:00:00+00    182.8056
2005-03-01 00:00:00+00    184.0278
2005-04-01 00:00:00+00    185.7778
2005-05-01 00:00:00+00    181.8333
2005-06-01 00:00:00+00    185.4722
2005-07-01 00:00:00+00    183.8889
2005-08-01 00:00:00+00    182.1111
2005-09-01 00:00:00+00    178.4444
2005-10-01 00:00:00+00    186.5833
2005-11-01 00:00:00+00    187.9444
2005-12-01 00:00:00+00    187.2778
2006-01-01 00:00:00+00    188.3333
2006-02-01 00:00:00+00    191.0000
2006-03-01 00:00:00+00    193.0278
2006-04-01 00:00:00+00    193.3333
2006-05-01 00:00:00+00    194.5556
2006-06-01 00:00:00+00    194.6944
2006-07-01 00:00:00+00    193.8333
2006-08-01 00:00:00+00    193.7500
2006-09-01 00:00:00+00    194.1111
2006-10-01 00:00:00+00    195.6111
2006-11-01 00:00:00+00    195.7778
2006-12-01 00:00:00+00    191.4167
2007-01-01 00:00:00+00    195.3889
2007-02-01 00:00:00+00    195.3889
2007-03-01 00:00:00+00    196.2778
2007-04-01 00:00:00+00    197.8333
2007-05-01 00:00:00+00    198.4722
2007-06-01 00:00:00+00    198.3056
2007-07-01 00:00:00+00    198.1944
2007-08-01 00:00:00+00    198.1389
2007-09-01 00:00:00+00    198.8056
2007-10-01 00:00:00+00    198.6667
2007-11-01 00:00:00+00    197.3889
2007-12-01 00:00:00+00    198.5000
2008-01-01 00:00:00+00    197.6667
2008-02-01 00:00:00+00    197.6667
2008-03-01 00:00:00+00    197.7500
2008-04-01 00:00:00+00    198.4167
2008-05-01 00:00:00+00    197.9444
2008-06-01 00:00:00+00    198.3056
2008-07-01 00:00:00+00    198.8611
2008-08-01 00:00:00+00    199.9722
2008-09-01 00:00:00+00    200.6944
2008-10-01 00:00:00+00    199.3889
2008-11-01 00:00:00+00    199.9167
2008-12-01 00:00:00+00    201.0278
2009-01-01 00:00:00+00    201.5278
2009-02-01 00:00:00+00    202.5278
2009-03-01 00:00:00+00    203.5000
2009-04-01 00:00:00+00    204.1111
2009-05-01 00:00:00+00    204.8889
2009-06-01 00:00:00+00    204.6944
2009-07-01 00:00:00+00    204.5833
2009-08-01 00:00:00+00    204.2500
2009-09-01 00:00:00+00    204.9444
2009-10-01 00:00:00+00    204.8611
2009-11-01 00:00:00+00    204.7500
2009-12-01 00:00:00+00    204.8056
2010-01-01 00:00:00+00    204.4444
2010-02-01 00:00:00+00    201.6667
2010-03-01 00:00:00+00    200.6389
2010-04-01 00:00:00+00    198.3889
2010-05-01 00:00:00+00    199.6111
2010-06-01 00:00:00+00    198.5278
2010-07-01 00:00:00+00    198.3611
2010-08-01 00:00:00+00    197.3611
2010-09-01 00:00:00+00    197.8056
2010-10-01 00:00:00+00    198.1111
2010-11-01 00:00:00+00    196.7778
2010-12-01 00:00:00+00    196.3333
2011-01-01 00:00:00+00    198.1667
2011-02-01 00:00:00+00    198.0556
2011-03-01 00:00:00+00    196.0833
2011-04-01 00:00:00+00    191.9722
2011-05-01 00:00:00+00    193.2222
2011-06-01 00:00:00+00    188.7778
2011-07-01 00:00:00+00    190.4444
2011-08-01 00:00:00+00    190.8611
2011-09-01 00:00:00+00    190.8056
2011-10-01 00:00:00+00    189.5278
2011-11-01 00:00:00+00    192.1667
2011-12-01 00:00:00+00    194.4167
2012-01-01 00:00:00+00    192.3889
2012-02-01 00:00:00+00    189.8056
2012-03-01 00:00:00+00    184.7222
2012-04-01 00:00:00+00    190.8333
2012-05-01 00:00:00+00    191.4722
2012-06-01 00:00:00+00    188.8333
2012-07-01 00:00:00+00    183.1944
2012-08-01 00:00:00+00    184.1111
2012-09-01 00:00:00+00    187.0278
2012-10-01 00:00:00+00    187.0833
2012-11-01 00:00:00+00    187.2500
2012-12-01 00:00:00+00    188.1389
2013-01-01 00:00:00+00    189.2222
2013-02-01 00:00:00+00    189.0278
2013-03-01 00:00:00+00    186.9167
2013-04-01 00:00:00+00    188.3611
2013-05-01 00:00:00+00    183.2222
2013-06-01 00:00:00+00    182.6944
2013-07-01 00:00:00+00    183.7778
2013-08-01 00:00:00+00    184.5833
2013-09-01 00:00:00+00    185.5278
2013-10-01 00:00:00+00    187.8333
2013-11-01 00:00:00+00    187.5278
2013-12-01 00:00:00+00    186.1111
2014-01-01 00:00:00+00    185.3056
2014-02-01 00:00:00+00    182.5278
2014-03-01 00:00:00+00    183.3889
2014-04-01 00:00:00+00    184.2778
2014-05-01 00:00:00+00    186.3611
2014-06-01 00:00:00+00    184.2222
2014-07-01 00:00:00+00    184.8611
2014-08-01 00:00:00+00    186.5278
2014-09-01 00:00:00+00    184.9444
2014-10-01 00:00:00+00    184.8056
2014-11-01 00:00:00+00    182.8611
2014-12-01 00:00:00+00    180.6667
2015-01-01 00:00:00+00    183.1667
2015-02-01 00:00:00+00    183.0278
2015-03-01 00:00:00+00    180.1389
2015-04-01 00:00:00+00    181.7778
2015-05-01 00:00:00+00    183.8889
2015-06-01 00:00:00+00    182.7778
2015-07-01 00:00:00+00    185.5278
2015-08-01 00:00:00+00    188.1111
2015-09-01 00:00:00+00    186.5833
2015-10-01 00:00:00+00    186.4444
2015-11-01 00:00:00+00    187.0278
2015-12-01 00:00:00+00    187.9167
2016-01-01 00:00:00+00    189.9722
2016-02-01 00:00:00+00    191.9722
2016-03-01 00:00:00+00    191.6111
2016-04-01 00:00:00+00    192.0556
2016-05-01 00:00:00+00    193.4722
2016-06-01 00:00:00+00    193.9444
2016-07-01 00:00:00+00    193.1111
2016-08-01 00:00:00+00    193.9444
2016-09-01 00:00:00+00    195.3889
2016-10-01 00:00:00+00    197.0000
2016-11-01 00:00:00+00    197.2500
2016-12-01 00:00:00+00    197.8889
2017-01-01 00:00:00+00    198.3889
2017-02-01 00:00:00+00    198.3333
2017-03-01 00:00:00+00    199.3056
2017-04-01 00:00:00+00      0.0000
2017-05-01 00:00:00+00      0.0000
2017-06-01 00:00:00+00      0.0000
2017-07-01 00:00:00+00      0.0000
2017-08-01 00:00:00+00      0.0000
2017-09-01 00:00:00+00      0.0000
2017-10-01 00:00:00+00      0.0000
2017-11-01 00:00:00+00      0.0000
2017-12-01 00:00:00+00      0.0000
