1950-01-01 00:00:00+00      0.0000
1950-02-01 00:00:00+00      0.0000
1950-03-01 00:00:00+00      0.0000
1950-04-01 00:00:00+00      0.0000
1950-05-01 00:00:00+00      0.0000
1950-06-01 00:00:00+00      0.0000
1950-07-01 00:00:00+00      0.0000
1950-08-01 00:00:00+00      0.0000
1950-09-01 00:00:00+00      0.0000
1950-10-01 00:00:00+00      0.0000
1950-11-01 00:00:00+00      0.0000
1950-12-01 00:00:00+00      0.0000
1951-01-01 00:00:00+00      0.0000
1951-02-01 00:00:00+00      0.0000
1951-03-01 00:00:00+00      0.0000
1951-04-01 00:00:00+00      0.0000
1951-05-01 00:00:00+00      0.0000
1951-06-01 00:00:00+00      0.0000
1951-07-01 00:00:00+00      0.0000
1951-08-01 00:00:00+00      0.0000
1951-09-01 00:00:00+00      0.0000
1951-10-01 00:00:00+00      0.0000
1951-11-01 00:00:00+00      0.0000
1951-12-01 00:00:00+00      0.0000
1952-01-01 00:00:00+00      0.0000
1952-02-01 00:00:00+00      0.0000
1952-03-01 00:00:00+00      0.0000
1952-04-01 00:00:00+00      0.0000
1952-05-01 00:00:00+00      0.0000
1952-06-01 00:00:00+00      0.0000
1952-07-01 00:00:00+00      0.0000
1952-08-01 00:00:00+00      0.0000
1952-09-01 00:00:00+00      0.0000
1952-10-01 00:00:00+00      0.0000
1952-11-01 00:00:00+00      0.0000
1952-12-01 00:00:00+00      0.0000
1953-01-01 00:00:00+00      0.0000
1953-02-01 00:00:00+00      0.0000
1953-03-01 00:00:00+00      0.0000
1953-04-01 00:00:00+00      0.0000
1953-05-01 00:00:00+00      0.0000
1953-06-01 00:00:00+00      0.0000
1953-07-01 00:00:00+00      0.0000
1953-08-01 00:00:00+00      0.0000
1953-09-01 00:00:00+00      0.0000
1953-10-01 00:00:00+00      0.0000
1953-11-01 00:00:00+00      0.0000
1953-12-01 00:00:00+00      0.0000
1954-01-01 00:00:00+00      0.0000
1954-02-01 00:00:00+00      0.0000
1954-03-01 00:00:00+00      0.0000
1954-04-01 00:00:00+00      0.0000
1954-05-01 00:00:00+00      0.0000
1954-06-01 00:00:00+00      0.0000
1954-07-01 00:00:00+00      0.0000
1954-08-01 00:00:00+00      0.0000
1954-09-01 00:00:00+00      0.0000
1954-10-01 00:00:00+00      0.0000
1954-11-01 00:00:00+00      0.0000
1954-12-01 00:00:00+00      0.0000
1955-01-01 00:00:00+00      0.0000
1955-02-01 00:00:00+00      0.0000
1955-03-01 00:00:00+00      0.0000
1955-04-01 00:00:00+00      0.0000
1955-05-01 00:00:00+00      0.0000
1955-06-01 00:00:00+00      0.0000
1955-07-01 00:00:00+00      0.0000
1955-08-01 00:00:00+00      0.0000
1955-09-01 00:00:00+00      0.0000
1955-10-01 00:00:00+00      0.0000
1955-11-01 00:00:00+00      0.0000
1955-12-01 00:00:00+00      0.0000
1956-01-01 00:00:00+00      0.0000
1956-02-01 00:00:00+00      0.0000
1956-03-01 00:00:00+00      0.0000
1956-04-01 00:00:00+00      0.0000
1956-05-01 00:00:00+00      0.0000
1956-06-01 00:00:00+00      0.0000
1956-07-01 00:00:00+00      0.0000
1956-08-01 00:00:00+00      0.0000
1956-09-01 00:00:00+00      0.0000
1956-10-01 00:00:00+00      0.0000
1956-11-01 00:00:00+00      0.0000
1956-12-01 00:00:00+00      0.0000
1957-01-01 00:00:00+00      0.0000
1957-02-01 00:00:00+00      0.0000
1957-03-01 00:00:00+00      0.0000
1957-04-01 00:00:00+00      0.0000
1957-05-01 00:00:00+00      0.0000
1957-06-01 00:00:00+00      0.0000
1957-07-01 00:00:00+00    151.2000
1957-08-01 00:00:00+00    158.2833
1957-09-01 00:00:00+00    152.6333
1957-10-01 00:00:00+00    156.8000
1957-11-01 00:00:00+00    165.0000
1957-12-01 00:00:00+00    158.2000
1958-01-01 00:00:00+00    156.5333
1958-02-01 00:00:00+00    156.9500
1958-03-01 00:00:00+00    156.2000
1958-04-01 00:00:00+00    160.7500
1958-05-01 00:00:00+00    157.6667
1958-06-01 00:00:00+00    161.2500
1958-07-01 00:00:00+00    151.8333
1958-08-01 00:00:00+00    153.8333
1958-09-01 00:00:00+00    154.2833
1958-10-01 00:00:00+00    150.3833
1958-11-01 00:00:00+00    153.2000
1958-12-01 00:00:00+00    152.4667
1959-01-01 00:00:00+00    149.0500
1959-02-01 00:00:00+00    148.3833
1959-03-01 00:00:00+00    154.5500
1959-04-01 00:00:00+00    155.4667
1959-05-01 00:00:00+00    150.0833
1959-06-01 00:00:00+00    151.8667
1959-07-01 00:00:00+00    142.8333
1959-08-01 00:00:00+00    143.3333
1959-09-01 00:00:00+00    145.7500
1959-10-01 00:00:00+00    146.1667
1959-11-01 00:00:00+00    146.6667
1959-12-01 00:00:00+00    148.2833
1960-01-01 00:00:00+00    147.5833
1960-02-01 00:00:00+00    149.7167
1960-03-01 00:00:00+00    153.3667
1960-04-01 00:00:00+00    148.6333
1960-05-01 00:00:00+00    135.3333
1960-06-01 00:00:00+00    138.5000
1960-07-01 00:00:00+00    137.7500
1960-08-01 00:00:00+00    137.4500
1960-09-01 00:00:00+00    143.2000
1960-10-01 00:00:00+00    144.3000
1960-11-01 00:00:00+00    141.3333
1960-12-01 00:00:00+00    146.4667
1961-01-01 00:00:00+00    148.3333
1961-02-01 00:00:00+00    146.2833
1961-03-01 00:00:00+00    140.9500
1961-04-01 00:00:00+00    144.0500
1961-05-01 00:00:00+00    150.9167
1961-06-01 00:00:00+00    152.7000
1961-07-01 00:00:00+00    146.8667
1961-08-01 00:00:00+00    149.8333
1961-09-01 00:00:00+00    155.2500
1961-10-01 00:00:00+00    156.2167
1961-11-01 00:00:00+00    157.8000
1961-12-01 00:00:00+00    159.5500
1962-01-01 00:00:00+00    157.9500
1962-02-01 00:00:00+00    157.6167
1962-03-01 00:00:00+00    161.3000
1962-04-01 00:00:00+00    164.0333
1962-05-01 00:00:00+00    165.1167
1962-06-01 00:00:00+00    161.8833
1962-07-01 00:00:00+00    161.9667
1962-08-01 00:00:00+00    156.2167
1962-09-01 00:00:00+00    156.0500
1962-10-01 00:00:00+00    152.7167
1962-11-01 00:00:00+00    158.1333
1962-12-01 00:00:00+00    160.7167
1963-01-01 00:00:00+00    164.3667
1963-02-01 00:00:00+00    166.2833
1963-03-01 00:00:00+00    166.0833
1963-04-01 00:00:00+00    166.0833
1963-05-01 00:00:00+00    166.3333
1963-06-01 00:00:00+00    171.6667
1963-07-01 00:00:00+00    172.1667
1963-08-01 00:00:00+00    172.3667
1963-09-01 00:00:00+00    172.3333
1963-10-01 00:00:00+00    176.0333
1963-11-01 00:00:00+00    174.9667
1963-12-01 00:00:00+00    168.0000
1964-01-01 00:00:00+00    164.6333
1964-02-01 00:00:00+00    161.5000
1964-03-01 00:00:00+00    164.5500
1964-04-01 00:00:00+00    169.8833
1964-05-01 00:00:00+00    173.4167
1964-06-01 00:00:00+00    167.4500
1964-07-01 00:00:00+00    170.6667
1964-08-01 00:00:00+00    171.8333
1964-09-01 00:00:00+00    174.4667
1964-10-01 00:00:00+00    176.1167
1964-11-01 00:00:00+00    176.3333
1964-12-01 00:00:00+00    179.8333
1965-01-01 00:00:00+00    179.8333
1965-02-01 00:00:00+00    179.7000
1965-03-01 00:00:00+00    180.7167
1965-04-01 00:00:00+00    181.7167
1965-05-01 00:00:00+00    181.8000
1965-06-01 00:00:00+00    179.2000
1965-07-01 00:00:00+00    178.4500
1965-08-01 00:00:00+00    178.3333
1965-09-01 00:00:00+00    178.4167
1965-10-01 00:00:00+00    178.4500
1965-11-01 00:00:00+00    179.6333
1965-12-01 00:00:00+00    179.8667
1966-01-01 00:00:00+00    178.7000
1966-02-01 00:00:00+00    178.6667
1966-03-01 00:00:00+00    177.0833
1966-04-01 00:00:00+00    175.8333
1966-05-01 00:00:00+00    176.4667
1966-06-01 00:00:00+00    175.0000
1966-07-01 00:00:00+00    173.8333
1966-08-01 00:00:00+00    173.8333
1966-09-01 00:00:00+00    167.5833
1966-10-01 00:00:00+00    171.3333
1966-11-01 00:00:00+00    173.2000
1966-12-01 00:00:00+00    171.4500
1967-01-01 00:00:00+00    169.4667
1967-02-01 00:00:00+00    168.3333
1967-03-01 00:00:00+00    170.5333
1967-04-01 00:00:00+00    170.9500
1967-05-01 00:00:00+00    169.1167
1967-06-01 00:00:00+00    168.3667
1967-07-01 00:00:00+00    169.0500
1967-08-01 00:00:00+00    167.0833
1967-09-01 00:00:00+00    168.4500
1967-10-01 00:00:00+00    168.4167
1967-11-01 00:00:00+00    167.0500
1967-12-01 00:00:00+00    166.9167
1968-01-01 00:00:00+00    167.8000
1968-02-01 00:00:00+00    166.9667
1968-03-01 00:00:00+00    166.7000
1968-04-01 00:00:00+00    168.0000
1968-05-01 00:00:00+00    166.5833
1968-06-01 00:00:00+00    163.8833
1968-07-01 00:00:00+00    164.1667
1968-08-01 00:00:00+00    164.9167
1968-09-01 00:00:00+00    163.2833
1968-10-01 00:00:00+00    161.2500
1968-11-01 00:00:00+00    157.5833
1968-12-01 00:00:00+00    159.4167
1969-01-01 00:00:00+00    163.2167
1969-02-01 00:00:00+00    164.1333
1969-03-01 00:00:00+00    163.1167
1969-04-01 00:00:00+00    162.3667
1969-05-01 00:00:00+00    157.9500
1969-06-01 00:00:00+00    156.6333
1969-07-01 00:00:00+00    158.3333
1969-08-01 00:00:00+00    161.4500
1969-09-01 00:00:00+00    162.3000
1969-10-01 00:00:00+00    162.8833
1969-11-01 00:00:00+00    163.3000
1969-12-01 00:00:00+00    163.5000
1970-01-01 00:00:00+00    162.8667
1970-02-01 00:00:00+00    164.6667
1970-03-01 00:00:00+00    164.0500
1970-04-01 00:00:00+00    161.9500
1970-05-01 00:00:00+00    161.9667
1970-06-01 00:00:00+00    158.7833
1970-07-01 00:00:00+00    158.8667
1970-08-01 00:00:00+00    161.1667
1970-09-01 00:00:00+00    163.4667
1970-10-01 00:00:00+00    164.3000
1970-11-01 00:00:00+00    162.0000
1970-12-01 00:00:00+00    166.2500
1971-01-01 00:00:00+00    166.2500
1971-02-01 00:00:00+00    168.9167
1971-03-01 00:00:00+00    169.2833
1971-04-01 00:00:00+00    169.5333
1971-05-01 00:00:00+00    170.8667
1971-06-01 00:00:00+00    174.1167
1971-07-01 00:00:00+00    174.0333
1971-08-01 00:00:00+00    174.6167
1971-09-01 00:00:00+00    174.3000
1971-10-01 00:00:00+00    175.3833
1971-11-01 00:00:00+00    175.6167
1971-12-01 00:00:00+00    174.6667
1972-01-01 00:00:00+00    174.4667
1972-02-01 00:00:00+00    174.3667
1972-03-01 00:00:00+00    176.4167
1972-04-01 00:00:00+00    177.4167
1972-05-01 00:00:00+00    176.2167
1972-06-01 00:00:00+00    173.1167
1972-07-01 00:00:00+00    175.7833
1972-08-01 00:00:00+00    168.4667
1972-09-01 00:00:00+00    175.1667
1972-10-01 00:00:00+00    175.9500
1972-11-01 00:00:00+00    175.3667
1972-12-01 00:00:00+00    175.5000
1973-01-01 00:00:00+00    175.2500
1973-02-01 00:00:00+00    174.9500
1973-03-01 00:00:00+00    173.6167
1973-04-01 00:00:00+00    170.9667
1973-05-01 00:00:00+00    168.7167
1973-06-01 00:00:00+00    172.7833
1973-07-01 00:00:00+00    174.2000
1973-08-01 00:00:00+00    174.8833
1973-09-01 00:00:00+00    176.1333
1973-10-01 00:00:00+00    176.0833
1973-11-01 00:00:00+00    176.8000
1973-12-01 00:00:00+00    176.6333
1974-01-01 00:00:00+00    176.4667
1974-02-01 00:00:00+00    177.5333
1974-03-01 00:00:00+00    175.8667
1974-04-01 00:00:00+00    175.2167
1974-05-01 00:00:00+00    172.2500
1974-06-01 00:00:00+00    170.5333
1974-07-01 00:00:00+00    167.9500
1974-08-01 00:00:00+00    170.3333
1974-09-01 00:00:00+00    169.1667
1974-10-01 00:00:00+00    169.8000
1974-11-01 00:00:00+00    170.5333
1974-12-01 00:00:00+00    172.6333
1975-01-01 00:00:00+00    172.7000
1975-02-01 00:00:00+00    174.0833
1975-03-01 00:00:00+00    175.2167
1975-04-01 00:00:00+00    175.9500
1975-05-01 00:00:00+00    176.1333
1975-06-01 00:00:00+00    176.9500
1975-07-01 00:00:00+00    176.7500
1975-08-01 00:00:00+00    175.5500
1975-09-01 00:00:00+00    175.9500
1975-10-01 00:00:00+00    175.3667
1975-11-01 00:00:00+00    174.2167
1975-12-01 00:00:00+00    174.6167
1976-01-01 00:00:00+00    174.3000
1976-02-01 00:00:00+00    174.4667
1976-03-01 00:00:00+00    175.3833
1976-04-01 00:00:00+00    174.1333
1976-05-01 00:00:00+00    175.7000
1976-06-01 00:00:00+00    175.8667
1976-07-01 00:00:00+00    176.9500
1976-08-01 00:00:00+00    177.2167
1976-09-01 00:00:00+00    177.2000
1976-10-01 00:00:00+00    177.0833
1976-11-01 00:00:00+00    177.3000
1976-12-01 00:00:00+00    177.2167
1977-01-01 00:00:00+00    179.5333
1977-02-01 00:00:00+00    179.3833
1977-03-01 00:00:00+00    179.2000
1977-04-01 00:00:00+00    179.5000
1977-05-01 00:00:00+00    179.2833
1977-06-01 00:00:00+00    178.3000
1977-07-01 00:00:00+00    176.3833
1977-08-01 00:00:00+00    176.8833
1977-09-01 00:00:00+00    176.6167
1977-10-01 00:00:00+00    178.1333
1977-11-01 00:00:00+00    180.1333
1977-12-01 00:00:00+00    179.1667
1978-01-01 00:00:00+00    175.4167
1978-02-01 00:00:00+00    174.6167
1978-03-01 00:00:00+00    174.0000
1978-04-01 00:00:00+00    171.0000
1978-05-01 00:00:00+00    167.8000
1978-06-01 00:00:00+00    170.6667
1978-07-01 00:00:00+00    170.5000
1978-08-01 00:00:00+00    174.5833
1978-09-01 00:00:00+00    174.3333
1978-10-01 00:00:00+00    171.1167
1978-11-01 00:00:00+00    172.5000
1978-12-01 00:00:00+00    173.2167
1979-01-01 00:00:00+00    170.2500
1979-02-01 00:00:00+00    169.1167
1979-03-01 00:00:00+00    168.7000
1979-04-01 00:00:00+00    165.2500
1979-05-01 00:00:00+00    165.4500
1979-06-01 00:00:00+00    161.8000
1979-07-01 00:00:00+00    162.1333
1979-08-01 00:00:00+00    157.4167
1979-09-01 00:00:00+00    158.5500
1979-10-01 00:00:00+00    162.3667
1979-11-01 00:00:00+00    162.5500
1979-12-01 00:00:00+00    165.3833
1980-01-01 00:00:00+00    164.0333
1980-02-01 00:00:00+00    162.8333
1980-03-01 00:00:00+00    165.0500
1980-04-01 00:00:00+00    162.5000
1980-05-01 00:00:00+00    162.6667
1980-06-01 00:00:00+00    158.4500
1980-07-01 00:00:00+00    158.1167
1980-08-01 00:00:00+00    158.8667
1980-09-01 00:00:00+00    159.1167
1980-10-01 00:00:00+00    156.5333
1980-11-01 00:00:00+00    154.0500
1980-12-01 00:00:00+00    154.2000
1981-01-01 00:00:00+00    155.8333
1981-02-01 00:00:00+00    153.2000
1981-03-01 00:00:00+00    152.3333
1981-04-01 00:00:00+00    150.8833
1981-05-01 00:00:00+00    149.0000
1981-06-01 00:00:00+00    153.1667
1981-07-01 00:00:00+00    154.3000
1981-08-01 00:00:00+00    154.5333
1981-09-01 00:00:00+00    156.3833
1981-10-01 00:00:00+00    151.5000
1981-11-01 00:00:00+00    152.2000
1981-12-01 00:00:00+00    155.9500
1982-01-01 00:00:00+00    159.5833
1982-02-01 00:00:00+00    154.4167
1982-03-01 00:00:00+00    158.7833
1982-04-01 00:00:00+00    160.0000
1982-05-01 00:00:00+00    161.3333
1982-06-01 00:00:00+00    154.0333
1982-07-01 00:00:00+00    147.5333
1982-08-01 00:00:00+00    147.9500
1982-09-01 00:00:00+00    143.9167
1982-10-01 00:00:00+00    147.5833
1982-11-01 00:00:00+00    149.3667
1982-12-01 00:00:00+00    147.0333
1983-01-01 00:00:00+00    150.8833
1983-02-01 00:00:00+00    154.3333
1983-03-01 00:00:00+00    157.9167
1983-04-01 00:00:00+00    158.1667
1983-05-01 00:00:00+00    153.7000
1983-06-01 00:00:00+00    156.7500
1983-07-01 00:00:00+00    160.2833
1983-08-01 00:00:00+00    160.2167
1983-09-01 00:00:00+00    161.0333
1983-10-01 00:00:00+00    161.2000
1983-11-01 00:00:00+00    162.0833
1983-12-01 00:00:00+00    162.0000
1984-01-01 00:00:00+00    163.8833
1984-02-01 00:00:00+00    163.0333
1984-03-01 00:00:00+00    160.7833
1984-04-01 00:00:00+00    159.1333
1984-05-01 00:00:00+00    155.8667
1984-06-01 00:00:00+00    159.1333
1984-07-01 00:00:00+00    160.4500
1984-08-01 00:00:00+00    162.8000
1984-09-01 00:00:00+00    163.6333
1984-10-01 00:00:00+00    163.3333
1984-11-01 00:00:00+00    163.0000
1984-12-01 00:00:00+00    163.5500
1985-01-01 00:00:00+00    164.8667
1985-02-01 00:00:00+00    167.6167
1985-03-01 00:00:00+00    168.4500
1985-04-01 00:00:00+00    169.0833
1985-05-01 00:00:00+00    169.7000
1985-06-01 00:00:00+00    172.2833
1985-07-01 00:00:00+00    171.5833
1985-08-01 00:00:00+00    172.1333
1985-09-01 00:00:00+00    173.7500
1985-10-01 00:00:00+00    173.4167
1985-11-01 00:00:00+00    174.4667
1985-12-01 00:00:00+00    174.5833
1986-01-01 00:00:00+00    174.5833
1986-02-01 00:00:00+00    170.4500
1986-03-01 00:00:00+00    172.7833
1986-04-01 00:00:00+00    177.2500
1986-05-01 00:00:00+00    178.3333
1986-06-01 00:00:00+00    178.2000
1986-07-01 00:00:00+00    178.7500
1986-08-01 00:00:00+00    178.0833
1986-09-01 00:00:00+00    179.0500
1986-10-01 00:00:00+00    179.5000
1986-11-01 00:00:00+00    176.7167
1986-12-01 00:00:00+00    180.0000
1987-01-01 00:00:00+00    181.5500
1987-02-01 00:00:00+00    183.3833
1987-03-01 00:00:00+00    182.7833
1987-04-01 00:00:00+00    182.7833
1987-05-01 00:00:00+00    181.1333
1987-06-01 00:00:00+00    178.4667
1987-07-01 00:00:00+00    177.0500
1987-08-01 00:00:00+00    175.5000
1987-09-01 00:00:00+00    174.2000
1987-10-01 00:00:00+00    174.2500
1987-11-01 00:00:00+00    172.1333
1987-12-01 00:00:00+00    172.1333
1988-01-01 00:00:00+00    166.4500
1988-02-01 00:00:00+00    167.9500
1988-03-01 00:00:00+00    169.6667
1988-04-01 00:00:00+00    168.5833
1988-05-01 00:00:00+00    169.6333
1988-06-01 00:00:00+00    167.5833
1988-07-01 00:00:00+00    165.1167
1988-08-01 00:00:00+00    164.5000
1988-09-01 00:00:00+00    164.8000
1988-10-01 00:00:00+00    163.2500
1988-11-01 00:00:00+00    163.1167
1988-12-01 00:00:00+00    160.0333
1989-01-01 00:00:00+00    157.4667
1989-02-01 00:00:00+00    157.6667
1989-03-01 00:00:00+00    149.5833
1989-04-01 00:00:00+00    151.1333
1989-05-01 00:00:00+00    147.5500
1989-06-01 00:00:00+00    147.9667
1989-07-01 00:00:00+00    151.9167
1989-08-01 00:00:00+00    149.7167
1989-09-01 00:00:00+00    149.3833
1989-10-01 00:00:00+00    145.2167
1989-11-01 00:00:00+00    143.5333
1989-12-01 00:00:00+00    145.6167
1990-01-01 00:00:00+00    148.4167
1990-02-01 00:00:00+00    149.4500
1990-03-01 00:00:00+00    147.5833
1990-04-01 00:00:00+00    144.3667
1990-05-01 00:00:00+00    143.8833
1990-06-01 00:00:00+00    143.7000
1990-07-01 00:00:00+00    147.8833
1990-08-01 00:00:00+00    147.1333
1990-09-01 00:00:00+00    149.5000
1990-10-01 00:00:00+00    151.9667
1990-11-01 00:00:00+00    155.3000
1990-12-01 00:00:00+00    155.1167
1991-01-01 00:00:00+00    158.1667
1991-02-01 00:00:00+00    159.0333
1991-03-01 00:00:00+00    148.7833
1991-04-01 00:00:00+00    150.1667
1991-05-01 00:00:00+00    150.8833
1991-06-01 00:00:00+00    134.4167
1991-07-01 00:00:00+00    135.7167
1991-08-01 00:00:00+00    143.4667
1991-09-01 00:00:00+00    149.7167
1991-10-01 00:00:00+00    151.2167
1991-11-01 00:00:00+00    151.8333
1991-12-01 00:00:00+00    153.7500
1992-01-01 00:00:00+00    154.2500
1992-02-01 00:00:00+00    152.7833
1992-03-01 00:00:00+00    156.2167
1992-04-01 00:00:00+00    160.1667
1992-05-01 00:00:00+00    158.7000
1992-06-01 00:00:00+00    163.0333
1992-07-01 00:00:00+00    165.4500
1992-08-01 00:00:00+00    165.0500
1992-09-01 00:00:00+00    164.0333
1992-10-01 00:00:00+00    166.5000
1992-11-01 00:00:00+00    165.5500
1992-12-01 00:00:00+00    168.0000
1993-01-01 00:00:00+00    166.5500
1993-02-01 00:00:00+00    166.6667
1993-03-01 00:00:00+00    164.9667
1993-04-01 00:00:00+00    167.3833
1993-05-01 00:00:00+00    168.3667
1993-06-01 00:00:00+00    169.2833
1993-07-01 00:00:00+00    169.6667
1993-08-01 00:00:00+00    169.4667
1993-09-01 00:00:00+00    170.2500
1993-10-01 00:00:00+00    170.4667
1993-11-01 00:00:00+00    170.6333
1993-12-01 00:00:00+00    170.7167
1994-01-01 00:00:00+00    170.8333
1994-02-01 00:00:00+00    166.6667
1994-03-01 00:00:00+00    168.1167
1994-04-01 00:00:00+00    168.8667
1994-05-01 00:00:00+00    169.7833
1994-06-01 00:00:00+00    169.7000
1994-07-01 00:00:00+00    170.9167
1994-08-01 00:00:00+00    171.7500
1994-09-01 00:00:00+00    173.0000
1994-10-01 00:00:00+00    172.1667
1994-11-01 00:00:00+00    172.9500
1994-12-01 00:00:00+00    172.5333
1995-01-01 00:00:00+00    172.9167
1995-02-01 00:00:00+00    173.9500
1995-03-01 00:00:00+00    172.3667
1995-04-01 00:00:00+00    174.5333
1995-05-01 00:00:00+00    174.3833
1995-06-01 00:00:00+00    173.8000
1995-07-01 00:00:00+00    173.8667
1995-08-01 00:00:00+00    174.7833
1995-09-01 00:00:00+00    174.9167
1995-10-01 00:00:00+00    174.3833
1995-11-01 00:00:00+00    175.2000
1995-12-01 00:00:00+00    175.4167
1996-01-01 00:00:00+00    174.9500
1996-02-01 00:00:00+00    175.9667
1996-03-01 00:00:00+00    175.8000
1996-04-01 00:00:00+00    175.7000
1996-05-01 00:00:00+00    176.2000
1996-06-01 00:00:00+00    175.7500
1996-07-01 00:00:00+00    176.0500
1996-08-01 00:00:00+00    176.2000
1996-09-01 00:00:00+00    176.1333
1996-10-01 00:00:00+00    175.1333
1996-11-01 00:00:00+00    174.9500
1996-12-01 00:00:00+00    174.8667
1997-01-01 00:00:00+00    175.3333
1997-02-01 00:00:00+00    176.1667
1997-03-01 00:00:00+00    175.3333
1997-04-01 00:00:00+00    175.3833
1997-05-01 00:00:00+00    175.6333
1997-06-01 00:00:00+00    176.0000
1997-07-01 00:00:00+00    175.5500
1997-08-01 00:00:00+00    176.3000
1997-09-01 00:00:00+00    175.5333
1997-10-01 00:00:00+00    174.8333
1997-11-01 00:00:00+00    174.7000
1997-12-01 00:00:00+00    175.1333
1998-01-01 00:00:00+00    175.1333
1998-02-01 00:00:00+00    174.7833
1998-03-01 00:00:00+00    175.3333
1998-04-01 00:00:00+00    171.6167
1998-05-01 00:00:00+00    168.5833
1998-06-01 00:00:00+00    169.4667
1998-07-01 00:00:00+00    170.9500
1998-08-01 00:00:00+00    167.7500
1998-09-01 00:00:00+00    170.7500
1998-10-01 00:00:00+00    172.7833
1998-11-01 00:00:00+00    172.0000
1998-12-01 00:00:00+00    170.0333
1999-01-01 00:00:00+00    167.6167
1999-02-01 00:00:00+00    168.0000
1999-03-01 00:00:00+00    167.8000
1999-04-01 00:00:00+00    168.3833
1999-05-01 00:00:00+00    167.5500
1999-06-01 00:00:00+00    169.4500
1999-07-01 00:00:00+00    170.6167
1999-08-01 00:00:00+00    167.3000
1999-09-01 00:00:00+00    163.8000
1999-10-01 00:00:00+00    161.2500
1999-11-01 00:00:00+00    160.5833
1999-12-01 00:00:00+00    160.1333
2000-01-01 00:00:00+00    160.4500
2000-02-01 00:00:00+00    159.1167
2000-03-01 00:00:00+00    156.9500
2000-04-01 00:00:00+00    157.2500
2000-05-01 00:00:00+00    153.8000
2000-06-01 00:00:00+00    151.1333
2000-07-01 00:00:00+00    148.3000
2000-08-01 00:00:00+00    150.7000
2000-09-01 00:00:00+00    152.4167
2000-10-01 00:00:00+00    155.5833
2000-11-01 00:00:00+00    152.2500
2000-12-01 00:00:00+00    153.9500
2001-01-01 00:00:00+00    156.6333
2001-02-01 00:00:00+00    159.2833
2001-03-01 00:00:00+00    161.2500
2001-04-01 00:00:00+00    153.0333
2001-05-01 00:00:00+00    156.4167
2001-06-01 00:00:00+00    157.7167
2001-07-01 00:00:00+00    158.5333
2001-08-01 00:00:00+00    155.6167
2001-09-01 00:00:00+00    155.9500
2001-10-01 00:00:00+00    153.5333
2001-11-01 00:00:00+00    156.5833
2001-12-01 00:00:00+00    158.1667
2002-01-01 00:00:00+00    153.8833
2002-02-01 00:00:00+00    158.3667
2002-03-01 00:00:00+00    156.3333
2002-04-01 00:00:00+00    155.9167
2002-05-01 00:00:00+00    155.8333
2002-06-01 00:00:00+00    156.9667
2002-07-01 00:00:00+00    154.5000
2002-08-01 00:00:00+00    151.5333
2002-09-01 00:00:00+00    154.3333
2002-10-01 00:00:00+00    155.5333
2002-11-01 00:00:00+00    153.1167
2002-12-01 00:00:00+00    154.3833
2003-01-01 00:00:00+00    155.9167
2003-02-01 00:00:00+00    156.2167
2003-03-01 00:00:00+00    156.2000
2003-04-01 00:00:00+00    155.2000
2003-05-01 00:00:00+00    153.9667
2003-06-01 00:00:00+00    150.7500
2003-07-01 00:00:00+00    153.6667
2003-08-01 00:00:00+00    155.0500
2003-09-01 00:00:00+00    156.2000
2003-10-01 00:00:00+00    154.0000
2003-11-01 00:00:00+00    145.4167
2003-12-01 00:00:00+00    155.4167
2004-01-01 00:00:00+00    154.9667
2004-02-01 00:00:00+00    159.1667
2004-03-01 00:00:00+00    161.3833
2004-04-01 00:00:00+00    162.6167
2004-05-01 00:00:00+00    164.1167
2004-06-01 00:00:00+00    163.9167
2004-07-01 00:00:00+00    162.3667
2004-08-01 00:00:00+00    163.1667
2004-09-01 00:00:00+00    163.8333
2004-10-01 00:00:00+00    167.4667
2004-11-01 00:00:00+00    163.5000
2004-12-01 00:00:00+00    164.5333
2005-01-01 00:00:00+00    158.9667
2005-02-01 00:00:00+00    163.8000
2005-03-01 00:00:00+00    164.7500
2005-04-01 00:00:00+00    165.8333
2005-05-01 00:00:00+00    162.2500
2005-06-01 00:00:00+00    164.8833
2005-07-01 00:00:00+00    163.8667
2005-08-01 00:00:00+00    162.4167
2005-09-01 00:00:00+00    158.4667
2005-10-01 00:00:00+00    165.4500
2005-11-01 00:00:00+00    167.8333
2005-12-01 00:00:00+00    168.2000
2006-01-01 00:00:00+00    168.6333
2006-02-01 00:00:00+00    171.1333
2006-03-01 00:00:00+00    171.9667
2006-04-01 00:00:00+00    172.1667
2006-05-01 00:00:00+00    172.2833
2006-06-01 00:00:00+00    172.1167
2006-07-01 00:00:00+00    171.2167
2006-08-01 00:00:00+00    172.3667
2006-09-01 00:00:00+00    171.8000
2006-10-01 00:00:00+00    173.0500
2006-11-01 00:00:00+00    173.2500
2006-12-01 00:00:00+00    170.3667
2007-01-01 00:00:00+00    174.1667
2007-02-01 00:00:00+00    174.1167
2007-03-01 00:00:00+00    174.4667
2007-04-01 00:00:00+00    174.9500
2007-05-01 00:00:00+00    176.0000
2007-06-01 00:00:00+00    175.5000
2007-07-01 00:00:00+00    175.4500
2007-08-01 00:00:00+00    175.1333
2007-09-01 00:00:00+00    175.3667
2007-10-01 00:00:00+00    175.3833
2007-11-01 00:00:00+00    176.0000
2007-12-01 00:00:00+00    176.5833
2008-01-01 00:00:00+00    175.7500
2008-02-01 00:00:00+00    175.3000
2008-03-01 00:00:00+00    176.0833
2008-04-01 00:00:00+00    175.3833
2008-05-01 00:00:00+00    174.4500
2008-06-01 00:00:00+00    174.7500
2008-07-01 00:00:00+00    175.1667
2008-08-01 00:00:00+00    176.1333
2008-09-01 00:00:00+00    176.6333
2008-10-01 00:00:00+00    177.1667
2008-11-01 00:00:00+00    178.2000
2008-12-01 00:00:00+00    178.9167
2009-01-01 00:00:00+00    179.3833
2009-02-01 00:00:00+00    179.8000
2009-03-01 00:00:00+00    179.9167
2009-04-01 00:00:00+00    179.9667
2009-05-01 00:00:00+00    179.8333
2009-06-01 00:00:00+00    180.5000
2009-07-01 00:00:00+00    181.0333
2009-08-01 00:00:00+00    180.5833
2009-09-01 00:00:00+00    180.4500
2009-10-01 00:00:00+00    183.2000
2009-11-01 00:00:00+00    182.3667
2009-12-01 00:00:00+00    182.6000
2010-01-01 00:00:00+00    182.6833
2010-02-01 00:00:00+00    179.9333
2010-03-01 00:00:00+00    181.1000
2010-04-01 00:00:00+00    178.8167
2010-05-01 00:00:00+00    178.2500
2010-06-01 00:00:00+00    178.1333
2010-07-01 00:00:00+00    178.5167
2010-08-01 00:00:00+00    174.5333
2010-09-01 00:00:00+00    174.1833
2010-10-01 00:00:00+00    174.5667
2010-11-01 00:00:00+00    174.3833
2010-12-01 00:00:00+00    174.0500
2011-01-01 00:00:00+00    175.1833
2011-02-01 00:00:00+00    175.1667
2011-03-01 00:00:00+00    172.5000
2011-04-01 00:00:00+00    168.9333
2011-05-01 00:00:00+00    171.0833
2011-06-01 00:00:00+00    167.2667
2011-07-01 00:00:00+00    169.1667
2011-08-01 00:00:00+00    168.6833
2011-09-01 00:00:00+00    168.9833
2011-10-01 00:00:00+00    169.2667
2011-11-01 00:00:00+00    169.5833
2011-12-01 00:00:00+00    172.4333
2012-01-01 00:00:00+00    171.3167
2012-02-01 00:00:00+00    169.1333
2012-03-01 00:00:00+00    163.8667
2012-04-01 00:00:00+00    169.7333
2012-05-01 00:00:00+00    169.8000
2012-06-01 00:00:00+00    167.8667
2012-07-01 00:00:00+00    163.2833
2012-08-01 00:00:00+00    164.2333
2012-09-01 00:00:00+00    166.1833
2012-10-01 00:00:00+00    165.9833
2012-11-01 00:00:00+00    166.2500
2012-12-01 00:00:00+00    167.2000
2013-01-01 00:00:00+00    168.1500
2013-02-01 00:00:00+00    168.7500
2013-03-01 00:00:00+00    166.8833
2013-04-01 00:00:00+00    166.7833
2013-05-01 00:00:00+00    163.1167
2013-06-01 00:00:00+00    163.2000
2013-07-01 00:00:00+00    164.2333
2013-08-01 00:00:00+00    165.4167
2013-09-01 00:00:00+00    165.0833
2013-10-01 00:00:00+00    166.1667
2013-11-01 00:00:00+00    165.2833
2013-12-01 00:00:00+00    164.3500
2014-01-01 00:00:00+00    164.2500
2014-02-01 00:00:00+00    161.9500
2014-03-01 00:00:00+00    162.2667
2014-04-01 00:00:00+00    163.2667
2014-05-01 00:00:00+00    164.9833
2014-06-01 00:00:00+00    162.9667
2014-07-01 00:00:00+00    163.9000
2014-08-01 00:00:00+00    165.4333
2014-09-01 00:00:00+00    163.6167
2014-10-01 00:00:00+00    163.2833
2014-11-01 00:00:00+00    162.7500
2014-12-01 00:00:00+00    159.8167
2015-01-01 00:00:00+00    161.3833
2015-02-01 00:00:00+00    162.9667
2015-03-01 00:00:00+00    160.7667
2015-04-01 00:00:00+00    161.8500
2015-05-01 00:00:00+00    163.7000
2015-06-01 00:00:00+00    162.7833
2015-07-01 00:00:00+00    164.9500
2015-08-01 00:00:00+00    165.0833
2015-09-01 00:00:00+00    165.4500
2015-10-01 00:00:00+00    165.7333
2015-11-01 00:00:00+00    166.3000
2015-12-01 00:00:00+00    167.1167
2016-01-01 00:00:00+00    169.2667
2016-02-01 00:00:00+00    171.8000
2016-03-01 00:00:00+00    171.3167
2016-04-01 00:00:00+00    171.6500
2016-05-01 00:00:00+00    171.2333
2016-06-01 00:00:00+00    171.7000
2016-07-01 00:00:00+00    171.0667
2016-08-01 00:00:00+00    171.6833
2016-09-01 00:00:00+00    173.1667
2016-10-01 00:00:00+00    174.3333
2016-11-01 00:00:00+00    175.2167
2016-12-01 00:00:00+00    174.8000
2017-01-01 00:00:00+00    176.5167
2017-02-01 00:00:00+00    177.1833
2017-03-01 00:00:00+00    177.2833
2017-04-01 00:00:00+00      0.0000
2017-05-01 00:00:00+00      0.0000
2017-06-01 00:00:00+00      0.0000
2017-07-01 00:00:00+00      0.0000
2017-08-01 00:00:00+00      0.0000
2017-09-01 00:00:00+00      0.0000
2017-10-01 00:00:00+00      0.0000
2017-11-01 00:00:00+00      0.0000
2017-12-01 00:00:00+00      0.0000
