1950-01-01 00:00:00+00      0.0000
1950-02-01 00:00:00+00      0.0000
1950-03-01 00:00:00+00      0.0000
1950-04-01 00:00:00+00      0.0000
1950-05-01 00:00:00+00      0.0000
1950-06-01 00:00:00+00      0.0000
1950-07-01 00:00:00+00      0.0000
1950-08-01 00:00:00+00      0.0000
1950-09-01 00:00:00+00      0.0000
1950-10-01 00:00:00+00      0.0000
1950-11-01 00:00:00+00      0.0000
1950-12-01 00:00:00+00      0.0000
1951-01-01 00:00:00+00      0.0000
1951-02-01 00:00:00+00      0.0000
1951-03-01 00:00:00+00      0.0000
1951-04-01 00:00:00+00      0.0000
1951-05-01 00:00:00+00      0.0000
1951-06-01 00:00:00+00      0.0000
1951-07-01 00:00:00+00      0.0000
1951-08-01 00:00:00+00      0.0000
1951-09-01 00:00:00+00      0.0000
1951-10-01 00:00:00+00      0.0000
1951-11-01 00:00:00+00      0.0000
1951-12-01 00:00:00+00      0.0000
1952-01-01 00:00:00+00      0.0000
1952-02-01 00:00:00+00      0.0000
1952-03-01 00:00:00+00      0.0000
1952-04-01 00:00:00+00      0.0000
1952-05-01 00:00:00+00      0.0000
1952-06-01 00:00:00+00      0.0000
1952-07-01 00:00:00+00      0.0000
1952-08-01 00:00:00+00      0.0000
1952-09-01 00:00:00+00      0.0000
1952-10-01 00:00:00+00      0.0000
1952-11-01 00:00:00+00      0.0000
1952-12-01 00:00:00+00      0.0000
1953-01-01 00:00:00+00      0.0000
1953-02-01 00:00:00+00      0.0000
1953-03-01 00:00:00+00      0.0000
1953-04-01 00:00:00+00      0.0000
1953-05-01 00:00:00+00      0.0000
1953-06-01 00:00:00+00      0.0000
1953-07-01 00:00:00+00      0.0000
1953-08-01 00:00:00+00      0.0000
1953-09-01 00:00:00+00      0.0000
1953-10-01 00:00:00+00      0.0000
1953-11-01 00:00:00+00      0.0000
1953-12-01 00:00:00+00      0.0000
1954-01-01 00:00:00+00      0.0000
1954-02-01 00:00:00+00      0.0000
1954-03-01 00:00:00+00      0.0000
1954-04-01 00:00:00+00      0.0000
1954-05-01 00:00:00+00      0.0000
1954-06-01 00:00:00+00      0.0000
1954-07-01 00:00:00+00      0.0000
1954-08-01 00:00:00+00      0.0000
1954-09-01 00:00:00+00      0.0000
1954-10-01 00:00:00+00      0.0000
1954-11-01 00:00:00+00      0.0000
1954-12-01 00:00:00+00      0.0000
1955-01-01 00:00:00+00      0.0000
1955-02-01 00:00:00+00      0.0000
1955-03-01 00:00:00+00      0.0000
1955-04-01 00:00:00+00      0.0000
1955-05-01 00:00:00+00      0.0000
1955-06-01 00:00:00+00      0.0000
1955-07-01 00:00:00+00      0.0000
1955-08-01 00:00:00+00      0.0000
1955-09-01 00:00:00+00      0.0000
1955-10-01 00:00:00+00      0.0000
1955-11-01 00:00:00+00      0.0000
1955-12-01 00:00:00+00      0.0000
1956-01-01 00:00:00+00      0.0000
1956-02-01 00:00:00+00      0.0000
1956-03-01 00:00:00+00      0.0000
1956-04-01 00:00:00+00      0.0000
1956-05-01 00:00:00+00      0.0000
1956-06-01 00:00:00+00      0.0000
1956-07-01 00:00:00+00      0.0000
1956-08-01 00:00:00+00      0.0000
1956-09-01 00:00:00+00      0.0000
1956-10-01 00:00:00+00      0.0000
1956-11-01 00:00:00+00      0.0000
1956-12-01 00:00:00+00      0.0000
1957-01-01 00:00:00+00      0.0000
1957-02-01 00:00:00+00      0.0000
1957-03-01 00:00:00+00      0.0000
1957-04-01 00:00:00+00      0.0000
1957-05-01 00:00:00+00      0.0000
1957-06-01 00:00:00+00      0.0000
1957-07-01 00:00:00+00      0.0000
1957-08-01 00:00:00+00      0.0000
1957-09-01 00:00:00+00      0.0000
1957-10-01 00:00:00+00      0.0000
1957-11-01 00:00:00+00      0.0000
1957-12-01 00:00:00+00      0.0000
1958-01-01 00:00:00+00      0.0000
1958-02-01 00:00:00+00      0.0000
1958-03-01 00:00:00+00      0.0000
1958-04-01 00:00:00+00      0.0000
1958-05-01 00:00:00+00      0.0000
1958-06-01 00:00:00+00      0.0000
1958-07-01 00:00:00+00      0.0000
1958-08-01 00:00:00+00      0.0000
1958-09-01 00:00:00+00      0.0000
1958-10-01 00:00:00+00      0.0000
1958-11-01 00:00:00+00      0.0000
1958-12-01 00:00:00+00      0.0000
1959-01-01 00:00:00+00      0.0000
1959-02-01 00:00:00+00      0.0000
1959-03-01 00:00:00+00      0.0000
1959-04-01 00:00:00+00      0.0000
1959-05-01 00:00:00+00      0.0000
1959-06-01 00:00:00+00      0.0000
1959-07-01 00:00:00+00      0.0000
1959-08-01 00:00:00+00      0.0000
1959-09-01 00:00:00+00      0.0000
1959-10-01 00:00:00+00      0.0000
1959-11-01 00:00:00+00      0.0000
1959-12-01 00:00:00+00      0.0000
1960-01-01 00:00:00+00      0.0000
1960-02-01 00:00:00+00      0.0000
1960-03-01 00:00:00+00      0.0000
1960-04-01 00:00:00+00      0.0000
1960-05-01 00:00:00+00    231.2778
1960-06-01 00:00:00+00    235.8333
1960-07-01 00:00:00+00    233.1389
1960-08-01 00:00:00+00    238.7500
1960-09-01 00:00:00+00    238.2222
1960-10-01 00:00:00+00    237.1944
1960-11-01 00:00:00+00    235.6667
1960-12-01 00:00:00+00    234.5278
1961-01-01 00:00:00+00    242.5556
1961-02-01 00:00:00+00    246.1111
1961-03-01 00:00:00+00    245.7222
1961-04-01 00:00:00+00    248.0278
1961-05-01 00:00:00+00    249.9167
1961-06-01 00:00:00+00    248.7500
1961-07-01 00:00:00+00    240.5833
1961-08-01 00:00:00+00    246.8889
1961-09-01 00:00:00+00    249.0556
1961-10-01 00:00:00+00    250.5000
1961-11-01 00:00:00+00    255.4444
1961-12-01 00:00:00+00    254.8611
1962-01-01 00:00:00+00    257.8611
1962-02-01 00:00:00+00    253.6389
1962-03-01 00:00:00+00    252.6111
1962-04-01 00:00:00+00    249.5556
1962-05-01 00:00:00+00    253.3333
1962-06-01 00:00:00+00    253.6389
1962-07-01 00:00:00+00    255.7778
1962-08-01 00:00:00+00    254.7500
1962-09-01 00:00:00+00    251.9722
1962-10-01 00:00:00+00    250.9722
1962-11-01 00:00:00+00    251.8611
1962-12-01 00:00:00+00    252.1667
1963-01-01 00:00:00+00    256.3333
1963-02-01 00:00:00+00    257.0833
1963-03-01 00:00:00+00    255.9722
1963-04-01 00:00:00+00    258.1389
1963-05-01 00:00:00+00    256.9167
1963-06-01 00:00:00+00    259.1111
1963-07-01 00:00:00+00    259.6944
1963-08-01 00:00:00+00    260.4722
1963-09-01 00:00:00+00    257.1389
1963-10-01 00:00:00+00    259.3056
1963-11-01 00:00:00+00    260.8889
1963-12-01 00:00:00+00    262.0556
1964-01-01 00:00:00+00    266.0278
1964-02-01 00:00:00+00    262.1667
1964-03-01 00:00:00+00    261.4722
1964-04-01 00:00:00+00    263.3056
1964-05-01 00:00:00+00    264.6944
1964-06-01 00:00:00+00    265.7222
1964-07-01 00:00:00+00    265.9444
1964-08-01 00:00:00+00    266.5833
1964-09-01 00:00:00+00    267.8333
1964-10-01 00:00:00+00    267.5000
1964-11-01 00:00:00+00    266.8333
1964-12-01 00:00:00+00    270.0278
1965-01-01 00:00:00+00    269.9167
1965-02-01 00:00:00+00    269.5000
1965-03-01 00:00:00+00    271.9167
1965-04-01 00:00:00+00    273.3889
1965-05-01 00:00:00+00    273.7500
1965-06-01 00:00:00+00    270.7500
1965-07-01 00:00:00+00    269.6944
1965-08-01 00:00:00+00    270.1111
1965-09-01 00:00:00+00    270.4444
1965-10-01 00:00:00+00    270.6667
1965-11-01 00:00:00+00    272.2222
1965-12-01 00:00:00+00    271.4722
1966-01-01 00:00:00+00    270.0000
1966-02-01 00:00:00+00    269.5000
1966-03-01 00:00:00+00    266.5833
1966-04-01 00:00:00+00    265.6389
1966-05-01 00:00:00+00    267.9722
1966-06-01 00:00:00+00    265.3056
1966-07-01 00:00:00+00    262.9167
1966-08-01 00:00:00+00    264.0833
1966-09-01 00:00:00+00    252.5278
1966-10-01 00:00:00+00    258.7222
1966-11-01 00:00:00+00    258.7500
1966-12-01 00:00:00+00    256.4444
1967-01-01 00:00:00+00    253.8333
1967-02-01 00:00:00+00    251.3889
1967-03-01 00:00:00+00    255.4722
1967-04-01 00:00:00+00    256.0833
1967-05-01 00:00:00+00    253.2778
1967-06-01 00:00:00+00    252.2500
1967-07-01 00:00:00+00    254.8889
1967-08-01 00:00:00+00    253.0833
1967-09-01 00:00:00+00    252.3056
1967-10-01 00:00:00+00    253.2500
1967-11-01 00:00:00+00    249.0556
1967-12-01 00:00:00+00    248.6111
1968-01-01 00:00:00+00    250.4444
1968-02-01 00:00:00+00    248.9444
1968-03-01 00:00:00+00    248.3333
1968-04-01 00:00:00+00    249.6389
1968-05-01 00:00:00+00    247.2222
1968-06-01 00:00:00+00    244.4444
1968-07-01 00:00:00+00    245.9722
1968-08-01 00:00:00+00    246.7222
1968-09-01 00:00:00+00    244.6111
1968-10-01 00:00:00+00    240.5000
1968-11-01 00:00:00+00    233.6667
1968-12-01 00:00:00+00    236.7778
1969-01-01 00:00:00+00    244.6111
1969-02-01 00:00:00+00    245.7778
1969-03-01 00:00:00+00    243.6667
1969-04-01 00:00:00+00    243.1111
1969-05-01 00:00:00+00    237.3056
1969-06-01 00:00:00+00    235.0278
1969-07-01 00:00:00+00    238.4444
1969-08-01 00:00:00+00    242.6944
1969-09-01 00:00:00+00    244.7222
1969-10-01 00:00:00+00    245.1667
1969-11-01 00:00:00+00    244.9167
1969-12-01 00:00:00+00    244.3056
1970-01-01 00:00:00+00    243.4722
1970-02-01 00:00:00+00    245.6667
1970-03-01 00:00:00+00    244.8333
1970-04-01 00:00:00+00    242.0833
1970-05-01 00:00:00+00    243.0556
1970-06-01 00:00:00+00    237.6944
1970-07-01 00:00:00+00    238.1111
1970-08-01 00:00:00+00    241.6111
1970-09-01 00:00:00+00    246.1944
1970-10-01 00:00:00+00    246.7222
1970-11-01 00:00:00+00    243.9722
1970-12-01 00:00:00+00    249.3611
1971-01-01 00:00:00+00    248.7500
1971-02-01 00:00:00+00    253.8056
1971-03-01 00:00:00+00    255.0278
1971-04-01 00:00:00+00    255.4444
1971-05-01 00:00:00+00    257.1389
1971-06-01 00:00:00+00    263.1389
1971-07-01 00:00:00+00    264.2500
1971-08-01 00:00:00+00    265.6944
1971-09-01 00:00:00+00    265.7222
1971-10-01 00:00:00+00    267.3889
1971-11-01 00:00:00+00    266.9444
1971-12-01 00:00:00+00    265.6667
1972-01-01 00:00:00+00    263.8333
1972-02-01 00:00:00+00    264.6944
1972-03-01 00:00:00+00    267.4722
1972-04-01 00:00:00+00    269.3333
1972-05-01 00:00:00+00    268.2500
1972-06-01 00:00:00+00    263.5556
1972-07-01 00:00:00+00    268.6667
1972-08-01 00:00:00+00    256.2222
1972-09-01 00:00:00+00    267.1111
1972-10-01 00:00:00+00    268.9167
1972-11-01 00:00:00+00    266.7500
1972-12-01 00:00:00+00    267.1111
1973-01-01 00:00:00+00    266.6111
1973-02-01 00:00:00+00    266.3889
1973-03-01 00:00:00+00    264.8056
1973-04-01 00:00:00+00    259.7778
1973-05-01 00:00:00+00    256.6389
1973-06-01 00:00:00+00    263.0000
1973-07-01 00:00:00+00    265.7500
1973-08-01 00:00:00+00    267.9722
1973-09-01 00:00:00+00    270.1944
1973-10-01 00:00:00+00    270.7500
1973-11-01 00:00:00+00    270.0556
1973-12-01 00:00:00+00    269.8611
1974-01-01 00:00:00+00    269.8611
1974-02-01 00:00:00+00    271.2778
1974-03-01 00:00:00+00    268.3333
1974-04-01 00:00:00+00    266.9444
1974-05-01 00:00:00+00    262.2222
1974-06-01 00:00:00+00    259.8611
1974-07-01 00:00:00+00    256.7500
1974-08-01 00:00:00+00    261.2500
1974-09-01 00:00:00+00    258.1944
1974-10-01 00:00:00+00    257.9167
1974-11-01 00:00:00+00    258.8056
1974-12-01 00:00:00+00    263.1667
1975-01-01 00:00:00+00    263.8333
1975-02-01 00:00:00+00    266.5556
1975-03-01 00:00:00+00    267.0000
1975-04-01 00:00:00+00    269.3611
1975-05-01 00:00:00+00    269.8056
1975-06-01 00:00:00+00    271.4167
1975-07-01 00:00:00+00    271.9722
1975-08-01 00:00:00+00    270.0833
1975-09-01 00:00:00+00    270.1944
1975-10-01 00:00:00+00    269.6944
1975-11-01 00:00:00+00    266.3333
1975-12-01 00:00:00+00    267.3056
1976-01-01 00:00:00+00    267.4722
1976-02-01 00:00:00+00    268.3056
1976-03-01 00:00:00+00    267.9444
1976-04-01 00:00:00+00    266.5833
1976-05-01 00:00:00+00    268.5833
1976-06-01 00:00:00+00    270.3333
1976-07-01 00:00:00+00    271.5278
1976-08-01 00:00:00+00    272.4167
1976-09-01 00:00:00+00    272.0556
1976-10-01 00:00:00+00    271.5278
1976-11-01 00:00:00+00    270.3056
1976-12-01 00:00:00+00    269.9444
1977-01-01 00:00:00+00    269.4167
1977-02-01 00:00:00+00    269.8889
1977-03-01 00:00:00+00    270.8333
1977-04-01 00:00:00+00    270.7222
1977-05-01 00:00:00+00    270.9444
1977-06-01 00:00:00+00    269.6389
1977-07-01 00:00:00+00    266.7500
1977-08-01 00:00:00+00    267.9722
1977-09-01 00:00:00+00    268.0278
1977-10-01 00:00:00+00    269.3889
1977-11-01 00:00:00+00    271.1944
1977-12-01 00:00:00+00    269.4444
1978-01-01 00:00:00+00    265.7500
1978-02-01 00:00:00+00    265.2778
1978-03-01 00:00:00+00    263.8889
1978-04-01 00:00:00+00    259.2222
1978-05-01 00:00:00+00    254.5278
1978-06-01 00:00:00+00    259.4444
1978-07-01 00:00:00+00    259.6389
1978-08-01 00:00:00+00    267.1389
1978-09-01 00:00:00+00    266.8611
1978-10-01 00:00:00+00    261.0556
1978-11-01 00:00:00+00    262.7500
1978-12-01 00:00:00+00    262.3611
1979-01-01 00:00:00+00    258.6389
1979-02-01 00:00:00+00    257.0278
1979-03-01 00:00:00+00    253.9722
1979-04-01 00:00:00+00    248.4167
1979-05-01 00:00:00+00    252.0278
1979-06-01 00:00:00+00    246.8889
1979-07-01 00:00:00+00    247.3611
1979-08-01 00:00:00+00    241.2500
1979-09-01 00:00:00+00    242.8333
1979-10-01 00:00:00+00    247.2778
1979-11-01 00:00:00+00    247.5556
1979-12-01 00:00:00+00    251.7500
1980-01-01 00:00:00+00    248.9722
1980-02-01 00:00:00+00    248.7500
1980-03-01 00:00:00+00    252.9167
1980-04-01 00:00:00+00    249.7500
1980-05-01 00:00:00+00    249.6111
1980-06-01 00:00:00+00    243.2500
1980-07-01 00:00:00+00    243.5556
1980-08-01 00:00:00+00    244.4444
1980-09-01 00:00:00+00    243.7778
1980-10-01 00:00:00+00    239.0556
1980-11-01 00:00:00+00    233.6111
1980-12-01 00:00:00+00    234.6944
1981-01-01 00:00:00+00    239.1944
1981-02-01 00:00:00+00    234.3611
1981-03-01 00:00:00+00    233.5833
1981-04-01 00:00:00+00    231.1667
1981-05-01 00:00:00+00    228.9722
1981-06-01 00:00:00+00    236.0000
1981-07-01 00:00:00+00    237.8611
1981-08-01 00:00:00+00    238.6667
1981-09-01 00:00:00+00    241.5000
1981-10-01 00:00:00+00    232.6944
1981-11-01 00:00:00+00    234.3889
1981-12-01 00:00:00+00    240.0000
1982-01-01 00:00:00+00    243.1111
1982-02-01 00:00:00+00    234.8333
1982-03-01 00:00:00+00    242.5833
1982-04-01 00:00:00+00    244.2500
1982-05-01 00:00:00+00    247.0556
1982-06-01 00:00:00+00    235.6944
1982-07-01 00:00:00+00    225.7222
1982-08-01 00:00:00+00    226.3889
1982-09-01 00:00:00+00    220.0833
1982-10-01 00:00:00+00    225.4444
1982-11-01 00:00:00+00    228.4167
1982-12-01 00:00:00+00    224.3889
1983-01-01 00:00:00+00    232.8611
1983-02-01 00:00:00+00    236.9167
1983-03-01 00:00:00+00    241.2222
1983-04-01 00:00:00+00    242.5000
1983-05-01 00:00:00+00    234.0833
1983-06-01 00:00:00+00    238.3611
1983-07-01 00:00:00+00    244.5278
1983-08-01 00:00:00+00    244.4444
1983-09-01 00:00:00+00    245.9444
1983-10-01 00:00:00+00    246.9722
1983-11-01 00:00:00+00    247.1111
1983-12-01 00:00:00+00    246.7222
1984-01-01 00:00:00+00    248.5000
1984-02-01 00:00:00+00    246.1389
1984-03-01 00:00:00+00    242.5833
1984-04-01 00:00:00+00    240.4722
1984-05-01 00:00:00+00    234.8056
1984-06-01 00:00:00+00    239.2222
1984-07-01 00:00:00+00    242.7500
1984-08-01 00:00:00+00    246.1389
1984-09-01 00:00:00+00    247.3611
1984-10-01 00:00:00+00    246.8056
1984-11-01 00:00:00+00    244.9722
1984-12-01 00:00:00+00    245.9167
1985-01-01 00:00:00+00    250.4444
1985-02-01 00:00:00+00    254.5833
1985-03-01 00:00:00+00    261.2778
1985-04-01 00:00:00+00    255.2778
1985-05-01 00:00:00+00    262.4722
1985-06-01 00:00:00+00    260.4444
1985-07-01 00:00:00+00    260.9167
1985-08-01 00:00:00+00    266.8611
1985-09-01 00:00:00+00    264.7222
1985-10-01 00:00:00+00    270.0000
1985-11-01 00:00:00+00    271.4722
1985-12-01 00:00:00+00    264.6389
1986-01-01 00:00:00+00    264.6667
1986-02-01 00:00:00+00    257.3611
1986-03-01 00:00:00+00    262.9444
1986-04-01 00:00:00+00    268.6111
1986-05-01 00:00:00+00    275.1944
1986-06-01 00:00:00+00    276.4444
1986-07-01 00:00:00+00    272.5278
1986-08-01 00:00:00+00    272.4167
1986-09-01 00:00:00+00    273.0833
1986-10-01 00:00:00+00    274.4722
1986-11-01 00:00:00+00    269.6667
1986-12-01 00:00:00+00    273.1944
1987-01-01 00:00:00+00    275.8889
1987-02-01 00:00:00+00    277.9444
1987-03-01 00:00:00+00    278.7222
1987-04-01 00:00:00+00    278.1389
1987-05-01 00:00:00+00    276.7500
1987-06-01 00:00:00+00    272.0000
1987-07-01 00:00:00+00    270.7500
1987-08-01 00:00:00+00    268.9722
1987-09-01 00:00:00+00    265.8611
1987-10-01 00:00:00+00    265.9444
1987-11-01 00:00:00+00    262.5833
1987-12-01 00:00:00+00    262.8056
1988-01-01 00:00:00+00    256.6944
1988-02-01 00:00:00+00    258.8056
1988-03-01 00:00:00+00    260.4444
1988-04-01 00:00:00+00    259.6111
1988-05-01 00:00:00+00    261.1389
1988-06-01 00:00:00+00    260.3611
1988-07-01 00:00:00+00    255.8611
1988-08-01 00:00:00+00    254.8056
1988-09-01 00:00:00+00    254.9722
1988-10-01 00:00:00+00    252.8889
1988-11-01 00:00:00+00    251.1944
1988-12-01 00:00:00+00    247.0833
1989-01-01 00:00:00+00    242.7500
1989-02-01 00:00:00+00    241.9722
1989-03-01 00:00:00+00    229.4722
1989-04-01 00:00:00+00    231.8333
1989-05-01 00:00:00+00    227.5556
1989-06-01 00:00:00+00    229.6944
1989-07-01 00:00:00+00    237.1667
1989-08-01 00:00:00+00    233.4167
1989-09-01 00:00:00+00    231.6944
1989-10-01 00:00:00+00    224.6389
1989-11-01 00:00:00+00    218.5556
1989-12-01 00:00:00+00    222.6944
1990-01-01 00:00:00+00    226.9167
1990-02-01 00:00:00+00    228.3056
1990-03-01 00:00:00+00    226.1944
1990-04-01 00:00:00+00    220.4444
1990-05-01 00:00:00+00    219.9444
1990-06-01 00:00:00+00    220.6111
1990-07-01 00:00:00+00    228.2222
1990-08-01 00:00:00+00    225.5278
1990-09-01 00:00:00+00    229.2500
1990-10-01 00:00:00+00    233.9722
1990-11-01 00:00:00+00    237.2778
1990-12-01 00:00:00+00    238.0833
1991-01-01 00:00:00+00    242.7778
1991-02-01 00:00:00+00    242.6944
1991-03-01 00:00:00+00    226.5556
1991-04-01 00:00:00+00    228.0833
1991-05-01 00:00:00+00    230.7222
1991-06-01 00:00:00+00    206.0000
1991-07-01 00:00:00+00    208.2778
1991-08-01 00:00:00+00    220.6667
1991-09-01 00:00:00+00    230.6389
1991-10-01 00:00:00+00    232.8056
1991-11-01 00:00:00+00    233.5556
1991-12-01 00:00:00+00    237.9444
1992-01-01 00:00:00+00    238.0278
1992-02-01 00:00:00+00    235.4167
1992-03-01 00:00:00+00    240.7222
1992-04-01 00:00:00+00    248.2222
1992-05-01 00:00:00+00    246.0278
1992-06-01 00:00:00+00    252.1111
1992-07-01 00:00:00+00    257.4167
1992-08-01 00:00:00+00    256.7778
1992-09-01 00:00:00+00    256.0000
1992-10-01 00:00:00+00    258.1667
1992-11-01 00:00:00+00    257.2222
1992-12-01 00:00:00+00    260.9444
1993-01-01 00:00:00+00    259.3611
1993-02-01 00:00:00+00    259.0833
1993-03-01 00:00:00+00    255.6111
1993-04-01 00:00:00+00    258.7778
1993-05-01 00:00:00+00    261.1667
1993-06-01 00:00:00+00    262.7222
1993-07-01 00:00:00+00    264.1389
1993-08-01 00:00:00+00    263.6389
1993-09-01 00:00:00+00    265.6944
1993-10-01 00:00:00+00    265.8611
1993-11-01 00:00:00+00    265.7222
1993-12-01 00:00:00+00    264.7500
1994-01-01 00:00:00+00    266.2500
1994-02-01 00:00:00+00    262.0556
1994-03-01 00:00:00+00    261.8056
1994-04-01 00:00:00+00    260.8889
1994-05-01 00:00:00+00    262.9722
1994-06-01 00:00:00+00    263.8611
1994-07-01 00:00:00+00    266.3056
1994-08-01 00:00:00+00    269.2500
1994-09-01 00:00:00+00    269.8611
1994-10-01 00:00:00+00    269.0556
1994-11-01 00:00:00+00    268.5000
1994-12-01 00:00:00+00    269.0000
1995-01-01 00:00:00+00    270.6111
1995-02-01 00:00:00+00    271.0556
1995-03-01 00:00:00+00    268.6111
1995-04-01 00:00:00+00    270.1667
1995-05-01 00:00:00+00    271.1944
1995-06-01 00:00:00+00    271.1944
1995-07-01 00:00:00+00    271.5278
1995-08-01 00:00:00+00    271.8611
1995-09-01 00:00:00+00    272.3333
1995-10-01 00:00:00+00    272.3611
1995-11-01 00:00:00+00    271.3056
1995-12-01 00:00:00+00    272.0556
1996-01-01 00:00:00+00    272.5556
1996-02-01 00:00:00+00    273.6944
1996-03-01 00:00:00+00    273.9444
1996-04-01 00:00:00+00    274.2222
1996-05-01 00:00:00+00    274.0556
1996-06-01 00:00:00+00    274.0833
1996-07-01 00:00:00+00    274.3056
1996-08-01 00:00:00+00    273.5556
1996-09-01 00:00:00+00    272.9167
1996-10-01 00:00:00+00    271.4444
1996-11-01 00:00:00+00    270.7778
1996-12-01 00:00:00+00    272.0556
1997-01-01 00:00:00+00    274.0278
1997-02-01 00:00:00+00    274.9444
1997-03-01 00:00:00+00    274.8056
1997-04-01 00:00:00+00    273.4167
1997-05-01 00:00:00+00    275.0278
1997-06-01 00:00:00+00    274.4444
1997-07-01 00:00:00+00    275.0278
1997-08-01 00:00:00+00    276.2500
1997-09-01 00:00:00+00    274.5556
1997-10-01 00:00:00+00    272.5556
1997-11-01 00:00:00+00    273.5278
1997-12-01 00:00:00+00    274.3056
1998-01-01 00:00:00+00    274.7778
1998-02-01 00:00:00+00    274.5556
1998-03-01 00:00:00+00    274.9167
1998-04-01 00:00:00+00    267.7500
1998-05-01 00:00:00+00    263.0556
1998-06-01 00:00:00+00    264.8611
1998-07-01 00:00:00+00    267.6667
1998-08-01 00:00:00+00    265.1667
1998-09-01 00:00:00+00    268.9444
1998-10-01 00:00:00+00    271.7778
1998-11-01 00:00:00+00    269.8611
1998-12-01 00:00:00+00    267.5000
1999-01-01 00:00:00+00    263.1944
1999-02-01 00:00:00+00    262.1111
1999-03-01 00:00:00+00    263.0278
1999-04-01 00:00:00+00    264.3333
1999-05-01 00:00:00+00    264.5000
1999-06-01 00:00:00+00    268.3889
1999-07-01 00:00:00+00    270.6944
1999-08-01 00:00:00+00    263.8333
1999-09-01 00:00:00+00    259.0278
1999-10-01 00:00:00+00    255.4167
1999-11-01 00:00:00+00    253.4167
1999-12-01 00:00:00+00    251.9722
2000-01-01 00:00:00+00    252.8333
2000-02-01 00:00:00+00    250.2500
2000-03-01 00:00:00+00    246.1667
2000-04-01 00:00:00+00    247.0833
2000-05-01 00:00:00+00    241.6944
2000-06-01 00:00:00+00    237.9722
2000-07-01 00:00:00+00    232.7500
2000-08-01 00:00:00+00    237.6111
2000-09-01 00:00:00+00    240.3611
2000-10-01 00:00:00+00    244.3889
2000-11-01 00:00:00+00    237.3889
2000-12-01 00:00:00+00    240.6667
2001-01-01 00:00:00+00    243.8889
2001-02-01 00:00:00+00    248.6667
2001-03-01 00:00:00+00    251.8611
2001-04-01 00:00:00+00    237.4722
2001-05-01 00:00:00+00    244.8333
2001-06-01 00:00:00+00    247.4167
2001-07-01 00:00:00+00    249.5278
2001-08-01 00:00:00+00    244.6389
2001-09-01 00:00:00+00    244.6111
2001-10-01 00:00:00+00    240.9722
2001-11-01 00:00:00+00    246.1667
2001-12-01 00:00:00+00    247.1111
2002-01-01 00:00:00+00    241.0278
2002-02-01 00:00:00+00    248.2778
2002-03-01 00:00:00+00    245.1667
2002-04-01 00:00:00+00    244.3889
2002-05-01 00:00:00+00    245.0000
2002-06-01 00:00:00+00    247.5833
2002-07-01 00:00:00+00    244.7222
2002-08-01 00:00:00+00    239.0000
2002-09-01 00:00:00+00    241.7500
2002-10-01 00:00:00+00    243.9722
2002-11-01 00:00:00+00    239.2222
2002-12-01 00:00:00+00    241.0000
2003-01-01 00:00:00+00    243.4167
2003-02-01 00:00:00+00    242.9444
2003-03-01 00:00:00+00    243.1389
2003-04-01 00:00:00+00    241.4167
2003-05-01 00:00:00+00    240.3333
2003-06-01 00:00:00+00    235.6389
2003-07-01 00:00:00+00    240.8333
2003-08-01 00:00:00+00    243.1667
2003-09-01 00:00:00+00    245.1389
2003-10-01 00:00:00+00    241.5000
2003-11-01 00:00:00+00    226.5833
2003-12-01 00:00:00+00    242.1111
2004-01-01 00:00:00+00    241.9444
2004-02-01 00:00:00+00    249.6944
2004-03-01 00:00:00+00    254.4444
2004-04-01 00:00:00+00    256.0833
2004-05-01 00:00:00+00    258.7500
2004-06-01 00:00:00+00    259.3056
2004-07-01 00:00:00+00    256.6389
2004-08-01 00:00:00+00    258.3611
2004-09-01 00:00:00+00    260.5556
2004-10-01 00:00:00+00    266.3611
2004-11-01 00:00:00+00    259.0556
2004-12-01 00:00:00+00    261.4167
2005-01-01 00:00:00+00    248.8333
2005-02-01 00:00:00+00    259.2500
2005-03-01 00:00:00+00    261.2500
2005-04-01 00:00:00+00    263.3611
2005-05-01 00:00:00+00    257.7778
2005-06-01 00:00:00+00    263.2500
2005-07-01 00:00:00+00    262.2500
2005-08-01 00:00:00+00    260.3611
2005-09-01 00:00:00+00    252.4167
2005-10-01 00:00:00+00    264.8333
2005-11-01 00:00:00+00    268.0833
2005-12-01 00:00:00+00    267.9722
2006-01-01 00:00:00+00    268.5000
2006-02-01 00:00:00+00    272.4722
2006-03-01 00:00:00+00    274.3056
2006-04-01 00:00:00+00    275.1667
2006-05-01 00:00:00+00    276.6111
2006-06-01 00:00:00+00    277.2778
2006-07-01 00:00:00+00    276.5000
2006-08-01 00:00:00+00    275.7778
2006-09-01 00:00:00+00    276.5000
2006-10-01 00:00:00+00    278.5278
2006-11-01 00:00:00+00    278.0278
2006-12-01 00:00:00+00    272.3889
2007-01-01 00:00:00+00    278.2222
2007-02-01 00:00:00+00    277.8333
2007-03-01 00:00:00+00    279.4444
2007-04-01 00:00:00+00    282.0833
2007-05-01 00:00:00+00    282.4444
2007-06-01 00:00:00+00    282.8333
2007-07-01 00:00:00+00    283.1111
2007-08-01 00:00:00+00    283.9167
2007-09-01 00:00:00+00    284.4444
2007-10-01 00:00:00+00    283.7778
2007-11-01 00:00:00+00    283.0833
2007-12-01 00:00:00+00    284.1111
2008-01-01 00:00:00+00    281.3889
2008-02-01 00:00:00+00    281.6667
2008-03-01 00:00:00+00    281.0833
2008-04-01 00:00:00+00    281.6111
2008-05-01 00:00:00+00    281.5278
2008-06-01 00:00:00+00    282.5556
2008-07-01 00:00:00+00    284.6389
2008-08-01 00:00:00+00    286.1944
2008-09-01 00:00:00+00    287.0278
2008-10-01 00:00:00+00    286.9167
2008-11-01 00:00:00+00    287.5278
2008-12-01 00:00:00+00    287.7222
2009-01-01 00:00:00+00    288.1944
2009-02-01 00:00:00+00    289.6667
2009-03-01 00:00:00+00    290.7222
2009-04-01 00:00:00+00    291.2778
2009-05-01 00:00:00+00    291.2500
2009-06-01 00:00:00+00    291.3889
2009-07-01 00:00:00+00    292.1667
2009-08-01 00:00:00+00    291.9167
2009-09-01 00:00:00+00    292.9167
2009-10-01 00:00:00+00    292.8611
2009-11-01 00:00:00+00    291.4167
2009-12-01 00:00:00+00    291.7222
2010-01-01 00:00:00+00    289.3056
2010-02-01 00:00:00+00    286.1389
2010-03-01 00:00:00+00    284.9722
2010-04-01 00:00:00+00    281.9444
2010-05-01 00:00:00+00    283.8611
2010-06-01 00:00:00+00    284.0000
2010-07-01 00:00:00+00    285.5556
2010-08-01 00:00:00+00    283.9167
2010-09-01 00:00:00+00    283.0278
2010-10-01 00:00:00+00    281.5278
2010-11-01 00:00:00+00    280.0000
2010-12-01 00:00:00+00    277.4167
2011-01-01 00:00:00+00    279.9444
2011-02-01 00:00:00+00    279.9444
2011-03-01 00:00:00+00    275.1389
2011-04-01 00:00:00+00    269.8889
2011-05-01 00:00:00+00    274.1667
2011-06-01 00:00:00+00    267.1111
2011-07-01 00:00:00+00    269.7500
2011-08-01 00:00:00+00    271.0833
2011-09-01 00:00:00+00    270.0833
2011-10-01 00:00:00+00    268.6111
2011-11-01 00:00:00+00    270.5556
2011-12-01 00:00:00+00    274.3333
2012-01-01 00:00:00+00    271.8889
2012-02-01 00:00:00+00    268.2778
2012-03-01 00:00:00+00    259.9444
2012-04-01 00:00:00+00    269.5278
2012-05-01 00:00:00+00    270.3611
2012-06-01 00:00:00+00    266.9444
2012-07-01 00:00:00+00    259.6944
2012-08-01 00:00:00+00    260.9167
2012-09-01 00:00:00+00    264.8333
2012-10-01 00:00:00+00    263.3889
2012-11-01 00:00:00+00    264.0000
2012-12-01 00:00:00+00    264.9722
2013-01-01 00:00:00+00    267.0000
2013-02-01 00:00:00+00    267.5000
2013-03-01 00:00:00+00    262.0833
2013-04-01 00:00:00+00    263.9444
2013-05-01 00:00:00+00    256.7222
2013-06-01 00:00:00+00    256.3333
2013-07-01 00:00:00+00    259.2222
2013-08-01 00:00:00+00    260.3611
2013-09-01 00:00:00+00    260.9722
2013-10-01 00:00:00+00    263.5833
2013-11-01 00:00:00+00    261.6389
2013-12-01 00:00:00+00    259.1389
2014-01-01 00:00:00+00    259.3889
2014-02-01 00:00:00+00    255.5000
2014-03-01 00:00:00+00    257.3056
2014-04-01 00:00:00+00    258.3056
2014-05-01 00:00:00+00    261.5833
2014-06-01 00:00:00+00    258.3333
2014-07-01 00:00:00+00    261.1944
2014-08-01 00:00:00+00    263.6944
2014-09-01 00:00:00+00    260.7222
2014-10-01 00:00:00+00    259.6944
2014-11-01 00:00:00+00    258.1111
2014-12-01 00:00:00+00    252.3889
2015-01-01 00:00:00+00    255.2778
2015-02-01 00:00:00+00    255.6944
2015-03-01 00:00:00+00    252.0000
2015-04-01 00:00:00+00    254.4167
2015-05-01 00:00:00+00    258.4167
2015-06-01 00:00:00+00    258.1111
2015-07-01 00:00:00+00    262.2500
2015-08-01 00:00:00+00    263.4444
2015-09-01 00:00:00+00    263.1389
2015-10-01 00:00:00+00    264.0556
2015-11-01 00:00:00+00    264.2222
2015-12-01 00:00:00+00    265.1111
2016-01-01 00:00:00+00    269.0000
2016-02-01 00:00:00+00    271.8611
2016-03-01 00:00:00+00    271.3611
2016-04-01 00:00:00+00    270.6389
2016-05-01 00:00:00+00    271.5556
2016-06-01 00:00:00+00    273.5556
2016-07-01 00:00:00+00    273.9722
2016-08-01 00:00:00+00    275.5278
2016-09-01 00:00:00+00    276.0556
2016-10-01 00:00:00+00    277.7222
2016-11-01 00:00:00+00    277.7222
2016-12-01 00:00:00+00    278.5000
2017-01-01 00:00:00+00    278.5556
2017-02-01 00:00:00+00      0.0000
2017-03-01 00:00:00+00      0.0000
2017-04-01 00:00:00+00      0.0000
2017-05-01 00:00:00+00      0.0000
2017-06-01 00:00:00+00      0.0000
2017-07-01 00:00:00+00      0.0000
2017-08-01 00:00:00+00      0.0000
2017-09-01 00:00:00+00      0.0000
2017-10-01 00:00:00+00      0.0000
2017-11-01 00:00:00+00      0.0000
2017-12-01 00:00:00+00      0.0000
