1950-01-01 00:00:00+00      0.0000
1950-02-01 00:00:00+00      0.0000
1950-03-01 00:00:00+00      0.0000
1950-04-01 00:00:00+00      0.0000
1950-05-01 00:00:00+00      0.0000
1950-06-01 00:00:00+00      0.0000
1950-07-01 00:00:00+00      0.0000
1950-08-01 00:00:00+00      0.0000
1950-09-01 00:00:00+00      0.0000
1950-10-01 00:00:00+00      0.0000
1950-11-01 00:00:00+00      0.0000
1950-12-01 00:00:00+00      0.0000
1951-01-01 00:00:00+00      0.0000
1951-02-01 00:00:00+00      0.0000
1951-03-01 00:00:00+00      0.0000
1951-04-01 00:00:00+00      0.0000
1951-05-01 00:00:00+00      0.0000
1951-06-01 00:00:00+00      0.0000
1951-07-01 00:00:00+00      0.0000
1951-08-01 00:00:00+00      0.0000
1951-09-01 00:00:00+00      0.0000
1951-10-01 00:00:00+00      0.0000
1951-11-01 00:00:00+00      0.0000
1951-12-01 00:00:00+00      0.0000
1952-01-01 00:00:00+00      0.0000
1952-02-01 00:00:00+00      0.0000
1952-03-01 00:00:00+00      0.0000
1952-04-01 00:00:00+00      0.0000
1952-05-01 00:00:00+00      0.0000
1952-06-01 00:00:00+00      0.0000
1952-07-01 00:00:00+00      0.0000
1952-08-01 00:00:00+00      0.0000
1952-09-01 00:00:00+00      0.0000
1952-10-01 00:00:00+00      0.0000
1952-11-01 00:00:00+00      0.0000
1952-12-01 00:00:00+00      0.0000
1953-01-01 00:00:00+00      0.0000
1953-02-01 00:00:00+00      0.0000
1953-03-01 00:00:00+00      0.0000
1953-04-01 00:00:00+00      0.0000
1953-05-01 00:00:00+00      0.0000
1953-06-01 00:00:00+00      0.0000
1953-07-01 00:00:00+00      0.0000
1953-08-01 00:00:00+00      0.0000
1953-09-01 00:00:00+00      0.0000
1953-10-01 00:00:00+00      0.0000
1953-11-01 00:00:00+00      0.0000
1953-12-01 00:00:00+00      0.0000
1954-01-01 00:00:00+00      0.0000
1954-02-01 00:00:00+00      0.0000
1954-03-01 00:00:00+00      0.0000
1954-04-01 00:00:00+00      0.0000
1954-05-01 00:00:00+00      0.0000
1954-06-01 00:00:00+00      0.0000
1954-07-01 00:00:00+00      0.0000
1954-08-01 00:00:00+00      0.0000
1954-09-01 00:00:00+00      0.0000
1954-10-01 00:00:00+00      0.0000
1954-11-01 00:00:00+00      0.0000
1954-12-01 00:00:00+00      0.0000
1955-01-01 00:00:00+00      0.0000
1955-02-01 00:00:00+00      0.0000
1955-03-01 00:00:00+00      0.0000
1955-04-01 00:00:00+00      0.0000
1955-05-01 00:00:00+00      0.0000
1955-06-01 00:00:00+00      0.0000
1955-07-01 00:00:00+00      0.0000
1955-08-01 00:00:00+00      0.0000
1955-09-01 00:00:00+00      0.0000
1955-10-01 00:00:00+00      0.0000
1955-11-01 00:00:00+00      0.0000
1955-12-01 00:00:00+00      0.0000
1956-01-01 00:00:00+00      0.0000
1956-02-01 00:00:00+00      0.0000
1956-03-01 00:00:00+00      0.0000
1956-04-01 00:00:00+00      0.0000
1956-05-01 00:00:00+00      0.0000
1956-06-01 00:00:00+00      0.0000
1956-07-01 00:00:00+00      0.0000
1956-08-01 00:00:00+00      0.0000
1956-09-01 00:00:00+00      0.0000
1956-10-01 00:00:00+00      0.0000
1956-11-01 00:00:00+00      0.0000
1956-12-01 00:00:00+00      0.0000
1957-01-01 00:00:00+00      0.0000
1957-02-01 00:00:00+00      0.0000
1957-03-01 00:00:00+00      0.0000
1957-04-01 00:00:00+00      0.0000
1957-05-01 00:00:00+00      0.0000
1957-06-01 00:00:00+00      0.0000
1957-07-01 00:00:00+00      0.0000
1957-08-01 00:00:00+00      0.0000
1957-09-01 00:00:00+00      0.0000
1957-10-01 00:00:00+00      0.0000
1957-11-01 00:00:00+00      0.0000
1957-12-01 00:00:00+00      0.0000
1958-01-01 00:00:00+00      0.0000
1958-02-01 00:00:00+00      0.0000
1958-03-01 00:00:00+00      0.0000
1958-04-01 00:00:00+00      0.0000
1958-05-01 00:00:00+00      0.0000
1958-06-01 00:00:00+00      0.0000
1958-07-01 00:00:00+00      0.0000
1958-08-01 00:00:00+00      0.0000
1958-09-01 00:00:00+00      0.0000
1958-10-01 00:00:00+00      0.0000
1958-11-01 00:00:00+00      0.0000
1958-12-01 00:00:00+00      0.0000
1959-01-01 00:00:00+00      0.0000
1959-02-01 00:00:00+00      0.0000
1959-03-01 00:00:00+00      0.0000
1959-04-01 00:00:00+00      0.0000
1959-05-01 00:00:00+00      0.0000
1959-06-01 00:00:00+00      0.0000
1959-07-01 00:00:00+00      0.0000
1959-08-01 00:00:00+00      0.0000
1959-09-01 00:00:00+00      0.0000
1959-10-01 00:00:00+00      0.0000
1959-11-01 00:00:00+00      0.0000
1959-12-01 00:00:00+00      0.0000
1960-01-01 00:00:00+00      0.0000
1960-02-01 00:00:00+00      0.0000
1960-03-01 00:00:00+00      0.0000
1960-04-01 00:00:00+00      0.0000
1960-05-01 00:00:00+00      0.0000
1960-06-01 00:00:00+00      0.0000
1960-07-01 00:00:00+00      0.0000
1960-08-01 00:00:00+00      0.0000
1960-09-01 00:00:00+00      0.0000
1960-10-01 00:00:00+00      0.0000
1960-11-01 00:00:00+00      0.0000
1960-12-01 00:00:00+00      0.0000
1961-01-01 00:00:00+00      0.0000
1961-02-01 00:00:00+00      0.0000
1961-03-01 00:00:00+00      0.0000
1961-04-01 00:00:00+00      0.0000
1961-05-01 00:00:00+00      0.0000
1961-06-01 00:00:00+00      0.0000
1961-07-01 00:00:00+00      0.0000
1961-08-01 00:00:00+00      0.0000
1961-09-01 00:00:00+00      0.0000
1961-10-01 00:00:00+00      0.0000
1961-11-01 00:00:00+00      0.0000
1961-12-01 00:00:00+00      0.0000
1962-01-01 00:00:00+00      0.0000
1962-02-01 00:00:00+00      0.0000
1962-03-01 00:00:00+00      0.0000
1962-04-01 00:00:00+00      0.0000
1962-05-01 00:00:00+00      0.0000
1962-06-01 00:00:00+00      0.0000
1962-07-01 00:00:00+00      0.0000
1962-08-01 00:00:00+00      0.0000
1962-09-01 00:00:00+00      0.0000
1962-10-01 00:00:00+00      0.0000
1962-11-01 00:00:00+00      0.0000
1962-12-01 00:00:00+00      0.0000
1963-01-01 00:00:00+00      0.0000
1963-02-01 00:00:00+00      0.0000
1963-03-01 00:00:00+00      0.0000
1963-04-01 00:00:00+00      0.0000
1963-05-01 00:00:00+00      0.0000
1963-06-01 00:00:00+00      0.0000
1963-07-01 00:00:00+00      0.0000
1963-08-01 00:00:00+00      0.0000
1963-09-01 00:00:00+00      0.0000
1963-10-01 00:00:00+00      0.0000
1963-11-01 00:00:00+00      0.0000
1963-12-01 00:00:00+00      0.0000
1964-01-01 00:00:00+00      0.0000
1964-02-01 00:00:00+00      0.0000
1964-03-01 00:00:00+00      0.0000
1964-04-01 00:00:00+00      0.0000
1964-05-01 00:00:00+00      0.0000
1964-06-01 00:00:00+00      0.0000
1964-07-01 00:00:00+00      0.0000
1964-08-01 00:00:00+00      0.0000
1964-09-01 00:00:00+00      0.0000
1964-10-01 00:00:00+00      0.0000
1964-11-01 00:00:00+00      0.0000
1964-12-01 00:00:00+00      0.0000
1965-01-01 00:00:00+00      0.0000
1965-02-01 00:00:00+00      0.0000
1965-03-01 00:00:00+00      0.0000
1965-04-01 00:00:00+00      0.0000
1965-05-01 00:00:00+00      0.0000
1965-06-01 00:00:00+00      0.0000
1965-07-01 00:00:00+00      0.0000
1965-08-01 00:00:00+00      0.0000
1965-09-01 00:00:00+00      0.0000
1965-10-01 00:00:00+00      0.0000
1965-11-01 00:00:00+00      0.0000
1965-12-01 00:00:00+00      0.0000
1966-01-01 00:00:00+00      0.0000
1966-02-01 00:00:00+00      0.0000
1966-03-01 00:00:00+00      0.0000
1966-04-01 00:00:00+00      0.0000
1966-05-01 00:00:00+00      0.0000
1966-06-01 00:00:00+00      0.0000
1966-07-01 00:00:00+00      0.0000
1966-08-01 00:00:00+00      0.0000
1966-09-01 00:00:00+00      0.0000
1966-10-01 00:00:00+00      0.0000
1966-11-01 00:00:00+00      0.0000
1966-12-01 00:00:00+00      0.0000
1967-01-01 00:00:00+00      0.0000
1967-02-01 00:00:00+00      0.0000
1967-03-01 00:00:00+00      0.0000
1967-04-01 00:00:00+00      0.0000
1967-05-01 00:00:00+00      0.0000
1967-06-01 00:00:00+00      0.0000
1967-07-01 00:00:00+00      0.0000
1967-08-01 00:00:00+00      0.0000
1967-09-01 00:00:00+00      0.0000
1967-10-01 00:00:00+00      0.0000
1967-11-01 00:00:00+00      0.0000
1967-12-01 00:00:00+00      0.0000
1968-01-01 00:00:00+00      0.0000
1968-02-01 00:00:00+00      0.0000
1968-03-01 00:00:00+00      0.0000
1968-04-01 00:00:00+00      0.0000
1968-05-01 00:00:00+00      0.0000
1968-06-01 00:00:00+00      0.0000
1968-07-01 00:00:00+00      0.0000
1968-08-01 00:00:00+00      0.0000
1968-09-01 00:00:00+00      0.0000
1968-10-01 00:00:00+00      0.0000
1968-11-01 00:00:00+00      0.0000
1968-12-01 00:00:00+00      0.0000
1969-01-01 00:00:00+00      0.0000
1969-02-01 00:00:00+00      0.0000
1969-03-01 00:00:00+00      0.0000
1969-04-01 00:00:00+00      0.0000
1969-05-01 00:00:00+00      0.0000
1969-06-01 00:00:00+00      0.0000
1969-07-01 00:00:00+00      0.0000
1969-08-01 00:00:00+00      0.0000
1969-09-01 00:00:00+00      0.0000
1969-10-01 00:00:00+00      0.0000
1969-11-01 00:00:00+00      0.0000
1969-12-01 00:00:00+00      0.0000
1970-01-01 00:00:00+00      0.0000
1970-02-01 00:00:00+00      0.0000
1970-03-01 00:00:00+00      0.0000
1970-04-01 00:00:00+00      0.0000
1970-05-01 00:00:00+00      0.0000
1970-06-01 00:00:00+00      0.0000
1970-07-01 00:00:00+00      0.0000
1970-08-01 00:00:00+00      0.0000
1970-09-01 00:00:00+00      0.0000
1970-10-01 00:00:00+00      0.0000
1970-11-01 00:00:00+00      0.0000
1970-12-01 00:00:00+00      0.0000
1971-01-01 00:00:00+00      0.0000
1971-02-01 00:00:00+00      0.0000
1971-03-01 00:00:00+00      0.0000
1971-04-01 00:00:00+00      0.0000
1971-05-01 00:00:00+00      0.0000
1971-06-01 00:00:00+00      0.0000
1971-07-01 00:00:00+00      0.0000
1971-08-01 00:00:00+00      0.0000
1971-09-01 00:00:00+00      0.0000
1971-10-01 00:00:00+00      0.0000
1971-11-01 00:00:00+00      0.0000
1971-12-01 00:00:00+00      0.0000
1972-01-01 00:00:00+00      0.0000
1972-02-01 00:00:00+00      0.0000
1972-03-01 00:00:00+00      0.0000
1972-04-01 00:00:00+00      0.0000
1972-05-01 00:00:00+00      0.0000
1972-06-01 00:00:00+00      0.0000
1972-07-01 00:00:00+00      0.0000
1972-08-01 00:00:00+00      0.0000
1972-09-01 00:00:00+00      0.0000
1972-10-01 00:00:00+00      0.0000
1972-11-01 00:00:00+00      0.0000
1972-12-01 00:00:00+00      0.0000
1973-01-01 00:00:00+00      0.0000
1973-02-01 00:00:00+00      0.0000
1973-03-01 00:00:00+00      0.0000
1973-04-01 00:00:00+00      0.0000
1973-05-01 00:00:00+00      0.0000
1973-06-01 00:00:00+00      0.0000
1973-07-01 00:00:00+00      0.0000
1973-08-01 00:00:00+00      0.0000
1973-09-01 00:00:00+00      0.0000
1973-10-01 00:00:00+00      0.0000
1973-11-01 00:00:00+00      0.0000
1973-12-01 00:00:00+00      0.0000
1974-01-01 00:00:00+00      0.0000
1974-02-01 00:00:00+00      0.0000
1974-03-01 00:00:00+00      0.0000
1974-04-01 00:00:00+00      0.0000
1974-05-01 00:00:00+00      0.0000
1974-06-01 00:00:00+00      0.0000
1974-07-01 00:00:00+00      0.0000
1974-08-01 00:00:00+00      0.0000
1974-09-01 00:00:00+00      0.0000
1974-10-01 00:00:00+00      0.0000
1974-11-01 00:00:00+00      0.0000
1974-12-01 00:00:00+00      0.0000
1975-01-01 00:00:00+00      0.0000
1975-02-01 00:00:00+00      0.0000
1975-03-01 00:00:00+00      0.0000
1975-04-01 00:00:00+00      0.0000
1975-05-01 00:00:00+00      0.0000
1975-06-01 00:00:00+00      0.0000
1975-07-01 00:00:00+00      0.0000
1975-08-01 00:00:00+00      0.0000
1975-09-01 00:00:00+00      0.0000
1975-10-01 00:00:00+00      0.0000
1975-11-01 00:00:00+00      0.0000
1975-12-01 00:00:00+00      0.0000
1976-01-01 00:00:00+00      0.0000
1976-02-01 00:00:00+00      0.0000
1976-03-01 00:00:00+00      0.0000
1976-04-01 00:00:00+00      0.0000
1976-05-01 00:00:00+00      0.0000
1976-06-01 00:00:00+00      0.0000
1976-07-01 00:00:00+00    258.9156
1976-08-01 00:00:00+00    260.6933
1976-09-01 00:00:00+00    260.6222
1976-10-01 00:00:00+00    260.8356
1976-11-01 00:00:00+00    260.6933
1976-12-01 00:00:00+00    261.0489
1977-01-01 00:00:00+00    261.1911
1977-02-01 00:00:00+00    261.5467
1977-03-01 00:00:00+00    261.0489
1977-04-01 00:00:00+00    260.9067
1977-05-01 00:00:00+00    260.5511
1977-06-01 00:00:00+00    259.0578
1977-07-01 00:00:00+00    257.8489
1977-08-01 00:00:00+00    257.7778
1977-09-01 00:00:00+00    258.4178
1977-10-01 00:00:00+00    260.1956
1977-11-01 00:00:00+00    260.6933
1977-12-01 00:00:00+00    261.2622
1978-01-01 00:00:00+00    260.4089
1978-02-01 00:00:00+00    260.4089
1978-03-01 00:00:00+00    261.0489
1978-04-01 00:00:00+00    257.9911
1978-05-01 00:00:00+00    256.0000
1978-06-01 00:00:00+00    256.4978
1978-07-01 00:00:00+00    256.9956
1978-08-01 00:00:00+00    258.9867
1978-09-01 00:00:00+00    258.6311
1978-10-01 00:00:00+00    257.2089
1978-11-01 00:00:00+00    258.4889
1978-12-01 00:00:00+00    258.3467
1979-01-01 00:00:00+00    256.0711
1979-02-01 00:00:00+00    255.7867
1979-03-01 00:00:00+00    255.1467
1979-04-01 00:00:00+00    252.2311
1979-05-01 00:00:00+00    253.0844
1979-06-01 00:00:00+00    250.5244
1979-07-01 00:00:00+00    251.3067
1979-08-01 00:00:00+00    248.9600
1979-09-01 00:00:00+00    250.8800
1979-10-01 00:00:00+00    253.4400
1979-11-01 00:00:00+00    253.2978
1979-12-01 00:00:00+00    256.1422
1980-01-01 00:00:00+00    254.8622
1980-02-01 00:00:00+00    255.0756
1980-03-01 00:00:00+00    256.2844
1980-04-01 00:00:00+00    254.0800
1980-05-01 00:00:00+00    253.7244
1980-06-01 00:00:00+00    251.8044
1980-07-01 00:00:00+00    252.0889
1980-08-01 00:00:00+00    252.6578
1980-09-01 00:00:00+00    251.9467
1980-10-01 00:00:00+00    251.0222
1980-11-01 00:00:00+00    248.8889
1980-12-01 00:00:00+00    250.6667
1981-01-01 00:00:00+00    253.2978
1981-02-01 00:00:00+00    251.1644
1981-03-01 00:00:00+00    250.8800
1981-04-01 00:00:00+00    249.6000
1981-05-01 00:00:00+00    247.6089
1981-06-01 00:00:00+00    249.8844
1981-07-01 00:00:00+00    251.0222
1981-08-01 00:00:00+00    251.3067
1981-09-01 00:00:00+00    252.2311
1981-10-01 00:00:00+00    248.4622
1981-11-01 00:00:00+00    249.9556
1981-12-01 00:00:00+00    253.4400
1982-01-01 00:00:00+00    254.5778
1982-02-01 00:00:00+00    250.5244
1982-03-01 00:00:00+00    252.8711
1982-04-01 00:00:00+00    252.4444
1982-05-01 00:00:00+00    252.3733
1982-06-01 00:00:00+00    246.4000
1982-07-01 00:00:00+00    241.6356
1982-08-01 00:00:00+00    242.8444
1982-09-01 00:00:00+00    240.2844
1982-10-01 00:00:00+00    245.5467
1982-11-01 00:00:00+00    247.1822
1982-12-01 00:00:00+00    245.6178
1983-01-01 00:00:00+00    249.8844
1983-02-01 00:00:00+00    251.5911
1983-03-01 00:00:00+00    253.0133
1983-04-01 00:00:00+00    251.8756
1983-05-01 00:00:00+00    248.5333
1983-06-01 00:00:00+00    250.5244
1983-07-01 00:00:00+00    252.5156
1983-08-01 00:00:00+00    251.7333
1983-09-01 00:00:00+00    252.2311
1983-10-01 00:00:00+00    253.0844
1983-11-01 00:00:00+00    254.6489
1983-12-01 00:00:00+00    255.1467
1984-01-01 00:00:00+00    255.5733
1984-02-01 00:00:00+00    254.7200
1984-03-01 00:00:00+00    254.0089
1984-04-01 00:00:00+00    252.6578
1984-05-01 00:00:00+00    249.3156
1984-06-01 00:00:00+00    250.0978
1984-07-01 00:00:00+00    250.9511
1984-08-01 00:00:00+00    252.0178
1984-09-01 00:00:00+00    252.7289
1984-10-01 00:00:00+00    253.8667
1984-11-01 00:00:00+00    253.6533
1984-12-01 00:00:00+00    254.6489
1985-01-01 00:00:00+00    250.4533
1985-02-01 00:00:00+00    251.9467
1985-03-01 00:00:00+00    252.3022
1985-04-01 00:00:00+00    253.7244
1985-05-01 00:00:00+00    253.9378
1985-06-01 00:00:00+00    255.0756
1985-07-01 00:00:00+00    257.9911
1985-08-01 00:00:00+00    257.4933
1985-09-01 00:00:00+00    257.6356
1985-10-01 00:00:00+00    257.0667
1985-11-01 00:00:00+00    259.8400
1985-12-01 00:00:00+00    259.2000
1986-01-01 00:00:00+00    259.9822
1986-02-01 00:00:00+00    258.7022
1986-03-01 00:00:00+00    260.3378
1986-04-01 00:00:00+00    262.1867
1986-05-01 00:00:00+00    261.6889
1986-06-01 00:00:00+00    261.1200
1986-07-01 00:00:00+00    260.4089
1986-08-01 00:00:00+00    260.3378
1986-09-01 00:00:00+00    260.4800
1986-10-01 00:00:00+00    261.7600
1986-11-01 00:00:00+00    260.7644
1986-12-01 00:00:00+00    261.8311
1987-01-01 00:00:00+00    263.0400
1987-02-01 00:00:00+00    264.5333
1987-03-01 00:00:00+00    264.1778
1987-04-01 00:00:00+00    263.5378
1987-05-01 00:00:00+00    262.4000
1987-06-01 00:00:00+00    259.8400
1987-07-01 00:00:00+00    260.9067
1987-08-01 00:00:00+00    259.3422
1987-09-01 00:00:00+00    256.9244
1987-10-01 00:00:00+00    257.6356
1987-11-01 00:00:00+00    257.6356
1987-12-01 00:00:00+00    257.9200
1988-01-01 00:00:00+00    256.0000
1988-02-01 00:00:00+00    257.2089
1988-03-01 00:00:00+00    256.9956
1988-04-01 00:00:00+00    256.7822
1988-05-01 00:00:00+00    256.7111
1988-06-01 00:00:00+00    255.5022
1988-07-01 00:00:00+00    253.5111
1988-08-01 00:00:00+00    252.0889
1988-09-01 00:00:00+00    252.4444
1988-10-01 00:00:00+00    252.0178
1988-11-01 00:00:00+00    252.8000
1988-12-01 00:00:00+00    251.1644
1989-01-01 00:00:00+00    246.3289
1989-02-01 00:00:00+00    245.9733
1989-03-01 00:00:00+00    241.4222
1989-04-01 00:00:00+00    241.9911
1989-05-01 00:00:00+00    239.3600
1989-06-01 00:00:00+00    243.0578
1989-07-01 00:00:00+00    245.7600
1989-08-01 00:00:00+00    243.6978
1989-09-01 00:00:00+00    241.7067
1989-10-01 00:00:00+00    239.0044
1989-11-01 00:00:00+00    236.5156
1989-12-01 00:00:00+00    239.5022
1990-01-01 00:00:00+00    240.9244
1990-02-01 00:00:00+00    240.4978
1990-03-01 00:00:00+00    238.8622
1990-04-01 00:00:00+00    236.3733
1990-05-01 00:00:00+00    236.7289
1990-06-01 00:00:00+00    240.1422
1990-07-01 00:00:00+00    242.4178
1990-08-01 00:00:00+00    240.9956
1990-09-01 00:00:00+00    242.9156
1990-10-01 00:00:00+00    245.9022
1990-11-01 00:00:00+00    247.5378
1990-12-01 00:00:00+00    247.6800
1991-01-01 00:00:00+00    250.4533
1991-02-01 00:00:00+00    249.4578
1991-03-01 00:00:00+00    239.9289
1991-04-01 00:00:00+00    240.7111
1991-05-01 00:00:00+00    240.6400
1991-06-01 00:00:00+00    225.7067
1991-07-01 00:00:00+00    227.9822
1991-08-01 00:00:00+00    235.0222
1991-09-01 00:00:00+00    239.5733
1991-10-01 00:00:00+00    240.2844
1991-11-01 00:00:00+00    240.3556
1991-12-01 00:00:00+00    242.3467
1992-01-01 00:00:00+00    242.7733
1992-02-01 00:00:00+00    243.1289
1992-03-01 00:00:00+00    244.3378
1992-04-01 00:00:00+00    246.8978
1992-05-01 00:00:00+00    245.2622
1992-06-01 00:00:00+00    250.0267
1992-07-01 00:00:00+00    250.9511
1992-08-01 00:00:00+00    250.3111
1992-09-01 00:00:00+00    249.9556
1992-10-01 00:00:00+00    251.8044
1992-11-01 00:00:00+00    248.9600
1992-12-01 00:00:00+00    251.3778
1993-01-01 00:00:00+00    250.5956
1993-02-01 00:00:00+00    252.0178
1993-03-01 00:00:00+00    250.5956
1993-04-01 00:00:00+00    251.8044
1993-05-01 00:00:00+00    250.3111
1993-06-01 00:00:00+00    252.5156
1993-07-01 00:00:00+00    251.8756
1993-08-01 00:00:00+00    251.5200
1993-09-01 00:00:00+00    252.6578
1993-10-01 00:00:00+00    251.0933
1993-11-01 00:00:00+00    252.5156
1993-12-01 00:00:00+00    253.0133
1994-01-01 00:00:00+00    253.2978
1994-02-01 00:00:00+00    252.6578
1994-03-01 00:00:00+00    251.5911
1994-04-01 00:00:00+00    250.4533
1994-05-01 00:00:00+00    252.3733
1994-06-01 00:00:00+00    251.7333
1994-07-01 00:00:00+00    252.3022
1994-08-01 00:00:00+00    252.8000
1994-09-01 00:00:00+00    254.4356
1994-10-01 00:00:00+00    254.2222
1994-11-01 00:00:00+00    253.5822
1994-12-01 00:00:00+00    253.5822
1995-01-01 00:00:00+00    255.1467
1995-02-01 00:00:00+00    255.7156
1995-03-01 00:00:00+00    254.5067
1995-04-01 00:00:00+00    253.8667
1995-05-01 00:00:00+00    253.5822
1995-06-01 00:00:00+00    252.8711
1995-07-01 00:00:00+00    251.0222
1995-08-01 00:00:00+00    251.0933
1995-09-01 00:00:00+00    252.5156
1995-10-01 00:00:00+00    253.5822
1995-11-01 00:00:00+00    255.8578
1995-12-01 00:00:00+00    256.6400
1996-01-01 00:00:00+00    257.0667
1996-02-01 00:00:00+00    257.8489
1996-03-01 00:00:00+00    257.3511
1996-04-01 00:00:00+00    256.9956
1996-05-01 00:00:00+00    255.0756
1996-06-01 00:00:00+00    253.7244
1996-07-01 00:00:00+00    252.8711
1996-08-01 00:00:00+00    253.0133
1996-09-01 00:00:00+00    253.7244
1996-10-01 00:00:00+00    254.3644
1996-11-01 00:00:00+00    255.1467
1996-12-01 00:00:00+00    256.8533
1997-01-01 00:00:00+00    258.3467
1997-02-01 00:00:00+00    258.4889
1997-03-01 00:00:00+00    257.7778
1997-04-01 00:00:00+00    256.5689
1997-05-01 00:00:00+00      0.0000
1997-06-01 00:00:00+00      0.0000
1997-07-01 00:00:00+00      0.0000
1997-08-01 00:00:00+00      0.0000
1997-09-01 00:00:00+00      0.0000
1997-10-01 00:00:00+00      0.0000
1997-11-01 00:00:00+00      0.0000
1997-12-01 00:00:00+00      0.0000
1998-01-01 00:00:00+00      0.0000
1998-02-01 00:00:00+00      0.0000
1998-03-01 00:00:00+00      0.0000
1998-04-01 00:00:00+00      0.0000
1998-05-01 00:00:00+00      0.0000
1998-06-01 00:00:00+00      0.0000
1998-07-01 00:00:00+00      0.0000
1998-08-01 00:00:00+00      0.0000
1998-09-01 00:00:00+00      0.0000
1998-10-01 00:00:00+00      0.0000
1998-11-01 00:00:00+00      0.0000
1998-12-01 00:00:00+00      0.0000
1999-01-01 00:00:00+00      0.0000
1999-02-01 00:00:00+00      0.0000
1999-03-01 00:00:00+00      0.0000
1999-04-01 00:00:00+00      0.0000
1999-05-01 00:00:00+00      0.0000
1999-06-01 00:00:00+00      0.0000
1999-07-01 00:00:00+00      0.0000
1999-08-01 00:00:00+00      0.0000
1999-09-01 00:00:00+00      0.0000
1999-10-01 00:00:00+00      0.0000
1999-11-01 00:00:00+00      0.0000
1999-12-01 00:00:00+00      0.0000
2000-01-01 00:00:00+00      0.0000
2000-02-01 00:00:00+00      0.0000
2000-03-01 00:00:00+00      0.0000
2000-04-01 00:00:00+00      0.0000
2000-05-01 00:00:00+00      0.0000
2000-06-01 00:00:00+00      0.0000
2000-07-01 00:00:00+00      0.0000
2000-08-01 00:00:00+00      0.0000
2000-09-01 00:00:00+00      0.0000
2000-10-01 00:00:00+00      0.0000
2000-11-01 00:00:00+00      0.0000
2000-12-01 00:00:00+00      0.0000
2001-01-01 00:00:00+00      0.0000
2001-02-01 00:00:00+00      0.0000
2001-03-01 00:00:00+00      0.0000
2001-04-01 00:00:00+00      0.0000
2001-05-01 00:00:00+00      0.0000
2001-06-01 00:00:00+00      0.0000
2001-07-01 00:00:00+00      0.0000
2001-08-01 00:00:00+00      0.0000
2001-09-01 00:00:00+00      0.0000
2001-10-01 00:00:00+00      0.0000
2001-11-01 00:00:00+00      0.0000
2001-12-01 00:00:00+00      0.0000
2002-01-01 00:00:00+00      0.0000
2002-02-01 00:00:00+00      0.0000
2002-03-01 00:00:00+00      0.0000
2002-04-01 00:00:00+00      0.0000
2002-05-01 00:00:00+00      0.0000
2002-06-01 00:00:00+00      0.0000
2002-07-01 00:00:00+00      0.0000
2002-08-01 00:00:00+00      0.0000
2002-09-01 00:00:00+00      0.0000
2002-10-01 00:00:00+00      0.0000
2002-11-01 00:00:00+00      0.0000
2002-12-01 00:00:00+00      0.0000
2003-01-01 00:00:00+00      0.0000
2003-02-01 00:00:00+00      0.0000
2003-03-01 00:00:00+00      0.0000
2003-04-01 00:00:00+00      0.0000
2003-05-01 00:00:00+00      0.0000
2003-06-01 00:00:00+00      0.0000
2003-07-01 00:00:00+00      0.0000
2003-08-01 00:00:00+00      0.0000
2003-09-01 00:00:00+00      0.0000
2003-10-01 00:00:00+00      0.0000
2003-11-01 00:00:00+00      0.0000
2003-12-01 00:00:00+00      0.0000
2004-01-01 00:00:00+00      0.0000
2004-02-01 00:00:00+00      0.0000
2004-03-01 00:00:00+00      0.0000
2004-04-01 00:00:00+00      0.0000
2004-05-01 00:00:00+00      0.0000
2004-06-01 00:00:00+00      0.0000
2004-07-01 00:00:00+00      0.0000
2004-08-01 00:00:00+00      0.0000
2004-09-01 00:00:00+00      0.0000
2004-10-01 00:00:00+00      0.0000
2004-11-01 00:00:00+00      0.0000
2004-12-01 00:00:00+00      0.0000
2005-01-01 00:00:00+00      0.0000
2005-02-01 00:00:00+00      0.0000
2005-03-01 00:00:00+00      0.0000
2005-04-01 00:00:00+00      0.0000
2005-05-01 00:00:00+00      0.0000
2005-06-01 00:00:00+00      0.0000
2005-07-01 00:00:00+00      0.0000
2005-08-01 00:00:00+00      0.0000
2005-09-01 00:00:00+00      0.0000
2005-10-01 00:00:00+00      0.0000
2005-11-01 00:00:00+00      0.0000
2005-12-01 00:00:00+00      0.0000
2006-01-01 00:00:00+00      0.0000
2006-02-01 00:00:00+00      0.0000
2006-03-01 00:00:00+00      0.0000
2006-04-01 00:00:00+00      0.0000
2006-05-01 00:00:00+00      0.0000
2006-06-01 00:00:00+00      0.0000
2006-07-01 00:00:00+00      0.0000
2006-08-01 00:00:00+00      0.0000
2006-09-01 00:00:00+00      0.0000
2006-10-01 00:00:00+00      0.0000
2006-11-01 00:00:00+00      0.0000
2006-12-01 00:00:00+00      0.0000
2007-01-01 00:00:00+00      0.0000
2007-02-01 00:00:00+00      0.0000
2007-03-01 00:00:00+00      0.0000
2007-04-01 00:00:00+00      0.0000
2007-05-01 00:00:00+00      0.0000
2007-06-01 00:00:00+00      0.0000
2007-07-01 00:00:00+00      0.0000
2007-08-01 00:00:00+00      0.0000
2007-09-01 00:00:00+00      0.0000
2007-10-01 00:00:00+00      0.0000
2007-11-01 00:00:00+00      0.0000
2007-12-01 00:00:00+00      0.0000
2008-01-01 00:00:00+00      0.0000
2008-02-01 00:00:00+00      0.0000
2008-03-01 00:00:00+00      0.0000
2008-04-01 00:00:00+00      0.0000
2008-05-01 00:00:00+00      0.0000
2008-06-01 00:00:00+00      0.0000
2008-07-01 00:00:00+00      0.0000
2008-08-01 00:00:00+00      0.0000
2008-09-01 00:00:00+00      0.0000
2008-10-01 00:00:00+00      0.0000
2008-11-01 00:00:00+00      0.0000
2008-12-01 00:00:00+00      0.0000
2009-01-01 00:00:00+00    262.4711
2009-02-01 00:00:00+00      0.0000
2009-03-01 00:00:00+00      0.0000
2009-04-01 00:00:00+00      0.0000
2009-05-01 00:00:00+00      0.0000
2009-06-01 00:00:00+00      0.0000
2009-07-01 00:00:00+00      0.0000
2009-08-01 00:00:00+00      0.0000
2009-09-01 00:00:00+00      0.0000
2009-10-01 00:00:00+00      0.0000
2009-11-01 00:00:00+00      0.0000
2009-12-01 00:00:00+00      0.0000
2010-01-01 00:00:00+00      0.0000
2010-02-01 00:00:00+00      0.0000
2010-03-01 00:00:00+00      0.0000
2010-04-01 00:00:00+00      0.0000
2010-05-01 00:00:00+00      0.0000
2010-06-01 00:00:00+00      0.0000
2010-07-01 00:00:00+00      0.0000
2010-08-01 00:00:00+00      0.0000
2010-09-01 00:00:00+00      0.0000
2010-10-01 00:00:00+00      0.0000
2010-11-01 00:00:00+00      0.0000
2010-12-01 00:00:00+00      0.0000
2011-01-01 00:00:00+00      0.0000
2011-02-01 00:00:00+00      0.0000
2011-03-01 00:00:00+00      0.0000
2011-04-01 00:00:00+00      0.0000
2011-05-01 00:00:00+00      0.0000
2011-06-01 00:00:00+00      0.0000
2011-07-01 00:00:00+00      0.0000
2011-08-01 00:00:00+00      0.0000
2011-09-01 00:00:00+00      0.0000
2011-10-01 00:00:00+00      0.0000
2011-11-01 00:00:00+00      0.0000
2011-12-01 00:00:00+00      0.0000
2012-01-01 00:00:00+00      0.0000
2012-02-01 00:00:00+00      0.0000
2012-03-01 00:00:00+00      0.0000
2012-04-01 00:00:00+00      0.0000
2012-05-01 00:00:00+00      0.0000
2012-06-01 00:00:00+00      0.0000
2012-07-01 00:00:00+00      0.0000
2012-08-01 00:00:00+00      0.0000
2012-09-01 00:00:00+00      0.0000
2012-10-01 00:00:00+00      0.0000
2012-11-01 00:00:00+00      0.0000
2012-12-01 00:00:00+00      0.0000
2013-01-01 00:00:00+00      0.0000
2013-02-01 00:00:00+00      0.0000
2013-03-01 00:00:00+00      0.0000
2013-04-01 00:00:00+00      0.0000
2013-05-01 00:00:00+00      0.0000
2013-06-01 00:00:00+00      0.0000
2013-07-01 00:00:00+00      0.0000
2013-08-01 00:00:00+00      0.0000
2013-09-01 00:00:00+00      0.0000
2013-10-01 00:00:00+00      0.0000
2013-11-01 00:00:00+00      0.0000
2013-12-01 00:00:00+00      0.0000
2014-01-01 00:00:00+00      0.0000
2014-02-01 00:00:00+00      0.0000
2014-03-01 00:00:00+00      0.0000
2014-04-01 00:00:00+00      0.0000
2014-05-01 00:00:00+00      0.0000
2014-06-01 00:00:00+00      0.0000
2014-07-01 00:00:00+00      0.0000
2014-08-01 00:00:00+00      0.0000
2014-09-01 00:00:00+00      0.0000
2014-10-01 00:00:00+00      0.0000
2014-11-01 00:00:00+00      0.0000
2014-12-01 00:00:00+00      0.0000
2015-01-01 00:00:00+00      0.0000
2015-02-01 00:00:00+00      0.0000
2015-03-01 00:00:00+00      0.0000
2015-04-01 00:00:00+00      0.0000
2015-05-01 00:00:00+00      0.0000
2015-06-01 00:00:00+00      0.0000
2015-07-01 00:00:00+00      0.0000
2015-08-01 00:00:00+00      0.0000
2015-09-01 00:00:00+00      0.0000
2015-10-01 00:00:00+00      0.0000
2015-11-01 00:00:00+00      0.0000
2015-12-01 00:00:00+00      0.0000
2016-01-01 00:00:00+00      0.0000
2016-02-01 00:00:00+00      0.0000
2016-03-01 00:00:00+00      0.0000
2016-04-01 00:00:00+00      0.0000
2016-05-01 00:00:00+00      0.0000
2016-06-01 00:00:00+00      0.0000
2016-07-01 00:00:00+00      0.0000
2016-08-01 00:00:00+00      0.0000
2016-09-01 00:00:00+00      0.0000
2016-10-01 00:00:00+00      0.0000
2016-11-01 00:00:00+00      0.0000
2016-12-01 00:00:00+00      0.0000
2017-01-01 00:00:00+00      0.0000
2017-02-01 00:00:00+00      0.0000
2017-03-01 00:00:00+00      0.0000
2017-04-01 00:00:00+00      0.0000
2017-05-01 00:00:00+00      0.0000
2017-06-01 00:00:00+00      0.0000
2017-07-01 00:00:00+00      0.0000
2017-08-01 00:00:00+00      0.0000
2017-09-01 00:00:00+00      0.0000
2017-10-01 00:00:00+00      0.0000
2017-11-01 00:00:00+00      0.0000
2017-12-01 00:00:00+00      0.0000
