1950-01-01 00:00:00+00      0.0000
1950-02-01 00:00:00+00      0.0000
1950-03-01 00:00:00+00      0.0000
1950-04-01 00:00:00+00      0.0000
1950-05-01 00:00:00+00      0.0000
1950-06-01 00:00:00+00      0.0000
1950-07-01 00:00:00+00      0.0000
1950-08-01 00:00:00+00      0.0000
1950-09-01 00:00:00+00      0.0000
1950-10-01 00:00:00+00      0.0000
1950-11-01 00:00:00+00      0.0000
1950-12-01 00:00:00+00      0.0000
1951-01-01 00:00:00+00      0.0000
1951-02-01 00:00:00+00      0.0000
1951-03-01 00:00:00+00      0.0000
1951-04-01 00:00:00+00      0.0000
1951-05-01 00:00:00+00      0.0000
1951-06-01 00:00:00+00      0.0000
1951-07-01 00:00:00+00      0.0000
1951-08-01 00:00:00+00      0.0000
1951-09-01 00:00:00+00      0.0000
1951-10-01 00:00:00+00      0.0000
1951-11-01 00:00:00+00      0.0000
1951-12-01 00:00:00+00      0.0000
1952-01-01 00:00:00+00      0.0000
1952-02-01 00:00:00+00      0.0000
1952-03-01 00:00:00+00      0.0000
1952-04-01 00:00:00+00      0.0000
1952-05-01 00:00:00+00      0.0000
1952-06-01 00:00:00+00      0.0000
1952-07-01 00:00:00+00      0.0000
1952-08-01 00:00:00+00      0.0000
1952-09-01 00:00:00+00      0.0000
1952-10-01 00:00:00+00      0.0000
1952-11-01 00:00:00+00      0.0000
1952-12-01 00:00:00+00      0.0000
1953-01-01 00:00:00+00      0.0000
1953-02-01 00:00:00+00      0.0000
1953-03-01 00:00:00+00      0.0000
1953-04-01 00:00:00+00      0.0000
1953-05-01 00:00:00+00      0.0000
1953-06-01 00:00:00+00      0.0000
1953-07-01 00:00:00+00      0.0000
1953-08-01 00:00:00+00      0.0000
1953-09-01 00:00:00+00      0.0000
1953-10-01 00:00:00+00      0.0000
1953-11-01 00:00:00+00      0.0000
1953-12-01 00:00:00+00      0.0000
1954-01-01 00:00:00+00      0.0000
1954-02-01 00:00:00+00      0.0000
1954-03-01 00:00:00+00      0.0000
1954-04-01 00:00:00+00      0.0000
1954-05-01 00:00:00+00      0.0000
1954-06-01 00:00:00+00      0.0000
1954-07-01 00:00:00+00      0.0000
1954-08-01 00:00:00+00      0.0000
1954-09-01 00:00:00+00      0.0000
1954-10-01 00:00:00+00      0.0000
1954-11-01 00:00:00+00      0.0000
1954-12-01 00:00:00+00      0.0000
1955-01-01 00:00:00+00      0.0000
1955-02-01 00:00:00+00      0.0000
1955-03-01 00:00:00+00      0.0000
1955-04-01 00:00:00+00      0.0000
1955-05-01 00:00:00+00      0.0000
1955-06-01 00:00:00+00      0.0000
1955-07-01 00:00:00+00      0.0000
1955-08-01 00:00:00+00      0.0000
1955-09-01 00:00:00+00      0.0000
1955-10-01 00:00:00+00      0.0000
1955-11-01 00:00:00+00      0.0000
1955-12-01 00:00:00+00      0.0000
1956-01-01 00:00:00+00      0.0000
1956-02-01 00:00:00+00      0.0000
1956-03-01 00:00:00+00      0.0000
1956-04-01 00:00:00+00      0.0000
1956-05-01 00:00:00+00      0.0000
1956-06-01 00:00:00+00      0.0000
1956-07-01 00:00:00+00      0.0000
1956-08-01 00:00:00+00      0.0000
1956-09-01 00:00:00+00      0.0000
1956-10-01 00:00:00+00      0.0000
1956-11-01 00:00:00+00      0.0000
1956-12-01 00:00:00+00      0.0000
1957-01-01 00:00:00+00      0.0000
1957-02-01 00:00:00+00      0.0000
1957-03-01 00:00:00+00      0.0000
1957-04-01 00:00:00+00      0.0000
1957-05-01 00:00:00+00      0.0000
1957-06-01 00:00:00+00      0.0000
1957-07-01 00:00:00+00      0.0000
1957-08-01 00:00:00+00      0.0000
1957-09-01 00:00:00+00      0.0000
1957-10-01 00:00:00+00      0.0000
1957-11-01 00:00:00+00      0.0000
1957-12-01 00:00:00+00      0.0000
1958-01-01 00:00:00+00      0.0000
1958-02-01 00:00:00+00      0.0000
1958-03-01 00:00:00+00      0.0000
1958-04-01 00:00:00+00      0.0000
1958-05-01 00:00:00+00      0.0000
1958-06-01 00:00:00+00      0.0000
1958-07-01 00:00:00+00      0.0000
1958-08-01 00:00:00+00      0.0000
1958-09-01 00:00:00+00      0.0000
1958-10-01 00:00:00+00      0.0000
1958-11-01 00:00:00+00      0.0000
1958-12-01 00:00:00+00      0.0000
1959-01-01 00:00:00+00      0.0000
1959-02-01 00:00:00+00      0.0000
1959-03-01 00:00:00+00      0.0000
1959-04-01 00:00:00+00      0.0000
1959-05-01 00:00:00+00      0.0000
1959-06-01 00:00:00+00      0.0000
1959-07-01 00:00:00+00      0.0000
1959-08-01 00:00:00+00      0.0000
1959-09-01 00:00:00+00      0.0000
1959-10-01 00:00:00+00      0.0000
1959-11-01 00:00:00+00      0.0000
1959-12-01 00:00:00+00      0.0000
1960-01-01 00:00:00+00      0.0000
1960-02-01 00:00:00+00      0.0000
1960-03-01 00:00:00+00      0.0000
1960-04-01 00:00:00+00      0.0000
1960-05-01 00:00:00+00      0.0000
1960-06-01 00:00:00+00      0.0000
1960-07-01 00:00:00+00      0.0000
1960-08-01 00:00:00+00      0.0000
1960-09-01 00:00:00+00      0.0000
1960-10-01 00:00:00+00      0.0000
1960-11-01 00:00:00+00      0.0000
1960-12-01 00:00:00+00      0.0000
1961-01-01 00:00:00+00      0.0000
1961-02-01 00:00:00+00      0.0000
1961-03-01 00:00:00+00      0.0000
1961-04-01 00:00:00+00      0.0000
1961-05-01 00:00:00+00      0.0000
1961-06-01 00:00:00+00      0.0000
1961-07-01 00:00:00+00      0.0000
1961-08-01 00:00:00+00      0.0000
1961-09-01 00:00:00+00      0.0000
1961-10-01 00:00:00+00      0.0000
1961-11-01 00:00:00+00      0.0000
1961-12-01 00:00:00+00      0.0000
1962-01-01 00:00:00+00      0.0000
1962-02-01 00:00:00+00      0.0000
1962-03-01 00:00:00+00      0.0000
1962-04-01 00:00:00+00      0.0000
1962-05-01 00:00:00+00      0.0000
1962-06-01 00:00:00+00      0.0000
1962-07-01 00:00:00+00      0.0000
1962-08-01 00:00:00+00      0.0000
1962-09-01 00:00:00+00      0.0000
1962-10-01 00:00:00+00      0.0000
1962-11-01 00:00:00+00      0.0000
1962-12-01 00:00:00+00      0.0000
1963-01-01 00:00:00+00      0.0000
1963-02-01 00:00:00+00      0.0000
1963-03-01 00:00:00+00      0.0000
1963-04-01 00:00:00+00      0.0000
1963-05-01 00:00:00+00      0.0000
1963-06-01 00:00:00+00      0.0000
1963-07-01 00:00:00+00      0.0000
1963-08-01 00:00:00+00      0.0000
1963-09-01 00:00:00+00      0.0000
1963-10-01 00:00:00+00      0.0000
1963-11-01 00:00:00+00      0.0000
1963-12-01 00:00:00+00      0.0000
1964-01-01 00:00:00+00      0.0000
1964-02-01 00:00:00+00      0.0000
1964-03-01 00:00:00+00      0.0000
1964-04-01 00:00:00+00      0.0000
1964-05-01 00:00:00+00      0.0000
1964-06-01 00:00:00+00      0.0000
1964-07-01 00:00:00+00      0.0000
1964-08-01 00:00:00+00      0.0000
1964-09-01 00:00:00+00      0.0000
1964-10-01 00:00:00+00      0.0000
1964-11-01 00:00:00+00      0.0000
1964-12-01 00:00:00+00      0.0000
1965-01-01 00:00:00+00      0.0000
1965-02-01 00:00:00+00      0.0000
1965-03-01 00:00:00+00      0.0000
1965-04-01 00:00:00+00      0.0000
1965-05-01 00:00:00+00      0.0000
1965-06-01 00:00:00+00      0.0000
1965-07-01 00:00:00+00      0.0000
1965-08-01 00:00:00+00      0.0000
1965-09-01 00:00:00+00      0.0000
1965-10-01 00:00:00+00      0.0000
1965-11-01 00:00:00+00      0.0000
1965-12-01 00:00:00+00      0.0000
1966-01-01 00:00:00+00      0.0000
1966-02-01 00:00:00+00      0.0000
1966-03-01 00:00:00+00      0.0000
1966-04-01 00:00:00+00      0.0000
1966-05-01 00:00:00+00      0.0000
1966-06-01 00:00:00+00      0.0000
1966-07-01 00:00:00+00      0.0000
1966-08-01 00:00:00+00      0.0000
1966-09-01 00:00:00+00      0.0000
1966-10-01 00:00:00+00      0.0000
1966-11-01 00:00:00+00      0.0000
1966-12-01 00:00:00+00      0.0000
1967-01-01 00:00:00+00      0.0000
1967-02-01 00:00:00+00      0.0000
1967-03-01 00:00:00+00      0.0000
1967-04-01 00:00:00+00      0.0000
1967-05-01 00:00:00+00      0.0000
1967-06-01 00:00:00+00      0.0000
1967-07-01 00:00:00+00      0.0000
1967-08-01 00:00:00+00      0.0000
1967-09-01 00:00:00+00      0.0000
1967-10-01 00:00:00+00      0.0000
1967-11-01 00:00:00+00      0.0000
1967-12-01 00:00:00+00      0.0000
1968-01-01 00:00:00+00      0.0000
1968-02-01 00:00:00+00      0.0000
1968-03-01 00:00:00+00      0.0000
1968-04-01 00:00:00+00      0.0000
1968-05-01 00:00:00+00      0.0000
1968-06-01 00:00:00+00      0.0000
1968-07-01 00:00:00+00      0.0000
1968-08-01 00:00:00+00      0.0000
1968-09-01 00:00:00+00      0.0000
1968-10-01 00:00:00+00      0.0000
1968-11-01 00:00:00+00      0.0000
1968-12-01 00:00:00+00      0.0000
1969-01-01 00:00:00+00      0.0000
1969-02-01 00:00:00+00      0.0000
1969-03-01 00:00:00+00      0.0000
1969-04-01 00:00:00+00      0.0000
1969-05-01 00:00:00+00      0.0000
1969-06-01 00:00:00+00      0.0000
1969-07-01 00:00:00+00      0.0000
1969-08-01 00:00:00+00      0.0000
1969-09-01 00:00:00+00      0.0000
1969-10-01 00:00:00+00      0.0000
1969-11-01 00:00:00+00      0.0000
1969-12-01 00:00:00+00      0.0000
1970-01-01 00:00:00+00      0.0000
1970-02-01 00:00:00+00      0.0000
1970-03-01 00:00:00+00      0.0000
1970-04-01 00:00:00+00      0.0000
1970-05-01 00:00:00+00      0.0000
1970-06-01 00:00:00+00      0.0000
1970-07-01 00:00:00+00      0.0000
1970-08-01 00:00:00+00      0.0000
1970-09-01 00:00:00+00      0.0000
1970-10-01 00:00:00+00      0.0000
1970-11-01 00:00:00+00      0.0000
1970-12-01 00:00:00+00      0.0000
1971-01-01 00:00:00+00      0.0000
1971-02-01 00:00:00+00      0.0000
1971-03-01 00:00:00+00      0.0000
1971-04-01 00:00:00+00      0.0000
1971-05-01 00:00:00+00      0.0000
1971-06-01 00:00:00+00      0.0000
1971-07-01 00:00:00+00      0.0000
1971-08-01 00:00:00+00      0.0000
1971-09-01 00:00:00+00      0.0000
1971-10-01 00:00:00+00      0.0000
1971-11-01 00:00:00+00      0.0000
1971-12-01 00:00:00+00      0.0000
1972-01-01 00:00:00+00      0.0000
1972-02-01 00:00:00+00      0.0000
1972-03-01 00:00:00+00      0.0000
1972-04-01 00:00:00+00      0.0000
1972-05-01 00:00:00+00      0.0000
1972-06-01 00:00:00+00      0.0000
1972-07-01 00:00:00+00      0.0000
1972-08-01 00:00:00+00      0.0000
1972-09-01 00:00:00+00      0.0000
1972-10-01 00:00:00+00      0.0000
1972-11-01 00:00:00+00      0.0000
1972-12-01 00:00:00+00      0.0000
1973-01-01 00:00:00+00      0.0000
1973-02-01 00:00:00+00      0.0000
1973-03-01 00:00:00+00      0.0000
1973-04-01 00:00:00+00      0.0000
1973-05-01 00:00:00+00      0.0000
1973-06-01 00:00:00+00      0.0000
1973-07-01 00:00:00+00      0.0000
1973-08-01 00:00:00+00      0.0000
1973-09-01 00:00:00+00      0.0000
1973-10-01 00:00:00+00      0.0000
1973-11-01 00:00:00+00      0.0000
1973-12-01 00:00:00+00      0.0000
1974-01-01 00:00:00+00      0.0000
1974-02-01 00:00:00+00      0.0000
1974-03-01 00:00:00+00      0.0000
1974-04-01 00:00:00+00      0.0000
1974-05-01 00:00:00+00      0.0000
1974-06-01 00:00:00+00      0.0000
1974-07-01 00:00:00+00      0.0000
1974-08-01 00:00:00+00      0.0000
1974-09-01 00:00:00+00      0.0000
1974-10-01 00:00:00+00      0.0000
1974-11-01 00:00:00+00      0.0000
1974-12-01 00:00:00+00      0.0000
1975-01-01 00:00:00+00      0.0000
1975-02-01 00:00:00+00      0.0000
1975-03-01 00:00:00+00      0.0000
1975-04-01 00:00:00+00      0.0000
1975-05-01 00:00:00+00      0.0000
1975-06-01 00:00:00+00      0.0000
1975-07-01 00:00:00+00      0.0000
1975-08-01 00:00:00+00      0.0000
1975-09-01 00:00:00+00      0.0000
1975-10-01 00:00:00+00      0.0000
1975-11-01 00:00:00+00      0.0000
1975-12-01 00:00:00+00      0.0000
1976-01-01 00:00:00+00      0.0000
1976-02-01 00:00:00+00      0.0000
1976-03-01 00:00:00+00      0.0000
1976-04-01 00:00:00+00      0.0000
1976-05-01 00:00:00+00      0.0000
1976-06-01 00:00:00+00      0.0000
1976-07-01 00:00:00+00      0.0000
1976-08-01 00:00:00+00      0.0000
1976-09-01 00:00:00+00      0.0000
1976-10-01 00:00:00+00      0.0000
1976-11-01 00:00:00+00      0.0000
1976-12-01 00:00:00+00    330.5556
1977-01-01 00:00:00+00    333.1667
1977-02-01 00:00:00+00    333.1111
1977-03-01 00:00:00+00    332.8611
1977-04-01 00:00:00+00    330.9444
1977-05-01 00:00:00+00    330.4722
1977-06-01 00:00:00+00    329.4167
1977-07-01 00:00:00+00    328.3611
1977-08-01 00:00:00+00    328.7500
1977-09-01 00:00:00+00    328.8611
1977-10-01 00:00:00+00    330.8611
1977-11-01 00:00:00+00    331.5278
1977-12-01 00:00:00+00    330.8333
1978-01-01 00:00:00+00    328.6111
1978-02-01 00:00:00+00    328.7222
1978-03-01 00:00:00+00    327.6667
1978-04-01 00:00:00+00    324.0278
1978-05-01 00:00:00+00    322.2500
1978-06-01 00:00:00+00    324.3333
1978-07-01 00:00:00+00    324.6667
1978-08-01 00:00:00+00    328.8611
1978-09-01 00:00:00+00    328.6944
1978-10-01 00:00:00+00    325.4167
1978-11-01 00:00:00+00    326.8056
1978-12-01 00:00:00+00    325.7222
1979-01-01 00:00:00+00    322.7500
1979-02-01 00:00:00+00    322.2778
1979-03-01 00:00:00+00    319.5833
1979-04-01 00:00:00+00    317.5278
1979-05-01 00:00:00+00    320.2778
1979-06-01 00:00:00+00    317.8889
1979-07-01 00:00:00+00    318.9444
1979-08-01 00:00:00+00    314.0833
1979-09-01 00:00:00+00    316.9167
1979-10-01 00:00:00+00    319.5000
1979-11-01 00:00:00+00    319.7222
1979-12-01 00:00:00+00    323.5556
1980-01-01 00:00:00+00    322.8333
1980-02-01 00:00:00+00    321.3889
1980-03-01 00:00:00+00    323.4722
1980-04-01 00:00:00+00    321.2778
1980-05-01 00:00:00+00    322.1667
1980-06-01 00:00:00+00    318.6389
1980-07-01 00:00:00+00    320.3889
1980-08-01 00:00:00+00    321.3889
1980-09-01 00:00:00+00    320.0278
1980-10-01 00:00:00+00    316.5556
1980-11-01 00:00:00+00    312.2500
1980-12-01 00:00:00+00    313.5278
1981-01-01 00:00:00+00    320.8889
1981-02-01 00:00:00+00    316.4444
1981-03-01 00:00:00+00    313.8889
1981-04-01 00:00:00+00    313.3056
1981-05-01 00:00:00+00    311.1667
1981-06-01 00:00:00+00    315.8611
1981-07-01 00:00:00+00    317.8333
1981-08-01 00:00:00+00    317.9722
1981-09-01 00:00:00+00    319.4167
1981-10-01 00:00:00+00    311.8889
1981-11-01 00:00:00+00    313.2222
1981-12-01 00:00:00+00    318.9722
1982-01-01 00:00:00+00    319.4167
1982-02-01 00:00:00+00    312.6389
1982-03-01 00:00:00+00    316.5833
1982-04-01 00:00:00+00    317.3056
1982-05-01 00:00:00+00    318.6389
1982-06-01 00:00:00+00    308.0556
1982-07-01 00:00:00+00    301.9167
1982-08-01 00:00:00+00    303.3611
1982-09-01 00:00:00+00    299.4444
1982-10-01 00:00:00+00    305.4444
1982-11-01 00:00:00+00    308.0833
1982-12-01 00:00:00+00    304.3333
1983-01-01 00:00:00+00    310.5556
1983-02-01 00:00:00+00    313.3056
1983-03-01 00:00:00+00    317.0278
1983-04-01 00:00:00+00    316.6667
1983-05-01 00:00:00+00    311.5000
1983-06-01 00:00:00+00    315.0278
1983-07-01 00:00:00+00    318.9444
1983-08-01 00:00:00+00    316.8889
1983-09-01 00:00:00+00    316.6111
1983-10-01 00:00:00+00    318.5833
1983-11-01 00:00:00+00    318.9444
1983-12-01 00:00:00+00    319.1667
1984-01-01 00:00:00+00    323.4444
1984-02-01 00:00:00+00    321.7500
1984-03-01 00:00:00+00    319.0000
1984-04-01 00:00:00+00    318.1667
1984-05-01 00:00:00+00    314.1389
1984-06-01 00:00:00+00    314.0833
1984-07-01 00:00:00+00    316.3056
1984-08-01 00:00:00+00    318.5000
1984-09-01 00:00:00+00    318.5000
1984-10-01 00:00:00+00    321.3889
1984-11-01 00:00:00+00    320.4444
1984-12-01 00:00:00+00    322.0278
1985-01-01 00:00:00+00    322.8056
1985-02-01 00:00:00+00    325.4722
1985-03-01 00:00:00+00    327.0000
1985-04-01 00:00:00+00    327.9444
1985-05-01 00:00:00+00    328.3056
1985-06-01 00:00:00+00    330.9167
1985-07-01 00:00:00+00    330.2778
1985-08-01 00:00:00+00    330.5000
1985-09-01 00:00:00+00    331.5833
1985-10-01 00:00:00+00    330.8056
1985-11-01 00:00:00+00    331.9444
1985-12-01 00:00:00+00    330.5278
1986-01-01 00:00:00+00    332.5833
1986-02-01 00:00:00+00    329.1389
1986-03-01 00:00:00+00    332.1667
1986-04-01 00:00:00+00    334.5556
1986-05-01 00:00:00+00    335.7222
1986-06-01 00:00:00+00    336.1111
1986-07-01 00:00:00+00    336.1111
1986-08-01 00:00:00+00    336.3889
1986-09-01 00:00:00+00    336.6389
1986-10-01 00:00:00+00    336.5278
1986-11-01 00:00:00+00    334.1667
1986-12-01 00:00:00+00    335.8611
1987-01-01 00:00:00+00    339.5556
1987-02-01 00:00:00+00    340.0000
1987-03-01 00:00:00+00    340.3056
1987-04-01 00:00:00+00    339.8333
1987-05-01 00:00:00+00    339.8611
1987-06-01 00:00:00+00    336.9722
1987-07-01 00:00:00+00    336.6944
1987-08-01 00:00:00+00    335.5278
1987-09-01 00:00:00+00    333.4444
1987-10-01 00:00:00+00    333.0000
1987-11-01 00:00:00+00    330.1389
1987-12-01 00:00:00+00    329.8889
1988-01-01 00:00:00+00    326.3611
1988-02-01 00:00:00+00    327.7500
1988-03-01 00:00:00+00    328.8056
1988-04-01 00:00:00+00    327.6111
1988-05-01 00:00:00+00    328.9722
1988-06-01 00:00:00+00    326.7500
1988-07-01 00:00:00+00    324.4167
1988-08-01 00:00:00+00    323.3333
1988-09-01 00:00:00+00    322.0556
1988-10-01 00:00:00+00    320.6389
1988-11-01 00:00:00+00    322.7500
1988-12-01 00:00:00+00    318.6389
1989-01-01 00:00:00+00    316.1944
1989-02-01 00:00:00+00    315.3333
1989-03-01 00:00:00+00    307.1111
1989-04-01 00:00:00+00    309.0000
1989-05-01 00:00:00+00    306.7222
1989-06-01 00:00:00+00    309.5278
1989-07-01 00:00:00+00    315.2778
1989-08-01 00:00:00+00    312.5278
1989-09-01 00:00:00+00    309.3056
1989-10-01 00:00:00+00    303.7500
1989-11-01 00:00:00+00    302.6389
1989-12-01 00:00:00+00    305.8333
1990-01-01 00:00:00+00    304.8056
1990-02-01 00:00:00+00    309.0278
1990-03-01 00:00:00+00    306.5278
1990-04-01 00:00:00+00    302.0833
1990-05-01 00:00:00+00    303.2778
1990-06-01 00:00:00+00    305.7222
1990-07-01 00:00:00+00    311.6389
1990-08-01 00:00:00+00    310.1111
1990-09-01 00:00:00+00    314.2778
1990-10-01 00:00:00+00    317.0556
1990-11-01 00:00:00+00    318.6111
1990-12-01 00:00:00+00    317.8889
1991-01-01 00:00:00+00    321.2500
1991-02-01 00:00:00+00    320.1389
1991-03-01 00:00:00+00    305.7778
1991-04-01 00:00:00+00    309.0556
1991-05-01 00:00:00+00    309.5000
1991-06-01 00:00:00+00    286.0556
1991-07-01 00:00:00+00    290.0000
1991-08-01 00:00:00+00    302.7222
1991-09-01 00:00:00+00    311.0000
1991-10-01 00:00:00+00    312.6667
1991-11-01 00:00:00+00    309.4722
1991-12-01 00:00:00+00    310.4444
1992-01-01 00:00:00+00    311.2500
1992-02-01 00:00:00+00    310.9167
1992-03-01 00:00:00+00    314.4722
1992-04-01 00:00:00+00    318.7222
1992-05-01 00:00:00+00    317.4444
1992-06-01 00:00:00+00    321.0833
1992-07-01 00:00:00+00    323.8056
1992-08-01 00:00:00+00    322.9722
1992-09-01 00:00:00+00    321.6944
1992-10-01 00:00:00+00    323.9444
1992-11-01 00:00:00+00    322.8056
1992-12-01 00:00:00+00    324.8889
1993-01-01 00:00:00+00    323.1111
1993-02-01 00:00:00+00    321.7500
1993-03-01 00:00:00+00    320.6667
1993-04-01 00:00:00+00    323.9722
1993-05-01 00:00:00+00    324.8056
1993-06-01 00:00:00+00    324.3889
1993-07-01 00:00:00+00    323.8611
1993-08-01 00:00:00+00    324.5833
1993-09-01 00:00:00+00    326.5278
1993-10-01 00:00:00+00    324.5833
1993-11-01 00:00:00+00    324.9167
1993-12-01 00:00:00+00    324.0000
1994-01-01 00:00:00+00    324.4722
1994-02-01 00:00:00+00    323.3056
1994-03-01 00:00:00+00    323.8056
1994-04-01 00:00:00+00    323.2778
1994-05-01 00:00:00+00    324.4444
1994-06-01 00:00:00+00    324.4167
1994-07-01 00:00:00+00    325.2222
1994-08-01 00:00:00+00    327.5556
1994-09-01 00:00:00+00    326.2222
1994-10-01 00:00:00+00    324.4167
1994-11-01 00:00:00+00    325.0833
1994-12-01 00:00:00+00    323.9444
1995-01-01 00:00:00+00    329.3889
1995-02-01 00:00:00+00    328.7500
1995-03-01 00:00:00+00    326.7778
1995-04-01 00:00:00+00    326.6667
1995-05-01 00:00:00+00    327.5556
1995-06-01 00:00:00+00    327.3056
1995-07-01 00:00:00+00    327.3889
1995-08-01 00:00:00+00    328.8611
1995-09-01 00:00:00+00    329.8056
1995-10-01 00:00:00+00    330.3611
1995-11-01 00:00:00+00    329.1389
1995-12-01 00:00:00+00    329.4722
1996-01-01 00:00:00+00    329.2778
1996-02-01 00:00:00+00    330.5000
1996-03-01 00:00:00+00    330.1111
1996-04-01 00:00:00+00    330.4444
1996-05-01 00:00:00+00    329.5556
1996-06-01 00:00:00+00    328.8611
1996-07-01 00:00:00+00    328.6667
1996-08-01 00:00:00+00    329.3333
1996-09-01 00:00:00+00    329.7500
1996-10-01 00:00:00+00    329.5556
1996-11-01 00:00:00+00    328.5000
1996-12-01 00:00:00+00    329.7222
1997-01-01 00:00:00+00    328.7778
1997-02-01 00:00:00+00    329.6944
1997-03-01 00:00:00+00    328.6944
1997-04-01 00:00:00+00    329.3056
1997-05-01 00:00:00+00    329.9167
1997-06-01 00:00:00+00    329.5833
1997-07-01 00:00:00+00    328.9444
1997-08-01 00:00:00+00    330.6667
1997-09-01 00:00:00+00    330.7500
1997-10-01 00:00:00+00    330.6111
1997-11-01 00:00:00+00    330.8056
1997-12-01 00:00:00+00    330.4444
1998-01-01 00:00:00+00    329.5000
1998-02-01 00:00:00+00    330.4722
1998-03-01 00:00:00+00    331.1944
1998-04-01 00:00:00+00    325.8056
1998-05-01 00:00:00+00    325.4167
1998-06-01 00:00:00+00    325.9167
1998-07-01 00:00:00+00    327.9167
1998-08-01 00:00:00+00    326.8333
1998-09-01 00:00:00+00    329.3056
1998-10-01 00:00:00+00    331.4444
1998-11-01 00:00:00+00    329.7778
1998-12-01 00:00:00+00    328.0278
1999-01-01 00:00:00+00    323.5000
1999-02-01 00:00:00+00    323.9444
1999-03-01 00:00:00+00    325.0000
1999-04-01 00:00:00+00    325.7500
1999-05-01 00:00:00+00    325.2222
1999-06-01 00:00:00+00    328.5278
1999-07-01 00:00:00+00    322.2222
1999-08-01 00:00:00+00    320.5278
1999-09-01 00:00:00+00    322.3333
1999-10-01 00:00:00+00    321.5833
1999-11-01 00:00:00+00    320.5556
1999-12-01 00:00:00+00    317.5000
2000-01-01 00:00:00+00    319.1944
2000-02-01 00:00:00+00    318.7500
2000-03-01 00:00:00+00    315.8333
2000-04-01 00:00:00+00    316.7778
2000-05-01 00:00:00+00    312.1944
2000-06-01 00:00:00+00    310.7778
2000-07-01 00:00:00+00    308.4444
2000-08-01 00:00:00+00    314.1667
2000-09-01 00:00:00+00    316.3889
2000-10-01 00:00:00+00    320.4444
2000-11-01 00:00:00+00    314.5000
2000-12-01 00:00:00+00    315.7222
2001-01-01 00:00:00+00    319.2222
2001-02-01 00:00:00+00    322.6667
2001-03-01 00:00:00+00    323.0278
2001-04-01 00:00:00+00    312.3889
2001-05-01 00:00:00+00    316.2222
2001-06-01 00:00:00+00    318.8056
2001-07-01 00:00:00+00    319.7778
2001-08-01 00:00:00+00    315.9722
2001-09-01 00:00:00+00    317.7500
2001-10-01 00:00:00+00    317.0556
2001-11-01 00:00:00+00    319.4722
2001-12-01 00:00:00+00    318.0278
2002-01-01 00:00:00+00    312.7778
2002-02-01 00:00:00+00    318.8889
2002-03-01 00:00:00+00    314.2778
2002-04-01 00:00:00+00    316.1389
2002-05-01 00:00:00+00    316.2778
2002-06-01 00:00:00+00    317.1111
2002-07-01 00:00:00+00    316.9444
2002-08-01 00:00:00+00    316.1111
2002-09-01 00:00:00+00    315.5556
2002-10-01 00:00:00+00    315.0278
2002-11-01 00:00:00+00    311.0000
2002-12-01 00:00:00+00    313.0556
2003-01-01 00:00:00+00    314.9167
2003-02-01 00:00:00+00    313.7778
2003-03-01 00:00:00+00    314.8611
2003-04-01 00:00:00+00    313.8056
2003-05-01 00:00:00+00    313.8056
2003-06-01 00:00:00+00    309.0556
2003-07-01 00:00:00+00    313.9444
2003-08-01 00:00:00+00    315.7778
2003-09-01 00:00:00+00    317.3333
2003-10-01 00:00:00+00    310.9722
2003-11-01 00:00:00+00    303.7222
2003-12-01 00:00:00+00    314.5833
2004-01-01 00:00:00+00    307.0556
2004-02-01 00:00:00+00    318.6667
2004-03-01 00:00:00+00    321.1944
2004-04-01 00:00:00+00    322.3333
2004-05-01 00:00:00+00    324.5000
2004-06-01 00:00:00+00    320.8056
2004-07-01 00:00:00+00    322.2778
2004-08-01 00:00:00+00    324.3056
2004-09-01 00:00:00+00    325.7778
2004-10-01 00:00:00+00    328.8333
2004-11-01 00:00:00+00    323.2222
2004-12-01 00:00:00+00    313.8889
2005-01-01 00:00:00+00    309.8611
2005-02-01 00:00:00+00    322.6944
2005-03-01 00:00:00+00    323.2778
2005-04-01 00:00:00+00      0.0000
2005-05-01 00:00:00+00      0.0000
2005-06-01 00:00:00+00      0.0000
2005-07-01 00:00:00+00      0.0000
2005-08-01 00:00:00+00      0.0000
2005-09-01 00:00:00+00      0.0000
2005-10-01 00:00:00+00      0.0000
2005-11-01 00:00:00+00      0.0000
2005-12-01 00:00:00+00    327.8611
2006-01-01 00:00:00+00    327.8333
2006-02-01 00:00:00+00    330.1667
2006-03-01 00:00:00+00    331.0000
2006-04-01 00:00:00+00    331.6667
2006-05-01 00:00:00+00    332.1389
2006-06-01 00:00:00+00    332.3889
2006-07-01 00:00:00+00    331.4167
2006-08-01 00:00:00+00    332.0278
2006-09-01 00:00:00+00    332.2222
2006-10-01 00:00:00+00    332.3889
2006-11-01 00:00:00+00    332.1667
2006-12-01 00:00:00+00    329.6667
2007-01-01 00:00:00+00    333.2778
2007-02-01 00:00:00+00    333.0000
2007-03-01 00:00:00+00    333.3056
2007-04-01 00:00:00+00    334.3333
2007-05-01 00:00:00+00    335.0556
2007-06-01 00:00:00+00    334.8056
2007-07-01 00:00:00+00    335.0556
2007-08-01 00:00:00+00    335.0000
2007-09-01 00:00:00+00    335.8056
2007-10-01 00:00:00+00    335.8611
2007-11-01 00:00:00+00    335.6944
2007-12-01 00:00:00+00    336.0556
2008-01-01 00:00:00+00    334.3611
2008-02-01 00:00:00+00    333.3889
2008-03-01 00:00:00+00    333.3611
2008-04-01 00:00:00+00    334.4167
2008-05-01 00:00:00+00    334.0833
2008-06-01 00:00:00+00    334.8333
2008-07-01 00:00:00+00    335.6944
2008-08-01 00:00:00+00    336.6111
2008-09-01 00:00:00+00    337.5556
2008-10-01 00:00:00+00    338.3056
2008-11-01 00:00:00+00    338.0556
2008-12-01 00:00:00+00    337.7222
2009-01-01 00:00:00+00    336.8333
2009-02-01 00:00:00+00    337.5556
2009-03-01 00:00:00+00    337.7778
2009-04-01 00:00:00+00    338.4167
2009-05-01 00:00:00+00    338.5278
2009-06-01 00:00:00+00    338.8611
2009-07-01 00:00:00+00    339.3056
2009-08-01 00:00:00+00    339.4444
2009-09-01 00:00:00+00    339.7500
2009-10-01 00:00:00+00    339.0833
2009-11-01 00:00:00+00    339.0833
2009-12-01 00:00:00+00    339.0278
2010-01-01 00:00:00+00    337.9444
2010-02-01 00:00:00+00    336.0278
2010-03-01 00:00:00+00    334.2222
2010-04-01 00:00:00+00    332.9722
2010-05-01 00:00:00+00    334.2500
2010-06-01 00:00:00+00    333.4444
2010-07-01 00:00:00+00    334.2778
2010-08-01 00:00:00+00    333.7222
2010-09-01 00:00:00+00    332.9722
2010-10-01 00:00:00+00    334.6111
2010-11-01 00:00:00+00    332.2500
2010-12-01 00:00:00+00    330.5833
2011-01-01 00:00:00+00    332.5833
2011-02-01 00:00:00+00    332.5000
2011-03-01 00:00:00+00    329.4722
2011-04-01 00:00:00+00    326.0556
2011-05-01 00:00:00+00    329.2222
2011-06-01 00:00:00+00    325.4444
2011-07-01 00:00:00+00    328.2500
2011-08-01 00:00:00+00    329.4722
2011-09-01 00:00:00+00    329.8889
2011-10-01 00:00:00+00    328.5278
2011-11-01 00:00:00+00    329.7222
2011-12-01 00:00:00+00    329.9722
2012-01-01 00:00:00+00    329.4444
2012-02-01 00:00:00+00    327.3889
2012-03-01 00:00:00+00    323.7222
2012-04-01 00:00:00+00    329.7500
2012-05-01 00:00:00+00    329.8889
2012-06-01 00:00:00+00    328.1667
2012-07-01 00:00:00+00    323.0556
2012-08-01 00:00:00+00    325.8889
2012-09-01 00:00:00+00    328.8056
2012-10-01 00:00:00+00    328.7222
2012-11-01 00:00:00+00    328.2222
2012-12-01 00:00:00+00    328.0000
2013-01-01 00:00:00+00    329.2500
2013-02-01 00:00:00+00    329.4167
2013-03-01 00:00:00+00    326.9722
2013-04-01 00:00:00+00    327.5000
2013-05-01 00:00:00+00    323.3611
2013-06-01 00:00:00+00    324.3611
2013-07-01 00:00:00+00    325.8056
2013-08-01 00:00:00+00    327.6667
2013-09-01 00:00:00+00    329.0833
2013-10-01 00:00:00+00    331.2500
2013-11-01 00:00:00+00    329.4722
2013-12-01 00:00:00+00    326.2500
2014-01-01 00:00:00+00    325.8056
2014-02-01 00:00:00+00    322.7222
2014-03-01 00:00:00+00    324.0000
2014-04-01 00:00:00+00    323.6389
2014-05-01 00:00:00+00    325.6667
2014-06-01 00:00:00+00    323.5000
2014-07-01 00:00:00+00    325.4167
2014-08-01 00:00:00+00    326.8056
2014-09-01 00:00:00+00    323.7778
2014-10-01 00:00:00+00    322.4444
2014-11-01 00:00:00+00    321.0000
2014-12-01 00:00:00+00    316.8611
2015-01-01 00:00:00+00    320.0000
2015-02-01 00:00:00+00    320.8611
2015-03-01 00:00:00+00    318.7500
2015-04-01 00:00:00+00    320.8056
2015-05-01 00:00:00+00    322.8611
2015-06-01 00:00:00+00    321.6389
2015-07-01 00:00:00+00    324.7778
2015-08-01 00:00:00+00    324.5000
2015-09-01 00:00:00+00    325.1944
2015-10-01 00:00:00+00    325.0000
2015-11-01 00:00:00+00    324.9722
2015-12-01 00:00:00+00    324.5278
2016-01-01 00:00:00+00    326.2500
2016-02-01 00:00:00+00    327.4722
2016-03-01 00:00:00+00    325.9722
2016-04-01 00:00:00+00    326.2500
2016-05-01 00:00:00+00    327.6389
2016-06-01 00:00:00+00    329.2500
2016-07-01 00:00:00+00    328.3611
2016-08-01 00:00:00+00    330.0833
2016-09-01 00:00:00+00    330.2500
2016-10-01 00:00:00+00    331.8333
2016-11-01 00:00:00+00    330.7778
2016-12-01 00:00:00+00    331.2778
2017-01-01 00:00:00+00      0.0000
2017-02-01 00:00:00+00      0.0000
2017-03-01 00:00:00+00      0.0000
2017-04-01 00:00:00+00      0.0000
2017-05-01 00:00:00+00      0.0000
2017-06-01 00:00:00+00      0.0000
2017-07-01 00:00:00+00      0.0000
2017-08-01 00:00:00+00      0.0000
2017-09-01 00:00:00+00      0.0000
2017-10-01 00:00:00+00      0.0000
2017-11-01 00:00:00+00      0.0000
2017-12-01 00:00:00+00      0.0000
